ENDPOINT_NAME;PUBLIC_TOPICS;SENSOR;NETWORK;PASS;BROKER_IP;BROKER_PORT;MQTT_ID;SDA;SCL
"end1";{"hum","temp","humSuelo","luz"};{"ADC0","ADC0","ADC0","ADC0"};"network";"13578642";"192.168.4.1";"1883";10;3;4
"end2";{"hum","temp","humSuelo","luz"};{"ADC0","ADC0","ADC0","ADC0"};"network";"13578642";"192.168.4.1";"1883";10;3;4
"end3";{"hum","temp","humSuelo","luz"};{"ADC0","ADC0","ADC0","ADC0"};"network";"13578642";"192.168.4.1";"1883";10;3;4
"end4";{"hum","temp","humSuelo","luz"};{"ADC0","ADC0","ADC0","ADC0"};"network";"13578642";"192.168.4.1";"1883";10;3;4
"end5";{"hum","temp","humSuelo","luz"};{"ADC0","ADC0","ADC0","ADC0"};"network";"13578642";"192.168.4.1";"1883";10;3;4
"end6";{"hum","temp","humSuelo","luz"};{"ADC0","ADC0","ADC0","ADC0"};"network";"13578642";"192.168.4.1";"1883";10;3;4
