%!PS-Adobe-2.0 EPSF-2.0
%%Title: /home/johnny/projects/sensor-network-iot/dev/sensor-network-iot/docs/latex/informe2020-02-25/imag/arq/comunication-model.dia
%%Creator: Dia v0.97+git
%%CreationDate: Tue Feb 25 21:04:08 2020
%%For: johnny
%%Orientation: Portrait
%%Magnification: 1.0000
%%BoundingBox: 0 0 668 573
%%BeginSetup
%%EndSetup
%%EndComments
%%BeginProlog
[ /.notdef /.notdef /.notdef /.notdef /.notdef /.notdef /.notdef /.notdef /.notdef /.notdef
/.notdef /.notdef /.notdef /.notdef /.notdef /.notdef /.notdef /.notdef /.notdef /.notdef
/.notdef /.notdef /.notdef /.notdef /.notdef /.notdef /.notdef /.notdef /.notdef /.notdef
/.notdef /.notdef /space /exclam /quotedbl /numbersign /dollar /percent /ampersand /quoteright
/parenleft /parenright /asterisk /plus /comma /hyphen /period /slash /zero /one
/two /three /four /five /six /seven /eight /nine /colon /semicolon
/less /equal /greater /question /at /A /B /C /D /E
/F /G /H /I /J /K /L /M /N /O
/P /Q /R /S /T /U /V /W /X /Y
/Z /bracketleft /backslash /bracketright /asciicircum /underscore /quoteleft /a /b /c
/d /e /f /g /h /i /j /k /l /m
/n /o /p /q /r /s /t /u /v /w
/x /y /z /braceleft /bar /braceright /asciitilde /.notdef /.notdef /.notdef
/.notdef /.notdef /.notdef /.notdef /.notdef /.notdef /.notdef /.notdef /.notdef /.notdef
/.notdef /.notdef /.notdef /.notdef /.notdef /.notdef /.notdef /.notdef /.notdef /.notdef
/.notdef /.notdef /.notdef /.notdef /.notdef /.notdef /.notdef /.notdef /.notdef /.notdef
/space /exclamdown /cent /sterling /currency /yen /brokenbar /section /dieresis /copyright
/ordfeminine /guillemotleft /logicalnot /hyphen /registered /macron /degree /plusminus /twosuperior /threesuperior
/acute /mu /paragraph /periodcentered /cedilla /onesuperior /ordmasculine /guillemotright /onequarter /onehalf
/threequarters /questiondown /Agrave /Aacute /Acircumflex /Atilde /Adieresis /Aring /AE /Ccedilla
/Egrave /Eacute /Ecircumflex /Edieresis /Igrave /Iacute /Icircumflex /Idieresis /Eth /Ntilde
/Ograve /Oacute /Ocircumflex /Otilde /Odieresis /multiply /Oslash /Ugrave /Uacute /Ucircumflex
/Udieresis /Yacute /Thorn /germandbls /agrave /aacute /acircumflex /atilde /adieresis /aring
/ae /ccedilla /egrave /eacute /ecircumflex /edieresis /igrave /iacute /icircumflex /idieresis
/eth /ntilde /ograve /oacute /ocircumflex /otilde /odieresis /divide /oslash /ugrave
/uacute /ucircumflex /udieresis /yacute /thorn /ydieresis] /isolatin1encoding exch def
/cp {closepath} bind def
/c {curveto} bind def
/f {fill} bind def
/a {arc} bind def
/ef {eofill} bind def
/ex {exch} bind def
/gr {grestore} bind def
/gs {gsave} bind def
/sa {save} bind def
/rs {restore} bind def
/l {lineto} bind def
/m {moveto} bind def
/rm {rmoveto} bind def
/n {newpath} bind def
/s {stroke} bind def
/sh {show} bind def
/slc {setlinecap} bind def
/slj {setlinejoin} bind def
/slw {setlinewidth} bind def
/srgb {setrgbcolor} bind def
/rot {rotate} bind def
/sc {scale} bind def
/sd {setdash} bind def
/ff {findfont} bind def
/sf {setfont} bind def
/scf {scalefont} bind def
/sw {stringwidth pop} bind def
/tr {translate} bind def

/ellipsedict 8 dict def
ellipsedict /mtrx matrix put
/ellipse
{ ellipsedict begin
   /endangle exch def
   /startangle exch def
   /yrad exch def
   /xrad exch def
   /y exch def
   /x exch def   /savematrix mtrx currentmatrix def
   x y tr xrad yrad sc
   0 0 1 startangle endangle arc
   savematrix setmatrix
   end
} def

/mergeprocs {
dup length
3 -1 roll
dup
length
dup
5 1 roll
3 -1 roll
add
array cvx
dup
3 -1 roll
0 exch
putinterval
dup
4 2 roll
putinterval
} bind def
/Times-Roman-latin1
    /Times-Roman findfont
    dup length dict begin
	{1 index /FID ne {def} {pop pop} ifelse} forall
	/Encoding isolatin1encoding def
    currentdict end
definefont pop
/Times-Italic-latin1
    /Times-Italic findfont
    dup length dict begin
	{1 index /FID ne {def} {pop pop} ifelse} forall
	/Encoding isolatin1encoding def
    currentdict end
definefont pop
/Times-Bold-latin1
    /Times-Bold findfont
    dup length dict begin
	{1 index /FID ne {def} {pop pop} ifelse} forall
	/Encoding isolatin1encoding def
    currentdict end
definefont pop
/Times-BoldItalic-latin1
    /Times-BoldItalic findfont
    dup length dict begin
	{1 index /FID ne {def} {pop pop} ifelse} forall
	/Encoding isolatin1encoding def
    currentdict end
definefont pop
/AvantGarde-Gothic-latin1
    /AvantGarde-Gothic findfont
    dup length dict begin
	{1 index /FID ne {def} {pop pop} ifelse} forall
	/Encoding isolatin1encoding def
    currentdict end
definefont pop
/AvantGarde-BookOblique-latin1
    /AvantGarde-BookOblique findfont
    dup length dict begin
	{1 index /FID ne {def} {pop pop} ifelse} forall
	/Encoding isolatin1encoding def
    currentdict end
definefont pop
/AvantGarde-Demi-latin1
    /AvantGarde-Demi findfont
    dup length dict begin
	{1 index /FID ne {def} {pop pop} ifelse} forall
	/Encoding isolatin1encoding def
    currentdict end
definefont pop
/AvantGarde-DemiOblique-latin1
    /AvantGarde-DemiOblique findfont
    dup length dict begin
	{1 index /FID ne {def} {pop pop} ifelse} forall
	/Encoding isolatin1encoding def
    currentdict end
definefont pop
/Bookman-Light-latin1
    /Bookman-Light findfont
    dup length dict begin
	{1 index /FID ne {def} {pop pop} ifelse} forall
	/Encoding isolatin1encoding def
    currentdict end
definefont pop
/Bookman-LightItalic-latin1
    /Bookman-LightItalic findfont
    dup length dict begin
	{1 index /FID ne {def} {pop pop} ifelse} forall
	/Encoding isolatin1encoding def
    currentdict end
definefont pop
/Bookman-Demi-latin1
    /Bookman-Demi findfont
    dup length dict begin
	{1 index /FID ne {def} {pop pop} ifelse} forall
	/Encoding isolatin1encoding def
    currentdict end
definefont pop
/Bookman-DemiItalic-latin1
    /Bookman-DemiItalic findfont
    dup length dict begin
	{1 index /FID ne {def} {pop pop} ifelse} forall
	/Encoding isolatin1encoding def
    currentdict end
definefont pop
/Courier-latin1
    /Courier findfont
    dup length dict begin
	{1 index /FID ne {def} {pop pop} ifelse} forall
	/Encoding isolatin1encoding def
    currentdict end
definefont pop
/Courier-Oblique-latin1
    /Courier-Oblique findfont
    dup length dict begin
	{1 index /FID ne {def} {pop pop} ifelse} forall
	/Encoding isolatin1encoding def
    currentdict end
definefont pop
/Courier-Bold-latin1
    /Courier-Bold findfont
    dup length dict begin
	{1 index /FID ne {def} {pop pop} ifelse} forall
	/Encoding isolatin1encoding def
    currentdict end
definefont pop
/Courier-BoldOblique-latin1
    /Courier-BoldOblique findfont
    dup length dict begin
	{1 index /FID ne {def} {pop pop} ifelse} forall
	/Encoding isolatin1encoding def
    currentdict end
definefont pop
/Helvetica-latin1
    /Helvetica findfont
    dup length dict begin
	{1 index /FID ne {def} {pop pop} ifelse} forall
	/Encoding isolatin1encoding def
    currentdict end
definefont pop
/Helvetica-Oblique-latin1
    /Helvetica-Oblique findfont
    dup length dict begin
	{1 index /FID ne {def} {pop pop} ifelse} forall
	/Encoding isolatin1encoding def
    currentdict end
definefont pop
/Helvetica-Bold-latin1
    /Helvetica-Bold findfont
    dup length dict begin
	{1 index /FID ne {def} {pop pop} ifelse} forall
	/Encoding isolatin1encoding def
    currentdict end
definefont pop
/Helvetica-BoldOblique-latin1
    /Helvetica-BoldOblique findfont
    dup length dict begin
	{1 index /FID ne {def} {pop pop} ifelse} forall
	/Encoding isolatin1encoding def
    currentdict end
definefont pop
/Helvetica-Narrow-latin1
    /Helvetica-Narrow findfont
    dup length dict begin
	{1 index /FID ne {def} {pop pop} ifelse} forall
	/Encoding isolatin1encoding def
    currentdict end
definefont pop
/Helvetica-Narrow-Oblique-latin1
    /Helvetica-Narrow-Oblique findfont
    dup length dict begin
	{1 index /FID ne {def} {pop pop} ifelse} forall
	/Encoding isolatin1encoding def
    currentdict end
definefont pop
/Helvetica-Narrow-Bold-latin1
    /Helvetica-Narrow-Bold findfont
    dup length dict begin
	{1 index /FID ne {def} {pop pop} ifelse} forall
	/Encoding isolatin1encoding def
    currentdict end
definefont pop
/Helvetica-Narrow-BoldOblique-latin1
    /Helvetica-Narrow-BoldOblique findfont
    dup length dict begin
	{1 index /FID ne {def} {pop pop} ifelse} forall
	/Encoding isolatin1encoding def
    currentdict end
definefont pop
/NewCenturySchlbk-Roman-latin1
    /NewCenturySchlbk-Roman findfont
    dup length dict begin
	{1 index /FID ne {def} {pop pop} ifelse} forall
	/Encoding isolatin1encoding def
    currentdict end
definefont pop
/NewCenturySchlbk-Italic-latin1
    /NewCenturySchlbk-Italic findfont
    dup length dict begin
	{1 index /FID ne {def} {pop pop} ifelse} forall
	/Encoding isolatin1encoding def
    currentdict end
definefont pop
/NewCenturySchlbk-Bold-latin1
    /NewCenturySchlbk-Bold findfont
    dup length dict begin
	{1 index /FID ne {def} {pop pop} ifelse} forall
	/Encoding isolatin1encoding def
    currentdict end
definefont pop
/NewCenturySchlbk-BoldItalic-latin1
    /NewCenturySchlbk-BoldItalic findfont
    dup length dict begin
	{1 index /FID ne {def} {pop pop} ifelse} forall
	/Encoding isolatin1encoding def
    currentdict end
definefont pop
/Palatino-Roman-latin1
    /Palatino-Roman findfont
    dup length dict begin
	{1 index /FID ne {def} {pop pop} ifelse} forall
	/Encoding isolatin1encoding def
    currentdict end
definefont pop
/Palatino-Italic-latin1
    /Palatino-Italic findfont
    dup length dict begin
	{1 index /FID ne {def} {pop pop} ifelse} forall
	/Encoding isolatin1encoding def
    currentdict end
definefont pop
/Palatino-Bold-latin1
    /Palatino-Bold findfont
    dup length dict begin
	{1 index /FID ne {def} {pop pop} ifelse} forall
	/Encoding isolatin1encoding def
    currentdict end
definefont pop
/Palatino-BoldItalic-latin1
    /Palatino-BoldItalic findfont
    dup length dict begin
	{1 index /FID ne {def} {pop pop} ifelse} forall
	/Encoding isolatin1encoding def
    currentdict end
definefont pop
/Symbol-latin1
    /Symbol findfont
definefont pop
/ZapfChancery-MediumItalic-latin1
    /ZapfChancery-MediumItalic findfont
    dup length dict begin
	{1 index /FID ne {def} {pop pop} ifelse} forall
	/Encoding isolatin1encoding def
    currentdict end
definefont pop
/ZapfDingbats-latin1
    /ZapfDingbats findfont
    dup length dict begin
	{1 index /FID ne {def} {pop pop} ifelse} forall
	/Encoding isolatin1encoding def
    currentdict end
definefont pop
28.346000 -28.346000 scale
-13.206800 -22.239100 translate
%%EndProlog


0.100000 slw
[] 0 sd
0 slc
0 slj
0.100000 slw
0 slc
0 slj
[] 0 sd
1.000000 1.000000 1.000000 srgb
n 13.940669 19.439100 m 16.476144 19.439100 l 16.826220 19.439100 17.110012 20.043515 17.110012 20.789100 c 17.110012 21.534685 16.826220 22.139100 16.476144 22.139100 c 13.940669 22.139100 l 13.590593 22.139100 13.306800 21.534685 13.306800 20.789100 c 13.306800 20.043515 13.590593 19.439100 13.940669 19.439100 c ef
0.501961 0.000000 0.501961 srgb
n 13.940669 19.439100 m 16.476144 19.439100 l 16.826220 19.439100 17.110012 20.043515 17.110012 20.789100 c 17.110012 21.534685 16.826220 22.139100 16.476144 22.139100 c 13.940669 22.139100 l 13.590593 22.139100 13.306800 21.534685 13.306800 20.789100 c 13.306800 20.043515 13.590593 19.439100 13.940669 19.439100 c s
/Helvetica-latin1 ff 0.560000 scf sf
(sigfox) dup sw 2 div 15.208406 ex sub 20.429100 m
 gs 1 -1 sc sh gr
(sensor) dup sw 2 div 15.208406 ex sub 21.229100 m
 gs 1 -1 sc sh gr
/Helvetica-latin1 ff 0.560000 scf sf
0.100000 slw
[] 0 sd
0 slc
0.000000 0.000000 1.000000 srgb
n 15.842300 19.439100 m 15.853440 12.528207 l s
0.100000 slw
[] 0 sd
0 slj
0 slc
n 16.102814 12.916806 m 15.853620 12.416403 l 15.602814 12.916000 l s
0.100000 slw
[] 0 sd
0 slc
1.000000 0.000000 0.000000 srgb
n 14.546300 12.304600 m 14.573616 19.215495 l s
0.100000 slw
[] 0 sd
0 slj
0 slc
n 14.322084 18.828290 m 14.574058 19.327297 l 14.822080 18.826313 l s
0.100000 slw
[] 0 sd
0 slj
1.000000 1.000000 1.000000 srgb
n 26.854500 5.880720 m 29.599500 5.880720 l 29.599500 7.780720 l 26.854500 7.780720 l ef
0.117647 0.564706 1.000000 srgb
n 26.854500 5.880720 m 29.599500 5.880720 l 29.599500 7.780720 l 26.854500 7.780720 l cp s
/Helvetica-latin1 ff 0.560000 scf sf
(https) dup sw 2 div 28.227000 ex sub 6.865720 m
 gs 1 -1 sc sh gr
0.100000 slw
[] 0 sd
0 slj
1.000000 1.000000 1.000000 srgb
n 13.892500 9.617080 m 16.507500 9.617080 l 16.507500 12.304580 l 13.892500 12.304580 l ef
1.000000 0.588235 0.000000 srgb
n 13.892500 9.617080 m 16.507500 9.617080 l 16.507500 12.304580 l 13.892500 12.304580 l cp s
/Helvetica-latin1 ff 0.370417 scf sf
(Ulta) dup sw 2 div 15.200000 ex sub 10.456247 m
 gs 1 -1 sc sh gr
(Narrow) dup sw 2 div 15.200000 ex sub 10.985413 m
 gs 1 -1 sc sh gr
(Band) dup sw 2 div 15.200000 ex sub 11.514580 m
 gs 1 -1 sc sh gr
0.100000 slw
[] 0 sd
0 slj
1.000000 1.000000 1.000000 srgb
n 13.622800 5.889990 m 16.692800 5.889990 l 16.692800 7.789990 l 13.622800 7.789990 l ef
1.000000 0.588235 0.000000 srgb
n 13.622800 5.889990 m 16.692800 5.889990 l 16.692800 7.789990 l 13.622800 7.789990 l cp s
/Helvetica-latin1 ff 0.560000 scf sf
(Sigfox) dup sw 2 div 15.157800 ex sub 6.874990 m
 gs 1 -1 sc sh gr
0.100000 slw
[] 0 sd
0 slc
n 15.160776 8.013577 m 15.178474 9.343420 l s
0.100000 slw
[] 0 sd
0 slj
0 slc
n 15.415919 8.398412 m 15.159288 7.901783 l 14.915964 8.405066 l s
0.100000 slw
[] 0 sd
0 slj
0 slc
n 14.923330 8.958585 m 15.179962 9.455214 l 15.423286 8.951931 l s
0.100000 slw
[] 0 sd
0 slj
1.000000 1.000000 1.000000 srgb
n 32.835000 6.150000 m 35.965000 6.150000 l 35.965000 8.850000 l 32.835000 8.850000 l ef
0.117647 0.564706 1.000000 srgb
n 32.835000 6.150000 m 35.965000 6.150000 l 35.965000 8.850000 l 32.835000 8.850000 l cp s
/Helvetica-latin1 ff 0.560000 scf sf
(node) dup sw 2 div 34.400000 ex sub 7.135000 m
 gs 1 -1 sc sh gr
(server) dup sw 2 div 34.400000 ex sub 7.935000 m
 gs 1 -1 sc sh gr
0.100000 slw
[] 0 sd
0 slc
n 29.823106 6.830325 m 32.611394 6.825395 l s
0.100000 slw
[] 0 sd
0 slj
0 slc
n 30.210860 6.579639 m 29.711303 6.830522 l 30.211744 7.079638 l s
0.100000 slw
[] 0 sd
0 slj
0 slc
n 32.223640 7.076081 m 32.723197 6.825198 l 32.222756 6.576082 l s
0.100000 slw
[] 0 sd
0 slj
1.000000 1.000000 1.000000 srgb
n 32.786200 11.105000 m 35.998700 11.105000 l 35.998700 13.805000 l 32.786200 13.805000 l ef
0.117647 0.564706 1.000000 srgb
n 32.786200 11.105000 m 35.998700 11.105000 l 35.998700 13.805000 l 32.786200 13.805000 l cp s
/Helvetica-latin1 ff 0.370417 scf sf
(Broker) dup sw 2 div 34.392450 ex sub 11.950417 m
 gs 1 -1 sc sh gr
(Mqtt) dup sw 2 div 34.392450 ex sub 12.479583 m
 gs 1 -1 sc sh gr
(\(opcional\)) dup sw 2 div 34.392450 ex sub 13.008750 m
 gs 1 -1 sc sh gr
0.100000 slw
[] 0 sd
0 slc
n 34.399256 9.073606 m 34.393244 10.881394 l s
0.100000 slw
[] 0 sd
0 slj
0 slc
n 34.647964 9.462631 m 34.399628 8.961803 l 34.147967 9.460969 l s
0.100000 slw
[] 0 sd
0 slj
0 slc
n 34.144536 10.492369 m 34.392872 10.993197 l 34.644533 10.494031 l s
0.100000 slw
[] 0 sd
0 slc
0.000000 0.000000 1.000000 srgb
n 16.692800 6.364990 m 26.630893 6.355924 l s
0.100000 slw
[] 0 sd
0 slj
0 slc
n 26.242925 6.606278 m 26.742697 6.355822 l 26.242469 6.106278 l s
0.100000 slw
[] 0 sd
0 slc
0 slj
0.100000 slw
0 slc
0 slj
[] 0 sd
1.000000 1.000000 1.000000 srgb
n 29.437983 19.082100 m 31.946317 19.082100 l 32.292645 19.082100 32.573400 19.686515 32.573400 20.432100 c 32.573400 21.177685 32.292645 21.782100 31.946317 21.782100 c 29.437983 21.782100 l 29.091655 21.782100 28.810900 21.177685 28.810900 20.432100 c 28.810900 19.686515 29.091655 19.082100 29.437983 19.082100 c ef
0.501961 0.000000 0.501961 srgb
n 29.437983 19.082100 m 31.946317 19.082100 l 32.292645 19.082100 32.573400 19.686515 32.573400 20.432100 c 32.573400 21.177685 32.292645 21.782100 31.946317 21.782100 c 29.437983 21.782100 l 29.091655 21.782100 28.810900 21.177685 28.810900 20.432100 c 28.810900 19.686515 29.091655 19.082100 29.437983 19.082100 c s
/Helvetica-latin1 ff 0.560000 scf sf
(smart) dup sw 2 div 30.692150 ex sub 20.072100 m
 gs 1 -1 sc sh gr
(sensor) dup sw 2 div 30.692150 ex sub 20.872100 m
 gs 1 -1 sc sh gr
0.100000 slw
[] 0 sd
0 slj
1.000000 1.000000 1.000000 srgb
n 30.825900 2.224780 m 35.583400 2.224780 l 35.583400 4.124780 l 30.825900 4.124780 l ef
0.117647 0.564706 1.000000 srgb
n 30.825900 2.224780 m 35.583400 2.224780 l 35.583400 4.124780 l 30.825900 4.124780 l cp s
/Helvetica-latin1 ff 0.560000 scf sf
(Database) dup sw 2 div 33.204650 ex sub 3.209780 m
 gs 1 -1 sc sh gr
0.100000 slw
[] 0 sd
0 slc
n 34.394397 4.348386 m 34.397115 5.877193 l s
0.100000 slw
[] 0 sd
0 slj
0 slc
n 34.645087 4.736138 m 34.394199 4.236583 l 34.145088 4.737027 l s
0.100000 slw
[] 0 sd
0 slj
0 slc
n 34.146426 5.489442 m 34.397314 5.988997 l 34.646425 5.488553 l s
0.100000 slw
[] 0 sd
0 slj
1.000000 1.000000 1.000000 srgb
n 21.451400 10.071600 m 23.941400 10.071600 l 23.941400 11.971600 l 21.451400 11.971600 l ef
0.000000 0.501961 0.000000 srgb
n 21.451400 10.071600 m 23.941400 10.071600 l 23.941400 11.971600 l 21.451400 11.971600 l cp s
/Helvetica-latin1 ff 0.560000 scf sf
(HUB) dup sw 2 div 22.696400 ex sub 11.056600 m
 gs 1 -1 sc sh gr
0.100000 slw
[] 0 sd
0 slc
0 slj
0.100000 slw
0 slc
0 slj
[] 0 sd
1.000000 1.000000 1.000000 srgb
n 19.605312 19.389400 m 22.746961 19.389400 l 23.180733 19.389400 23.532374 19.993815 23.532374 20.739400 c 23.532374 21.484985 23.180733 22.089400 22.746961 22.089400 c 19.605312 22.089400 l 19.171541 22.089400 18.819900 21.484985 18.819900 20.739400 c 18.819900 19.993815 19.171541 19.389400 19.605312 19.389400 c ef
0.501961 0.000000 0.501961 srgb
n 19.605312 19.389400 m 22.746961 19.389400 l 23.180733 19.389400 23.532374 19.993815 23.532374 20.739400 c 23.532374 21.484985 23.180733 22.089400 22.746961 22.089400 c 19.605312 22.089400 l 19.171541 22.089400 18.819900 21.484985 18.819900 20.739400 c 18.819900 19.993815 19.171541 19.389400 19.605312 19.389400 c s
/Helvetica-latin1 ff 0.560000 scf sf
(wifi) dup sw 2 div 21.176137 ex sub 20.379400 m
 gs 1 -1 sc sh gr
(sensor) dup sw 2 div 21.176137 ex sub 21.179400 m
 gs 1 -1 sc sh gr
0.100000 slw
[] 0 sd
0 slj
1.000000 1.000000 1.000000 srgb
n 19.588100 14.258700 m 22.775600 14.258700 l 22.775600 16.958700 l 19.588100 16.958700 l ef
0.000000 0.501961 0.000000 srgb
n 19.588100 14.258700 m 22.775600 14.258700 l 22.775600 16.958700 l 19.588100 16.958700 l cp s
/Helvetica-latin1 ff 0.560000 scf sf
(Broker) dup sw 2 div 21.181850 ex sub 15.243700 m
 gs 1 -1 sc sh gr
(Mqtt) dup sw 2 div 21.181850 ex sub 16.043700 m
 gs 1 -1 sc sh gr
0.100000 slw
[] 0 sd
0 slc
0.000000 0.000000 1.000000 srgb
n 21.961500 19.389400 m 21.977118 17.182301 l s
0.100000 slw
[] 0 sd
0 slj
0 slc
n 22.224365 17.572257 m 21.977909 17.070501 l 21.724377 17.568719 l s
0.100000 slw
[] 0 sd
0 slc
1.000000 0.000000 0.000000 srgb
n 20.384900 16.958700 m 20.390166 19.165794 l s
0.100000 slw
[] 0 sd
0 slj
0 slc
n 20.139241 18.778195 m 20.390433 19.277597 l 20.639239 18.777002 l s
0.100000 slw
[] 0 sd
0 slc
0 slj
0.100000 slw
0 slc
0 slj
[] 0 sd
1.000000 1.000000 1.000000 srgb
n 17.821100 10.250690 m 19.563600 10.250690 l 19.563600 11.788190 l 17.821100 11.788190 l ef
0 slc
0 slj
[] 0 sd
n 18.692350 11.788190 0.871250 0.256250 0 360 ellipse f
0 slc
0 slj
[] 0 sd
n 18.692350 10.250690 0.871250 0.256250 0 360 ellipse f
0.000000 0.501961 0.000000 srgb
n 18.692350 10.250690 0.871250 0.256250 0 360 ellipse cp s
0 slc
0 slj
[] 0 sd
n 19.563600 10.250690 m 19.563600 11.788190 l 19.563600 11.929713 19.173528 12.044440 18.692350 12.044440 c 18.211172 12.044440 17.821100 11.929713 17.821100 11.788190 c 17.821100 10.250690 l s
/Helvetica-latin1 ff 0.560000 scf sf
(Persistencia) dup sw 2 div 18.692350 ex sub 12.484440 m
 gs 1 -1 sc sh gr
(de datos) dup sw 2 div 18.692350 ex sub 13.284440 m
 gs 1 -1 sc sh gr
/Helvetica-latin1 ff 0.493889 scf sf
0.000000 0.000000 1.000000 srgb
(     Callbacks) dup sw 2 div 19.467600 ex sub 6.993191 m
 gs 1 -1 sc sh gr
(Unidireccionales) dup sw 2 div 19.467600 ex sub 7.698747 m
 gs 1 -1 sc sh gr
0.100000 slw
[] 0 sd
0 slc
0.000000 0.501961 0.000000 srgb
n 19.835522 11.020260 m 21.227793 11.021415 l s
0.100000 slw
[] 0 sd
0 slj
0 slc
n 20.223926 10.770582 m 19.723719 11.020168 l 20.223512 11.270582 l s
0.100000 slw
[] 0 sd
0 slj
0 slc
n 20.839390 11.271093 m 21.339597 11.021507 l 20.839804 10.771093 l s
0.100000 slw
[] 0 sd
0 slj
0 slc
0.000000 0.000000 1.000000 srgb
n 23.318900 10.071600 m 23.318900 7.305720 l 26.630893 7.305720 l s
0.100000 slw
[] 0 sd
0 slj
0 slc
n 26.242697 7.555720 m 26.742697 7.305720 l 26.242697 7.055720 l s
0.100000 slw
[] 0 sd
0 slj
0 slc
1.000000 0.000000 0.000000 srgb
n 26.854500 6.830720 m 22.073900 6.830720 l 22.073900 9.847993 l s
0.100000 slw
[] 0 sd
0 slj
0 slc
n 21.823900 9.459797 m 22.073900 9.959797 l 22.323900 9.459797 l s
0.100000 slw
[] 0 sd
0 slj
0 slc
n 29.438000 18.858493 m 29.438000 13.365900 l 27.540800 13.365900 l 27.540800 7.780720 l s
0.100000 slw
[] 0 sd
0 slj
0 slc
n 29.188000 18.470297 m 29.438000 18.970297 l 29.688000 18.470297 l s
0.100000 slw
[] 0 sd
0 slj
0 slc
0.000000 0.000000 1.000000 srgb
n 28.227000 8.004327 m 28.227000 12.883800 l 30.065100 12.883800 l 30.065100 19.082100 l s
0.100000 slw
[] 0 sd
0 slj
0 slc
n 28.477000 8.392523 m 28.227000 7.892523 l 27.977000 8.392523 l s
0.100000 slw
[] 0 sd
0 slj
0 slc
n 31.946317 19.082100 m 31.946317 16.443550 l 34.392450 16.443550 l 34.392450 14.028607 l s
0.100000 slw
[] 0 sd
0 slj
0 slc
n 34.642450 14.416803 m 34.392450 13.916803 l 34.142450 14.416803 l s
0.100000 slw
[] 0 sd
0 slj
0 slc
1.000000 0.000000 0.000000 srgb
n 33.589300 13.805000 m 33.589300 15.712000 l 31.319300 15.712000 l 31.319300 18.858493 l s
0.100000 slw
[] 0 sd
0 slj
0 slc
n 31.069300 18.470297 m 31.319300 18.970297 l 31.569300 18.470297 l s
/Helvetica-latin1 ff 0.560000 scf sf
0.000000 0.000000 1.000000 srgb
(Pub var) 20.716000 18.573000 m
 gs 1 -1 sc sh gr
/Helvetica-latin1 ff 0.560000 scf sf
1.000000 0.000000 0.000000 srgb
(Sub conf) 19.077000 17.930200 m
 gs 1 -1 sc sh gr
0.100000 slw
[] 0 sd
0 slj
0 slc
0.000000 0.501961 0.000000 srgb
n 22.073900 12.195207 m 22.073900 13.115150 l 21.181850 13.115150 l 21.181850 14.035093 l s
0.100000 slw
[] 0 sd
0 slj
0 slc
n 22.323900 12.583403 m 22.073900 12.083403 l 21.823900 12.583403 l s
0.100000 slw
[] 0 sd
0 slj
0 slc
n 20.931850 13.646897 m 21.181850 14.146897 l 21.431850 13.646897 l s
/Helvetica-latin1 ff 0.560000 scf sf
1.000000 0.000000 0.000000 srgb
(Sub conf) 32.298600 15.057500 m
 gs 1 -1 sc sh gr
/Helvetica-latin1 ff 0.560000 scf sf
0.000000 0.000000 1.000000 srgb
(Pub var) 33.166400 16.214500 m
 gs 1 -1 sc sh gr
0.100000 slw
[] 0 sd
0 slj
0 slc
1.000000 0.588235 0.000000 srgb
n 13.853400 2.191610 m 14.621447 2.191610 l 14.621447 2.621716 l 13.853400 2.621716 l ef
n 13.853400 2.191610 m 14.621447 2.191610 l 14.621447 2.621716 l 13.853400 2.621716 l cp s
/Helvetica-latin1 ff 0.560000 scf sf
1.000000 0.647059 0.000000 srgb
(Sigfox cloud) 15.420300 2.492440 m
 gs 1 -1 sc sh gr
0.100000 slw
[] 0 sd
0 slj
0 slc
0.117647 0.564706 1.000000 srgb
n 13.885000 3.189060 m 14.653047 3.189060 l 14.653047 3.619166 l 13.885000 3.619166 l ef
n 13.885000 3.189060 m 14.653047 3.189060 l 14.653047 3.619166 l 13.885000 3.619166 l cp s
/Helvetica-latin1 ff 0.560000 scf sf
(SEMVA cloud) 15.451800 3.489890 m
 gs 1 -1 sc sh gr
0.100000 slw
[] 0 sd
0 slj
0 slc
0.000000 0.501961 0.000000 srgb
n 13.854300 4.110720 m 14.622347 4.110720 l 14.622347 4.540826 l 13.854300 4.540826 l ef
n 13.854300 4.110720 m 14.622347 4.110720 l 14.622347 4.540826 l 13.854300 4.540826 l cp s
/Helvetica-latin1 ff 0.560000 scf sf
(FOG) 15.421100 4.411550 m
 gs 1 -1 sc sh gr
0.100000 slw
[] 0 sd
0 slj
0 slc
0.501961 0.000000 0.501961 srgb
n 13.885000 5.001650 m 14.653047 5.001650 l 14.653047 5.431756 l 13.885000 5.431756 l ef
n 13.885000 5.001650 m 14.653047 5.001650 l 14.653047 5.431756 l 13.885000 5.431756 l cp s
/Helvetica-latin1 ff 0.560000 scf sf
(EDGE) 15.451800 5.302480 m
 gs 1 -1 sc sh gr
/Helvetica-latin1 ff 0.395111 scf sf
(Comunicación) 32.870300 17.470411 m
 gs 1 -1 sc sh gr
(MQTT opcional) 32.870300 18.034856 m
 gs 1 -1 sc sh gr
(\(apy_key + data\)) 32.870300 18.599300 m
 gs 1 -1 sc sh gr
0.100000 slw
[] 0 sd
0 slj
0 slc
1.000000 0.000000 0.000000 srgb
n 23.318900 11.971600 m 23.318900 13.021600 l 24.582374 13.021600 l 24.582374 20.739400 l 23.755981 20.739400 l s
0.100000 slw
[] 0 sd
0 slj
0 slc
n 24.144177 20.489400 m 23.644177 20.739400 l 24.144177 20.989400 l s
0.100000 slw
[0.200000] 0 sd
0 slj
1.000000 1.000000 1.000000 srgb
n 16.715800 14.745600 m 18.813300 14.745600 l 18.813300 16.303933 l 16.715800 16.303933 l ef
0.000000 0.000000 1.000000 srgb
n 16.715800 14.745600 m 18.813300 14.745600 l 18.813300 16.303933 l 16.715800 16.303933 l cp s
/Helvetica-latin1 ff 0.370417 scf sf
(api_key) dup sw 2 div 17.764550 ex sub 15.284767 m
 gs 1 -1 sc sh gr
(+ data) dup sw 2 div 17.764550 ex sub 15.813933 m
 gs 1 -1 sc sh gr
0.100000 slw
[0.200000] 0 sd
0 slc
n 15.848000 15.871800 m 16.715800 15.524700 l s
0.100000 slw
[0.200000] 0 sd
0 slj
1.000000 1.000000 1.000000 srgb
n 29.215300 9.353340 m 31.312800 9.353340 l 31.312800 10.911673 l 29.215300 10.911673 l ef
0.000000 0.000000 1.000000 srgb
n 29.215300 9.353340 m 31.312800 9.353340 l 31.312800 10.911673 l 29.215300 10.911673 l cp s
/Helvetica-latin1 ff 0.370417 scf sf
(api_key) dup sw 2 div 30.264050 ex sub 9.892507 m
 gs 1 -1 sc sh gr
(+ data) dup sw 2 div 30.264050 ex sub 10.421673 m
 gs 1 -1 sc sh gr
0.100000 slw
[0.200000] 0 sd
0 slc
n 28.227000 10.332300 m 29.215300 10.132500 l s
0.100000 slw
[0.200000] 0 sd
0 slj
1.000000 1.000000 1.000000 srgb
n 24.361200 8.266160 m 26.458700 8.266160 l 26.458700 9.824493 l 24.361200 9.824493 l ef
0.000000 0.000000 1.000000 srgb
n 24.361200 8.266160 m 26.458700 8.266160 l 26.458700 9.824493 l 24.361200 9.824493 l cp s
/Helvetica-latin1 ff 0.370417 scf sf
(api_key) dup sw 2 div 25.409950 ex sub 8.805327 m
 gs 1 -1 sc sh gr
(+ data) dup sw 2 div 25.409950 ex sub 9.334493 m
 gs 1 -1 sc sh gr
0.100000 slw
[0.200000] 0 sd
0 slc
n 23.318900 8.688660 m 24.361200 9.045330 l s
0.100000 slw
[0.200000] 0 sd
0 slj
1.000000 1.000000 1.000000 srgb
n 25.509800 15.048800 m 28.217300 15.048800 l 28.217300 17.665467 l 25.509800 17.665467 l ef
1.000000 0.000000 0.000000 srgb
n 25.509800 15.048800 m 28.217300 15.048800 l 28.217300 17.665467 l 25.509800 17.665467 l cp s
/Helvetica-latin1 ff 0.370417 scf sf
(update) dup sw 2 div 26.863550 ex sub 15.587967 m
 gs 1 -1 sc sh gr
(imagen) dup sw 2 div 26.863550 ex sub 16.117133 m
 gs 1 -1 sc sh gr
(mongoose) dup sw 2 div 26.863550 ex sub 16.646300 m
 gs 1 -1 sc sh gr
(por HTTP) dup sw 2 div 26.863550 ex sub 17.175467 m
 gs 1 -1 sc sh gr
0.100000 slw
[0.200000] 0 sd
0 slc
n 24.582400 16.880500 m 25.509800 16.357100 l s
showpage
