%!PS-Adobe-2.0 EPSF-2.0
%%Title: /home/johnny/projects/sensor-network-iot/dev/sensor-network-iot/docs/latex/informe2020-02-25/imag/demoLua/architectura_nodemcu.dia
%%Creator: Dia v0.97+git
%%CreationDate: Tue Feb 25 18:38:59 2020
%%For: johnny
%%Orientation: Portrait
%%Magnification: 1.0000
%%BoundingBox: 0 0 379 531
%%BeginSetup
%%EndSetup
%%EndComments
%%BeginProlog
[ /.notdef /.notdef /.notdef /.notdef /.notdef /.notdef /.notdef /.notdef /.notdef /.notdef
/.notdef /.notdef /.notdef /.notdef /.notdef /.notdef /.notdef /.notdef /.notdef /.notdef
/.notdef /.notdef /.notdef /.notdef /.notdef /.notdef /.notdef /.notdef /.notdef /.notdef
/.notdef /.notdef /space /exclam /quotedbl /numbersign /dollar /percent /ampersand /quoteright
/parenleft /parenright /asterisk /plus /comma /hyphen /period /slash /zero /one
/two /three /four /five /six /seven /eight /nine /colon /semicolon
/less /equal /greater /question /at /A /B /C /D /E
/F /G /H /I /J /K /L /M /N /O
/P /Q /R /S /T /U /V /W /X /Y
/Z /bracketleft /backslash /bracketright /asciicircum /underscore /quoteleft /a /b /c
/d /e /f /g /h /i /j /k /l /m
/n /o /p /q /r /s /t /u /v /w
/x /y /z /braceleft /bar /braceright /asciitilde /.notdef /.notdef /.notdef
/.notdef /.notdef /.notdef /.notdef /.notdef /.notdef /.notdef /.notdef /.notdef /.notdef
/.notdef /.notdef /.notdef /.notdef /.notdef /.notdef /.notdef /.notdef /.notdef /.notdef
/.notdef /.notdef /.notdef /.notdef /.notdef /.notdef /.notdef /.notdef /.notdef /.notdef
/space /exclamdown /cent /sterling /currency /yen /brokenbar /section /dieresis /copyright
/ordfeminine /guillemotleft /logicalnot /hyphen /registered /macron /degree /plusminus /twosuperior /threesuperior
/acute /mu /paragraph /periodcentered /cedilla /onesuperior /ordmasculine /guillemotright /onequarter /onehalf
/threequarters /questiondown /Agrave /Aacute /Acircumflex /Atilde /Adieresis /Aring /AE /Ccedilla
/Egrave /Eacute /Ecircumflex /Edieresis /Igrave /Iacute /Icircumflex /Idieresis /Eth /Ntilde
/Ograve /Oacute /Ocircumflex /Otilde /Odieresis /multiply /Oslash /Ugrave /Uacute /Ucircumflex
/Udieresis /Yacute /Thorn /germandbls /agrave /aacute /acircumflex /atilde /adieresis /aring
/ae /ccedilla /egrave /eacute /ecircumflex /edieresis /igrave /iacute /icircumflex /idieresis
/eth /ntilde /ograve /oacute /ocircumflex /otilde /odieresis /divide /oslash /ugrave
/uacute /ucircumflex /udieresis /yacute /thorn /ydieresis] /isolatin1encoding exch def
/cp {closepath} bind def
/c {curveto} bind def
/f {fill} bind def
/a {arc} bind def
/ef {eofill} bind def
/ex {exch} bind def
/gr {grestore} bind def
/gs {gsave} bind def
/sa {save} bind def
/rs {restore} bind def
/l {lineto} bind def
/m {moveto} bind def
/rm {rmoveto} bind def
/n {newpath} bind def
/s {stroke} bind def
/sh {show} bind def
/slc {setlinecap} bind def
/slj {setlinejoin} bind def
/slw {setlinewidth} bind def
/srgb {setrgbcolor} bind def
/rot {rotate} bind def
/sc {scale} bind def
/sd {setdash} bind def
/ff {findfont} bind def
/sf {setfont} bind def
/scf {scalefont} bind def
/sw {stringwidth pop} bind def
/tr {translate} bind def

/ellipsedict 8 dict def
ellipsedict /mtrx matrix put
/ellipse
{ ellipsedict begin
   /endangle exch def
   /startangle exch def
   /yrad exch def
   /xrad exch def
   /y exch def
   /x exch def   /savematrix mtrx currentmatrix def
   x y tr xrad yrad sc
   0 0 1 startangle endangle arc
   savematrix setmatrix
   end
} def

/mergeprocs {
dup length
3 -1 roll
dup
length
dup
5 1 roll
3 -1 roll
add
array cvx
dup
3 -1 roll
0 exch
putinterval
dup
4 2 roll
putinterval
} bind def
/Times-Roman-latin1
    /Times-Roman findfont
    dup length dict begin
	{1 index /FID ne {def} {pop pop} ifelse} forall
	/Encoding isolatin1encoding def
    currentdict end
definefont pop
/Times-Italic-latin1
    /Times-Italic findfont
    dup length dict begin
	{1 index /FID ne {def} {pop pop} ifelse} forall
	/Encoding isolatin1encoding def
    currentdict end
definefont pop
/Times-Bold-latin1
    /Times-Bold findfont
    dup length dict begin
	{1 index /FID ne {def} {pop pop} ifelse} forall
	/Encoding isolatin1encoding def
    currentdict end
definefont pop
/Times-BoldItalic-latin1
    /Times-BoldItalic findfont
    dup length dict begin
	{1 index /FID ne {def} {pop pop} ifelse} forall
	/Encoding isolatin1encoding def
    currentdict end
definefont pop
/AvantGarde-Gothic-latin1
    /AvantGarde-Gothic findfont
    dup length dict begin
	{1 index /FID ne {def} {pop pop} ifelse} forall
	/Encoding isolatin1encoding def
    currentdict end
definefont pop
/AvantGarde-BookOblique-latin1
    /AvantGarde-BookOblique findfont
    dup length dict begin
	{1 index /FID ne {def} {pop pop} ifelse} forall
	/Encoding isolatin1encoding def
    currentdict end
definefont pop
/AvantGarde-Demi-latin1
    /AvantGarde-Demi findfont
    dup length dict begin
	{1 index /FID ne {def} {pop pop} ifelse} forall
	/Encoding isolatin1encoding def
    currentdict end
definefont pop
/AvantGarde-DemiOblique-latin1
    /AvantGarde-DemiOblique findfont
    dup length dict begin
	{1 index /FID ne {def} {pop pop} ifelse} forall
	/Encoding isolatin1encoding def
    currentdict end
definefont pop
/Bookman-Light-latin1
    /Bookman-Light findfont
    dup length dict begin
	{1 index /FID ne {def} {pop pop} ifelse} forall
	/Encoding isolatin1encoding def
    currentdict end
definefont pop
/Bookman-LightItalic-latin1
    /Bookman-LightItalic findfont
    dup length dict begin
	{1 index /FID ne {def} {pop pop} ifelse} forall
	/Encoding isolatin1encoding def
    currentdict end
definefont pop
/Bookman-Demi-latin1
    /Bookman-Demi findfont
    dup length dict begin
	{1 index /FID ne {def} {pop pop} ifelse} forall
	/Encoding isolatin1encoding def
    currentdict end
definefont pop
/Bookman-DemiItalic-latin1
    /Bookman-DemiItalic findfont
    dup length dict begin
	{1 index /FID ne {def} {pop pop} ifelse} forall
	/Encoding isolatin1encoding def
    currentdict end
definefont pop
/Courier-latin1
    /Courier findfont
    dup length dict begin
	{1 index /FID ne {def} {pop pop} ifelse} forall
	/Encoding isolatin1encoding def
    currentdict end
definefont pop
/Courier-Oblique-latin1
    /Courier-Oblique findfont
    dup length dict begin
	{1 index /FID ne {def} {pop pop} ifelse} forall
	/Encoding isolatin1encoding def
    currentdict end
definefont pop
/Courier-Bold-latin1
    /Courier-Bold findfont
    dup length dict begin
	{1 index /FID ne {def} {pop pop} ifelse} forall
	/Encoding isolatin1encoding def
    currentdict end
definefont pop
/Courier-BoldOblique-latin1
    /Courier-BoldOblique findfont
    dup length dict begin
	{1 index /FID ne {def} {pop pop} ifelse} forall
	/Encoding isolatin1encoding def
    currentdict end
definefont pop
/Helvetica-latin1
    /Helvetica findfont
    dup length dict begin
	{1 index /FID ne {def} {pop pop} ifelse} forall
	/Encoding isolatin1encoding def
    currentdict end
definefont pop
/Helvetica-Oblique-latin1
    /Helvetica-Oblique findfont
    dup length dict begin
	{1 index /FID ne {def} {pop pop} ifelse} forall
	/Encoding isolatin1encoding def
    currentdict end
definefont pop
/Helvetica-Bold-latin1
    /Helvetica-Bold findfont
    dup length dict begin
	{1 index /FID ne {def} {pop pop} ifelse} forall
	/Encoding isolatin1encoding def
    currentdict end
definefont pop
/Helvetica-BoldOblique-latin1
    /Helvetica-BoldOblique findfont
    dup length dict begin
	{1 index /FID ne {def} {pop pop} ifelse} forall
	/Encoding isolatin1encoding def
    currentdict end
definefont pop
/Helvetica-Narrow-latin1
    /Helvetica-Narrow findfont
    dup length dict begin
	{1 index /FID ne {def} {pop pop} ifelse} forall
	/Encoding isolatin1encoding def
    currentdict end
definefont pop
/Helvetica-Narrow-Oblique-latin1
    /Helvetica-Narrow-Oblique findfont
    dup length dict begin
	{1 index /FID ne {def} {pop pop} ifelse} forall
	/Encoding isolatin1encoding def
    currentdict end
definefont pop
/Helvetica-Narrow-Bold-latin1
    /Helvetica-Narrow-Bold findfont
    dup length dict begin
	{1 index /FID ne {def} {pop pop} ifelse} forall
	/Encoding isolatin1encoding def
    currentdict end
definefont pop
/Helvetica-Narrow-BoldOblique-latin1
    /Helvetica-Narrow-BoldOblique findfont
    dup length dict begin
	{1 index /FID ne {def} {pop pop} ifelse} forall
	/Encoding isolatin1encoding def
    currentdict end
definefont pop
/NewCenturySchlbk-Roman-latin1
    /NewCenturySchlbk-Roman findfont
    dup length dict begin
	{1 index /FID ne {def} {pop pop} ifelse} forall
	/Encoding isolatin1encoding def
    currentdict end
definefont pop
/NewCenturySchlbk-Italic-latin1
    /NewCenturySchlbk-Italic findfont
    dup length dict begin
	{1 index /FID ne {def} {pop pop} ifelse} forall
	/Encoding isolatin1encoding def
    currentdict end
definefont pop
/NewCenturySchlbk-Bold-latin1
    /NewCenturySchlbk-Bold findfont
    dup length dict begin
	{1 index /FID ne {def} {pop pop} ifelse} forall
	/Encoding isolatin1encoding def
    currentdict end
definefont pop
/NewCenturySchlbk-BoldItalic-latin1
    /NewCenturySchlbk-BoldItalic findfont
    dup length dict begin
	{1 index /FID ne {def} {pop pop} ifelse} forall
	/Encoding isolatin1encoding def
    currentdict end
definefont pop
/Palatino-Roman-latin1
    /Palatino-Roman findfont
    dup length dict begin
	{1 index /FID ne {def} {pop pop} ifelse} forall
	/Encoding isolatin1encoding def
    currentdict end
definefont pop
/Palatino-Italic-latin1
    /Palatino-Italic findfont
    dup length dict begin
	{1 index /FID ne {def} {pop pop} ifelse} forall
	/Encoding isolatin1encoding def
    currentdict end
definefont pop
/Palatino-Bold-latin1
    /Palatino-Bold findfont
    dup length dict begin
	{1 index /FID ne {def} {pop pop} ifelse} forall
	/Encoding isolatin1encoding def
    currentdict end
definefont pop
/Palatino-BoldItalic-latin1
    /Palatino-BoldItalic findfont
    dup length dict begin
	{1 index /FID ne {def} {pop pop} ifelse} forall
	/Encoding isolatin1encoding def
    currentdict end
definefont pop
/Symbol-latin1
    /Symbol findfont
definefont pop
/ZapfChancery-MediumItalic-latin1
    /ZapfChancery-MediumItalic findfont
    dup length dict begin
	{1 index /FID ne {def} {pop pop} ifelse} forall
	/Encoding isolatin1encoding def
    currentdict end
definefont pop
/ZapfDingbats-latin1
    /ZapfDingbats findfont
    dup length dict begin
	{1 index /FID ne {def} {pop pop} ifelse} forall
	/Encoding isolatin1encoding def
    currentdict end
definefont pop
28.346000 -28.346000 scale
-19.753100 -26.018100 translate
%%EndProlog


0.100000 slw
[] 0 sd
0 slc
0 slj
0.100000 slw
0 slc
0 slj
[] 0 sd
0.901961 0.901961 0.901961 srgb
n 29.921957 24.318100 m 29.921957 23.918100 29.921957 23.918100 30.359814 23.918100 c 30.797672 23.918100 30.797672 23.918100 31.235529 23.918100 c 31.673386 23.918100 31.673386 23.918100 31.673386 24.318100 c 31.673386 24.318100 32.986957 24.318100 32.986957 24.318100 c 32.986957 24.318100 32.986957 25.918100 32.986957 25.918100 c 32.986957 25.918100 29.921957 25.918100 29.921957 25.918100 c 29.921957 25.918100 29.921957 24.718100 29.921957 24.318100 c ef
0.117647 0.564706 1.000000 srgb
n 29.921957 24.318100 m 29.921957 23.918100 29.921957 23.918100 30.359814 23.918100 c 30.797672 23.918100 30.797672 23.918100 31.235529 23.918100 c 31.673386 23.918100 31.673386 23.918100 31.673386 24.318100 c 31.673386 24.318100 32.986957 24.318100 32.986957 24.318100 c 32.986957 24.318100 32.986957 25.918100 32.986957 25.918100 c 32.986957 25.918100 29.921957 25.918100 29.921957 25.918100 c 29.921957 25.918100 29.921957 24.718100 29.921957 24.318100 c s
0.010000 slw
0 slc
0 slj
[] 0 sd
n 29.921957 24.318100 m 29.921957 23.918100 29.921957 23.918100 30.359814 23.918100 c 30.797672 23.918100 30.797672 23.918100 31.235529 23.918100 c 31.673386 23.918100 31.673386 23.918100 31.673386 24.318100 c 31.673386 24.318100 32.986957 24.318100 32.986957 24.318100 c 32.986957 24.318100 32.986957 25.918100 32.986957 25.918100 c 32.986957 25.918100 29.921957 25.918100 29.921957 25.918100 c 29.921957 25.918100 29.921957 24.718100 29.921957 24.318100 c s
0.100000 slw
0 slc
0 slj
[] 0 sd
1.000000 1.000000 1.000000 srgb
n 29.921957 25.918100 m 29.484100 24.518100 l 32.549100 24.518100 l 32.986957 25.918100 l ef
0.117647 0.564706 1.000000 srgb
n 29.921957 25.918100 m 29.484100 24.518100 l 32.549100 24.518100 l 32.986957 25.918100 l cp s
0.010000 slw
0 slc
0 slj
[] 0 sd
n 29.921957 25.918100 m 29.484100 24.518100 l 32.549100 24.518100 l 32.986957 25.918100 l cp s
/Helvetica-latin1 ff 0.560000 scf sf
(esp8266) dup sw 2 div 31.235529 ex sub 25.058100 m
 gs 1 -1 sc sh gr
0.100000 slw
[] 0 sd
0 slc
0 slj
0.100000 slw
0 slc
0 slj
[] 0 sd
0.901961 0.901961 0.901961 srgb
n 24.306772 21.637500 m 24.306772 20.962500 24.306772 20.962500 24.787843 20.962500 c 25.268914 20.962500 25.268914 20.962500 25.749986 20.962500 c 26.231057 20.962500 26.231057 20.962500 26.231057 21.637500 c 26.231057 21.637500 27.674272 21.637500 27.674272 21.637500 c 27.674272 21.637500 27.674272 24.337501 27.674272 24.337501 c 27.674272 24.337501 24.306772 24.337501 24.306772 24.337501 c 24.306772 24.337501 24.306772 22.312501 24.306772 21.637500 c ef
0.117647 0.564706 1.000000 srgb
n 24.306772 21.637500 m 24.306772 20.962500 24.306772 20.962500 24.787843 20.962500 c 25.268914 20.962500 25.268914 20.962500 25.749986 20.962500 c 26.231057 20.962500 26.231057 20.962500 26.231057 21.637500 c 26.231057 21.637500 27.674272 21.637500 27.674272 21.637500 c 27.674272 21.637500 27.674272 24.337501 27.674272 24.337501 c 27.674272 24.337501 24.306772 24.337501 24.306772 24.337501 c 24.306772 24.337501 24.306772 22.312501 24.306772 21.637500 c s
0.010000 slw
0 slc
0 slj
[] 0 sd
n 24.306772 21.637500 m 24.306772 20.962500 24.306772 20.962500 24.787843 20.962500 c 25.268914 20.962500 25.268914 20.962500 25.749986 20.962500 c 26.231057 20.962500 26.231057 20.962500 26.231057 21.637500 c 26.231057 21.637500 27.674272 21.637500 27.674272 21.637500 c 27.674272 21.637500 27.674272 24.337501 27.674272 24.337501 c 27.674272 24.337501 24.306772 24.337501 24.306772 24.337501 c 24.306772 24.337501 24.306772 22.312501 24.306772 21.637500 c s
0.100000 slw
0 slc
0 slj
[] 0 sd
1.000000 1.000000 1.000000 srgb
n 24.306772 24.337501 m 23.825700 21.975001 l 27.193200 21.975001 l 27.674272 24.337501 l ef
0.117647 0.564706 1.000000 srgb
n 24.306772 24.337501 m 23.825700 21.975001 l 27.193200 21.975001 l 27.674272 24.337501 l cp s
0.010000 slw
0 slc
0 slj
[] 0 sd
n 24.306772 24.337501 m 23.825700 21.975001 l 27.193200 21.975001 l 27.674272 24.337501 l cp s
/Helvetica-latin1 ff 0.560000 scf sf
(nodeMCU) dup sw 2 div 25.749986 ex sub 22.858751 m
 gs 1 -1 sc sh gr
(lua5.1) dup sw 2 div 25.749986 ex sub 23.658751 m
 gs 1 -1 sc sh gr
0.100000 slw
[] 0 sd
0 slc
n 25.508998 7.289780 m 25.509502 22.025000 l s
n 25.509038 8.464786 m 26.850800 8.464740 l s
n 25.509115 10.701443 m 26.755300 10.701400 l s
n 25.509192 12.964943 m 26.755300 12.964900 l s
n 25.509270 15.228443 m 26.755300 15.228400 l s
n 25.509350 17.572844 m 26.795700 17.572800 l s
n 25.509437 20.119241 m 26.714800 20.119200 l s
0.100000 slw
[] 0 sd
1.000000 1.000000 1.000000 srgb
n 26.850800 7.614740 m 28.690800 7.614740 l 29.290800 8.214740 l 29.290800 9.314740 l 26.850800 9.314740 l ef
0.117647 0.564706 1.000000 srgb
n 26.850800 7.614740 m 28.690800 7.614740 l 29.290800 8.214740 l 29.290800 9.314740 l 26.850800 9.314740 l cp s
0.050000 slw
n 28.690800 7.614740 m 28.690800 8.214740 l 29.290800 8.214740 l s
/Courier-latin1 ff 0.560000 scf sf
(WiFi) 27.200800 8.699740 m
 gs 1 -1 sc sh gr
0.100000 slw
[] 0 sd
1.000000 1.000000 1.000000 srgb
n 26.755300 9.851440 m 30.137800 9.851440 l 30.737800 10.451440 l 30.737800 11.551440 l 26.755300 11.551440 l ef
0.117647 0.564706 1.000000 srgb
n 26.755300 9.851440 m 30.137800 9.851440 l 30.737800 10.451440 l 30.737800 11.551440 l 26.755300 11.551440 l cp s
0.050000 slw
n 30.137800 9.851440 m 30.137800 10.451440 l 30.737800 10.451440 l s
/Courier-latin1 ff 0.560000 scf sf
(i2C.slow) 27.105300 10.936440 m
 gs 1 -1 sc sh gr
0.100000 slw
[] 0 sd
1.000000 1.000000 1.000000 srgb
n 26.755300 12.114900 m 28.595300 12.114900 l 29.195300 12.714900 l 29.195300 13.814900 l 26.755300 13.814900 l ef
0.117647 0.564706 1.000000 srgb
n 26.755300 12.114900 m 28.595300 12.114900 l 29.195300 12.714900 l 29.195300 13.814900 l 26.755300 13.814900 l cp s
0.050000 slw
n 28.595300 12.114900 m 28.595300 12.714900 l 29.195300 12.714900 l s
/Courier-latin1 ff 0.560000 scf sf
(ADC0) 27.105300 13.199900 m
 gs 1 -1 sc sh gr
0.100000 slw
[] 0 sd
1.000000 1.000000 1.000000 srgb
n 26.755300 14.378400 m 28.595300 14.378400 l 29.195300 14.978400 l 29.195300 16.078400 l 26.755300 16.078400 l ef
0.117647 0.564706 1.000000 srgb
n 26.755300 14.378400 m 28.595300 14.378400 l 29.195300 14.978400 l 29.195300 16.078400 l 26.755300 16.078400 l cp s
0.050000 slw
n 28.595300 14.378400 m 28.595300 14.978400 l 29.195300 14.978400 l s
/Courier-latin1 ff 0.560000 scf sf
(mDNS) 27.105300 15.463400 m
 gs 1 -1 sc sh gr
0.100000 slw
[] 0 sd
1.000000 1.000000 1.000000 srgb
n 26.795700 16.722800 m 28.635700 16.722800 l 29.235700 17.322800 l 29.235700 18.422800 l 26.795700 18.422800 l ef
0.117647 0.564706 1.000000 srgb
n 26.795700 16.722800 m 28.635700 16.722800 l 29.235700 17.322800 l 29.235700 18.422800 l 26.795700 18.422800 l cp s
0.050000 slw
n 28.635700 16.722800 m 28.635700 17.322800 l 29.235700 17.322800 l s
/Courier-latin1 ff 0.560000 scf sf
(MQTT) 27.145700 17.807800 m
 gs 1 -1 sc sh gr
0.100000 slw
[] 0 sd
1.000000 1.000000 1.000000 srgb
n 26.714800 19.269200 m 29.709800 19.269200 l 30.309800 19.869200 l 30.309800 20.969200 l 26.714800 20.969200 l ef
0.117647 0.564706 1.000000 srgb
n 26.714800 19.269200 m 29.709800 19.269200 l 30.309800 19.869200 l 30.309800 20.969200 l 26.714800 20.969200 l cp s
0.050000 slw
n 29.709800 19.269200 m 29.709800 19.869200 l 30.309800 19.869200 l s
/Courier-latin1 ff 0.560000 scf sf
(TCP_s/c) 27.064800 20.354200 m
 gs 1 -1 sc sh gr
0.100000 slw
[] 0 sd
0 slc
n 27.724320 23.880701 m 28.946073 24.333834 l s
0.100000 slw
[] 0 sd
0 slj
n 28.859137 24.568231 m 29.414868 24.507704 l 29.033008 24.099436 l ef
n 28.859137 24.568231 m 29.414868 24.507704 l 29.033008 24.099436 l cp s
0.100000 slw
[] 0 sd
1.000000 1.000000 1.000000 srgb
n 19.803100 18.572000 m 23.183100 18.572000 l 23.783100 19.172000 l 23.783100 20.272000 l 19.803100 20.272000 l ef
0.117647 0.564706 1.000000 srgb
n 19.803100 18.572000 m 23.183100 18.572000 l 23.783100 19.172000 l 23.783100 20.272000 l 19.803100 20.272000 l cp s
0.050000 slw
n 23.183100 18.572000 m 23.183100 19.172000 l 23.783100 19.172000 l s
/Courier-latin1 ff 0.560000 scf sf
(init.lua) 20.153100 19.657000 m
 gs 1 -1 sc sh gr
0.100000 slw
[] 0 sd
0 slc
n 22.730258 20.271708 m 23.849223 21.286258 l s
0.100000 slw
[] 0 sd
0 slj
n 23.681299 21.471465 m 24.219637 21.622107 l 24.017148 21.101052 l ef
n 23.681299 21.471465 m 24.219637 21.622107 l 24.017148 21.101052 l cp s
showpage
