%!PS-Adobe-2.0 EPSF-2.0
%%Title: /home/johnny/projects/sensor-network-iot/dev/sensor-network-iot/docs/latex/informe2020-02-25/imag/demoLua/configure_endpoint.dia
%%Creator: Dia v0.97+git
%%CreationDate: Tue Feb 25 19:33:35 2020
%%For: johnny
%%Orientation: Portrait
%%Magnification: 1.0000
%%BoundingBox: 0 0 1004 646
%%BeginSetup
%%EndSetup
%%EndComments
%%BeginProlog
[ /.notdef /.notdef /.notdef /.notdef /.notdef /.notdef /.notdef /.notdef /.notdef /.notdef
/.notdef /.notdef /.notdef /.notdef /.notdef /.notdef /.notdef /.notdef /.notdef /.notdef
/.notdef /.notdef /.notdef /.notdef /.notdef /.notdef /.notdef /.notdef /.notdef /.notdef
/.notdef /.notdef /space /exclam /quotedbl /numbersign /dollar /percent /ampersand /quoteright
/parenleft /parenright /asterisk /plus /comma /hyphen /period /slash /zero /one
/two /three /four /five /six /seven /eight /nine /colon /semicolon
/less /equal /greater /question /at /A /B /C /D /E
/F /G /H /I /J /K /L /M /N /O
/P /Q /R /S /T /U /V /W /X /Y
/Z /bracketleft /backslash /bracketright /asciicircum /underscore /quoteleft /a /b /c
/d /e /f /g /h /i /j /k /l /m
/n /o /p /q /r /s /t /u /v /w
/x /y /z /braceleft /bar /braceright /asciitilde /.notdef /.notdef /.notdef
/.notdef /.notdef /.notdef /.notdef /.notdef /.notdef /.notdef /.notdef /.notdef /.notdef
/.notdef /.notdef /.notdef /.notdef /.notdef /.notdef /.notdef /.notdef /.notdef /.notdef
/.notdef /.notdef /.notdef /.notdef /.notdef /.notdef /.notdef /.notdef /.notdef /.notdef
/space /exclamdown /cent /sterling /currency /yen /brokenbar /section /dieresis /copyright
/ordfeminine /guillemotleft /logicalnot /hyphen /registered /macron /degree /plusminus /twosuperior /threesuperior
/acute /mu /paragraph /periodcentered /cedilla /onesuperior /ordmasculine /guillemotright /onequarter /onehalf
/threequarters /questiondown /Agrave /Aacute /Acircumflex /Atilde /Adieresis /Aring /AE /Ccedilla
/Egrave /Eacute /Ecircumflex /Edieresis /Igrave /Iacute /Icircumflex /Idieresis /Eth /Ntilde
/Ograve /Oacute /Ocircumflex /Otilde /Odieresis /multiply /Oslash /Ugrave /Uacute /Ucircumflex
/Udieresis /Yacute /Thorn /germandbls /agrave /aacute /acircumflex /atilde /adieresis /aring
/ae /ccedilla /egrave /eacute /ecircumflex /edieresis /igrave /iacute /icircumflex /idieresis
/eth /ntilde /ograve /oacute /ocircumflex /otilde /odieresis /divide /oslash /ugrave
/uacute /ucircumflex /udieresis /yacute /thorn /ydieresis] /isolatin1encoding exch def
/cp {closepath} bind def
/c {curveto} bind def
/f {fill} bind def
/a {arc} bind def
/ef {eofill} bind def
/ex {exch} bind def
/gr {grestore} bind def
/gs {gsave} bind def
/sa {save} bind def
/rs {restore} bind def
/l {lineto} bind def
/m {moveto} bind def
/rm {rmoveto} bind def
/n {newpath} bind def
/s {stroke} bind def
/sh {show} bind def
/slc {setlinecap} bind def
/slj {setlinejoin} bind def
/slw {setlinewidth} bind def
/srgb {setrgbcolor} bind def
/rot {rotate} bind def
/sc {scale} bind def
/sd {setdash} bind def
/ff {findfont} bind def
/sf {setfont} bind def
/scf {scalefont} bind def
/sw {stringwidth pop} bind def
/tr {translate} bind def

/ellipsedict 8 dict def
ellipsedict /mtrx matrix put
/ellipse
{ ellipsedict begin
   /endangle exch def
   /startangle exch def
   /yrad exch def
   /xrad exch def
   /y exch def
   /x exch def   /savematrix mtrx currentmatrix def
   x y tr xrad yrad sc
   0 0 1 startangle endangle arc
   savematrix setmatrix
   end
} def

/mergeprocs {
dup length
3 -1 roll
dup
length
dup
5 1 roll
3 -1 roll
add
array cvx
dup
3 -1 roll
0 exch
putinterval
dup
4 2 roll
putinterval
} bind def
/Times-Roman-latin1
    /Times-Roman findfont
    dup length dict begin
	{1 index /FID ne {def} {pop pop} ifelse} forall
	/Encoding isolatin1encoding def
    currentdict end
definefont pop
/Times-Italic-latin1
    /Times-Italic findfont
    dup length dict begin
	{1 index /FID ne {def} {pop pop} ifelse} forall
	/Encoding isolatin1encoding def
    currentdict end
definefont pop
/Times-Bold-latin1
    /Times-Bold findfont
    dup length dict begin
	{1 index /FID ne {def} {pop pop} ifelse} forall
	/Encoding isolatin1encoding def
    currentdict end
definefont pop
/Times-BoldItalic-latin1
    /Times-BoldItalic findfont
    dup length dict begin
	{1 index /FID ne {def} {pop pop} ifelse} forall
	/Encoding isolatin1encoding def
    currentdict end
definefont pop
/AvantGarde-Gothic-latin1
    /AvantGarde-Gothic findfont
    dup length dict begin
	{1 index /FID ne {def} {pop pop} ifelse} forall
	/Encoding isolatin1encoding def
    currentdict end
definefont pop
/AvantGarde-BookOblique-latin1
    /AvantGarde-BookOblique findfont
    dup length dict begin
	{1 index /FID ne {def} {pop pop} ifelse} forall
	/Encoding isolatin1encoding def
    currentdict end
definefont pop
/AvantGarde-Demi-latin1
    /AvantGarde-Demi findfont
    dup length dict begin
	{1 index /FID ne {def} {pop pop} ifelse} forall
	/Encoding isolatin1encoding def
    currentdict end
definefont pop
/AvantGarde-DemiOblique-latin1
    /AvantGarde-DemiOblique findfont
    dup length dict begin
	{1 index /FID ne {def} {pop pop} ifelse} forall
	/Encoding isolatin1encoding def
    currentdict end
definefont pop
/Bookman-Light-latin1
    /Bookman-Light findfont
    dup length dict begin
	{1 index /FID ne {def} {pop pop} ifelse} forall
	/Encoding isolatin1encoding def
    currentdict end
definefont pop
/Bookman-LightItalic-latin1
    /Bookman-LightItalic findfont
    dup length dict begin
	{1 index /FID ne {def} {pop pop} ifelse} forall
	/Encoding isolatin1encoding def
    currentdict end
definefont pop
/Bookman-Demi-latin1
    /Bookman-Demi findfont
    dup length dict begin
	{1 index /FID ne {def} {pop pop} ifelse} forall
	/Encoding isolatin1encoding def
    currentdict end
definefont pop
/Bookman-DemiItalic-latin1
    /Bookman-DemiItalic findfont
    dup length dict begin
	{1 index /FID ne {def} {pop pop} ifelse} forall
	/Encoding isolatin1encoding def
    currentdict end
definefont pop
/Courier-latin1
    /Courier findfont
    dup length dict begin
	{1 index /FID ne {def} {pop pop} ifelse} forall
	/Encoding isolatin1encoding def
    currentdict end
definefont pop
/Courier-Oblique-latin1
    /Courier-Oblique findfont
    dup length dict begin
	{1 index /FID ne {def} {pop pop} ifelse} forall
	/Encoding isolatin1encoding def
    currentdict end
definefont pop
/Courier-Bold-latin1
    /Courier-Bold findfont
    dup length dict begin
	{1 index /FID ne {def} {pop pop} ifelse} forall
	/Encoding isolatin1encoding def
    currentdict end
definefont pop
/Courier-BoldOblique-latin1
    /Courier-BoldOblique findfont
    dup length dict begin
	{1 index /FID ne {def} {pop pop} ifelse} forall
	/Encoding isolatin1encoding def
    currentdict end
definefont pop
/Helvetica-latin1
    /Helvetica findfont
    dup length dict begin
	{1 index /FID ne {def} {pop pop} ifelse} forall
	/Encoding isolatin1encoding def
    currentdict end
definefont pop
/Helvetica-Oblique-latin1
    /Helvetica-Oblique findfont
    dup length dict begin
	{1 index /FID ne {def} {pop pop} ifelse} forall
	/Encoding isolatin1encoding def
    currentdict end
definefont pop
/Helvetica-Bold-latin1
    /Helvetica-Bold findfont
    dup length dict begin
	{1 index /FID ne {def} {pop pop} ifelse} forall
	/Encoding isolatin1encoding def
    currentdict end
definefont pop
/Helvetica-BoldOblique-latin1
    /Helvetica-BoldOblique findfont
    dup length dict begin
	{1 index /FID ne {def} {pop pop} ifelse} forall
	/Encoding isolatin1encoding def
    currentdict end
definefont pop
/Helvetica-Narrow-latin1
    /Helvetica-Narrow findfont
    dup length dict begin
	{1 index /FID ne {def} {pop pop} ifelse} forall
	/Encoding isolatin1encoding def
    currentdict end
definefont pop
/Helvetica-Narrow-Oblique-latin1
    /Helvetica-Narrow-Oblique findfont
    dup length dict begin
	{1 index /FID ne {def} {pop pop} ifelse} forall
	/Encoding isolatin1encoding def
    currentdict end
definefont pop
/Helvetica-Narrow-Bold-latin1
    /Helvetica-Narrow-Bold findfont
    dup length dict begin
	{1 index /FID ne {def} {pop pop} ifelse} forall
	/Encoding isolatin1encoding def
    currentdict end
definefont pop
/Helvetica-Narrow-BoldOblique-latin1
    /Helvetica-Narrow-BoldOblique findfont
    dup length dict begin
	{1 index /FID ne {def} {pop pop} ifelse} forall
	/Encoding isolatin1encoding def
    currentdict end
definefont pop
/NewCenturySchlbk-Roman-latin1
    /NewCenturySchlbk-Roman findfont
    dup length dict begin
	{1 index /FID ne {def} {pop pop} ifelse} forall
	/Encoding isolatin1encoding def
    currentdict end
definefont pop
/NewCenturySchlbk-Italic-latin1
    /NewCenturySchlbk-Italic findfont
    dup length dict begin
	{1 index /FID ne {def} {pop pop} ifelse} forall
	/Encoding isolatin1encoding def
    currentdict end
definefont pop
/NewCenturySchlbk-Bold-latin1
    /NewCenturySchlbk-Bold findfont
    dup length dict begin
	{1 index /FID ne {def} {pop pop} ifelse} forall
	/Encoding isolatin1encoding def
    currentdict end
definefont pop
/NewCenturySchlbk-BoldItalic-latin1
    /NewCenturySchlbk-BoldItalic findfont
    dup length dict begin
	{1 index /FID ne {def} {pop pop} ifelse} forall
	/Encoding isolatin1encoding def
    currentdict end
definefont pop
/Palatino-Roman-latin1
    /Palatino-Roman findfont
    dup length dict begin
	{1 index /FID ne {def} {pop pop} ifelse} forall
	/Encoding isolatin1encoding def
    currentdict end
definefont pop
/Palatino-Italic-latin1
    /Palatino-Italic findfont
    dup length dict begin
	{1 index /FID ne {def} {pop pop} ifelse} forall
	/Encoding isolatin1encoding def
    currentdict end
definefont pop
/Palatino-Bold-latin1
    /Palatino-Bold findfont
    dup length dict begin
	{1 index /FID ne {def} {pop pop} ifelse} forall
	/Encoding isolatin1encoding def
    currentdict end
definefont pop
/Palatino-BoldItalic-latin1
    /Palatino-BoldItalic findfont
    dup length dict begin
	{1 index /FID ne {def} {pop pop} ifelse} forall
	/Encoding isolatin1encoding def
    currentdict end
definefont pop
/Symbol-latin1
    /Symbol findfont
definefont pop
/ZapfChancery-MediumItalic-latin1
    /ZapfChancery-MediumItalic findfont
    dup length dict begin
	{1 index /FID ne {def} {pop pop} ifelse} forall
	/Encoding isolatin1encoding def
    currentdict end
definefont pop
/ZapfDingbats-latin1
    /ZapfDingbats findfont
    dup length dict begin
	{1 index /FID ne {def} {pop pop} ifelse} forall
	/Encoding isolatin1encoding def
    currentdict end
definefont pop
28.346000 -28.346000 scale
-6.474280 -27.666400 translate
%%EndProlog


0.100000 slw
[] 0 sd
0 slc
0 slj
0.100000 slw
0 slc
0 slj
[] 0 sd
1.000000 1.000000 1.000000 srgb
n 11.355575 5.198660 m 13.633075 5.198660 l 13.947532 5.198660 14.202450 5.646375 14.202450 6.198660 c 14.202450 6.750945 13.947532 7.198660 13.633075 7.198660 c 11.355575 7.198660 l 11.041118 7.198660 10.786200 6.750945 10.786200 6.198660 c 10.786200 5.646375 11.041118 5.198660 11.355575 5.198660 c ef
0.117647 0.564706 1.000000 srgb
n 11.355575 5.198660 m 13.633075 5.198660 l 13.947532 5.198660 14.202450 5.646375 14.202450 6.198660 c 14.202450 6.750945 13.947532 7.198660 13.633075 7.198660 c 11.355575 7.198660 l 11.041118 7.198660 10.786200 6.750945 10.786200 6.198660 c 10.786200 5.646375 11.041118 5.198660 11.355575 5.198660 c s
/Helvetica-latin1 ff 0.560000 scf sf
(START) dup sw 2 div 12.494325 ex sub 6.238660 m
 gs 1 -1 sc sh gr
0.100000 slw
[] 0 sd
0 slc
0 slj
0.100000 slw
0 slc
0 slj
[] 0 sd
1.000000 1.000000 1.000000 srgb
n 11.476875 23.515800 m 13.754375 23.515800 l 14.068832 23.515800 14.323750 23.963515 14.323750 24.515800 c 14.323750 25.068085 14.068832 25.515800 13.754375 25.515800 c 11.476875 25.515800 l 11.162418 25.515800 10.907500 25.068085 10.907500 24.515800 c 10.907500 23.963515 11.162418 23.515800 11.476875 23.515800 c ef
0.117647 0.564706 1.000000 srgb
n 11.476875 23.515800 m 13.754375 23.515800 l 14.068832 23.515800 14.323750 23.963515 14.323750 24.515800 c 14.323750 25.068085 14.068832 25.515800 13.754375 25.515800 c 11.476875 25.515800 l 11.162418 25.515800 10.907500 25.068085 10.907500 24.515800 c 10.907500 23.963515 11.162418 23.515800 11.476875 23.515800 c s
/Helvetica-latin1 ff 0.560000 scf sf
(END) dup sw 2 div 12.615625 ex sub 24.555800 m
 gs 1 -1 sc sh gr
0.100000 slw
[] 0 sd
0 slj
1.000000 1.000000 1.000000 srgb
n 6.630530 8.648660 m 18.558030 8.648660 l 18.558030 10.548660 l 6.630530 10.548660 l ef
0.117647 0.564706 1.000000 srgb
n 6.630530 8.648660 m 18.558030 8.648660 l 18.558030 10.548660 l 6.630530 10.548660 l cp s
/Helvetica-latin1 ff 0.560000 scf sf
(Leer chip_id relacionado endpoint) dup sw 2 div 12.594280 ex sub 9.633660 m
 gs 1 -1 sc sh gr
0.100000 slw
[] 0 sd
0 slj
1.000000 1.000000 1.000000 srgb
n 6.524280 11.948700 m 18.764280 11.948700 l 18.764280 13.848700 l 6.524280 13.848700 l ef
0.117647 0.564706 1.000000 srgb
n 6.524280 11.948700 m 18.764280 11.948700 l 18.764280 13.848700 l 6.524280 13.848700 l cp s
/Helvetica-latin1 ff 0.560000 scf sf
(Leer configuración según endpoint) dup sw 2 div 12.644280 ex sub 12.933700 m
 gs 1 -1 sc sh gr
0.100000 slw
[] 0 sd
0 slj
1.000000 1.000000 1.000000 srgb
n 7.203030 15.498700 m 18.285530 15.498700 l 18.285530 18.198700 l 7.203030 18.198700 l ef
0.117647 0.564706 1.000000 srgb
n 7.203030 15.498700 m 18.285530 15.498700 l 18.285530 18.198700 l 7.203030 18.198700 l cp s
/Helvetica-latin1 ff 0.560000 scf sf
(Crear archivo de configuración) dup sw 2 div 12.744280 ex sub 16.483700 m
 gs 1 -1 sc sh gr
(para ese endpoint) dup sw 2 div 12.744280 ex sub 17.283700 m
 gs 1 -1 sc sh gr
0.100000 slw
[] 0 sd
0 slj
1.000000 1.000000 1.000000 srgb
n 9.116780 19.348700 m 16.071780 19.348700 l 16.071780 22.048700 l 9.116780 22.048700 l ef
0.117647 0.564706 1.000000 srgb
n 9.116780 19.348700 m 16.071780 19.348700 l 16.071780 22.048700 l 9.116780 22.048700 l cp s
/Helvetica-latin1 ff 0.560000 scf sf
(Subir los scripts al) dup sw 2 div 12.594280 ex sub 20.333700 m
 gs 1 -1 sc sh gr
(nodemcu) dup sw 2 div 12.594280 ex sub 21.133700 m
 gs 1 -1 sc sh gr
0.100000 slw
[] 0 sd
0 slc
n 12.525195 7.248709 m 12.548724 8.049068 l s
0.100000 slw
[] 0 sd
0 slj
n 12.298832 8.056415 m 12.563417 8.548852 l 12.798616 8.041722 l ef
n 12.298832 8.056415 m 12.563417 8.548852 l 12.798616 8.041722 l cp s
0.100000 slw
[] 0 sd
0 slc
n 12.609429 10.598501 m 12.620799 11.348922 l s
0.100000 slw
[] 0 sd
0 slj
n 12.370827 11.352709 m 12.628374 11.848865 l 12.870770 11.345135 l ef
n 12.370827 11.352709 m 12.628374 11.848865 l 12.870770 11.345135 l cp s
0.100000 slw
[] 0 sd
0 slc
n 12.669585 13.898254 m 12.694960 14.900561 l s
0.100000 slw
[] 0 sd
0 slj
n 12.445040 14.906888 m 12.707614 15.400401 l 12.944880 14.894234 l ef
n 12.445040 14.906888 m 12.707614 15.400401 l 12.944880 14.894234 l cp s
0.100000 slw
[] 0 sd
0 slc
n 12.689751 18.248273 m 12.670221 18.749544 l s
0.100000 slw
[] 0 sd
0 slj
n 12.420411 18.739811 m 12.650755 19.249165 l 12.920032 18.759277 l ef
n 12.420411 18.739811 m 12.650755 19.249165 l 12.920032 18.759277 l cp s
0.100000 slw
[] 0 sd
0 slc
n 12.602110 22.098894 m 12.606679 22.916013 l s
0.100000 slw
[] 0 sd
0 slj
n 12.356683 22.917411 m 12.609475 23.416005 l 12.856675 22.914615 l ef
n 12.356683 22.917411 m 12.609475 23.416005 l 12.856675 22.914615 l cp s
0.100000 slw
[] 0 sd
0 slc
0 slj
0.100000 slw
0 slc
0 slj
[] 0 sd
1.000000 1.000000 1.000000 srgb
n 25.467825 4.986930 m 30.850325 4.986930 l 31.593494 4.986930 32.195950 5.434645 32.195950 5.986930 c 32.195950 6.539215 31.593494 6.986930 30.850325 6.986930 c 25.467825 6.986930 l 24.724656 6.986930 24.122200 6.539215 24.122200 5.986930 c 24.122200 5.434645 24.724656 4.986930 25.467825 4.986930 c ef
0.117647 0.564706 1.000000 srgb
n 25.467825 4.986930 m 30.850325 4.986930 l 31.593494 4.986930 32.195950 5.434645 32.195950 5.986930 c 32.195950 6.539215 31.593494 6.986930 30.850325 6.986930 c 25.467825 6.986930 l 24.724656 6.986930 24.122200 6.539215 24.122200 5.986930 c 24.122200 5.434645 24.724656 4.986930 25.467825 4.986930 c s
/Helvetica-latin1 ff 0.560000 scf sf
(Subir los scripts) dup sw 2 div 28.159075 ex sub 5.626930 m
 gs 1 -1 sc sh gr
(al nodemcu) dup sw 2 div 28.159075 ex sub 6.426930 m
 gs 1 -1 sc sh gr
0.100000 slw
[] 0 sd
0 slc
0 slj
0.100000 slw
0 slc
0 slj
[] 0 sd
1.000000 1.000000 1.000000 srgb
n 28.983275 25.566400 m 31.260775 25.566400 l 31.575232 25.566400 31.830150 26.014115 31.830150 26.566400 c 31.830150 27.118685 31.575232 27.566400 31.260775 27.566400 c 28.983275 27.566400 l 28.668818 27.566400 28.413900 27.118685 28.413900 26.566400 c 28.413900 26.014115 28.668818 25.566400 28.983275 25.566400 c ef
0.117647 0.564706 1.000000 srgb
n 28.983275 25.566400 m 31.260775 25.566400 l 31.575232 25.566400 31.830150 26.014115 31.830150 26.566400 c 31.830150 27.118685 31.575232 27.566400 31.260775 27.566400 c 28.983275 27.566400 l 28.668818 27.566400 28.413900 27.118685 28.413900 26.566400 c 28.413900 26.014115 28.668818 25.566400 28.983275 25.566400 c s
/Helvetica-latin1 ff 0.560000 scf sf
(END) dup sw 2 div 30.122025 ex sub 26.606400 m
 gs 1 -1 sc sh gr
0.100000 slw
[] 0 sd
0 slj
1.000000 1.000000 1.000000 srgb
n 24.692800 7.987050 m 31.625300 7.987050 l 31.625300 9.887050 l 24.692800 9.887050 l ef
0.117647 0.564706 1.000000 srgb
n 24.692800 7.987050 m 31.625300 7.987050 l 31.625300 9.887050 l 24.692800 9.887050 l cp s
/Helvetica-latin1 ff 0.560000 scf sf
(seleccionar medio) dup sw 2 div 28.159050 ex sub 8.972050 m
 gs 1 -1 sc sh gr
0.100000 slw
[] 0 sd
0 slj
1.000000 1.000000 1.000000 srgb
n 28.159060 10.944500 m 31.914720 12.406608 l 28.159060 13.868715 l 24.403400 12.406608 l ef
0.117647 0.564706 1.000000 srgb
n 28.159060 10.944500 m 31.914720 12.406608 l 28.159060 13.868715 l 24.403400 12.406608 l cp s
/Helvetica-latin1 ff 0.560000 scf sf
(medio) dup sw 2 div 28.159060 ex sub 12.441608 m
 gs 1 -1 sc sh gr
0.100000 slw
[] 0 sd
0 slc
n 28.159088 7.035821 m 28.159093 7.437050 l s
0.100000 slw
[] 0 sd
0 slj
n 27.909093 7.437053 m 28.159099 7.937050 l 28.409093 7.437047 l ef
n 27.909093 7.437053 m 28.159099 7.937050 l 28.409093 7.437047 l cp s
0.100000 slw
[] 0 sd
0 slc
n 28.159100 9.887050 m 28.159100 10.394500 l s
0.100000 slw
[] 0 sd
0 slj
n 27.909100 10.394500 m 28.159100 10.894500 l 28.409100 10.394500 l ef
n 27.909100 10.394500 m 28.159100 10.894500 l 28.409100 10.394500 l cp s
0.100000 slw
[] 0 sd
0 slj
1.000000 1.000000 1.000000 srgb
n 32.008800 14.359800 m 40.948800 14.359800 l 40.948800 17.059800 l 32.008800 17.059800 l ef
0.117647 0.564706 1.000000 srgb
n 32.008800 14.359800 m 40.948800 14.359800 l 40.948800 17.059800 l 32.008800 17.059800 l cp s
/Helvetica-latin1 ff 0.560000 scf sf
(Conectarse a TCP server) dup sw 2 div 36.478800 ex sub 15.344800 m
 gs 1 -1 sc sh gr
(en nodemcu) dup sw 2 div 36.478800 ex sub 16.144800 m
 gs 1 -1 sc sh gr
0.100000 slw
[] 0 sd
0 slj
1.000000 1.000000 1.000000 srgb
n 32.023400 18.091900 m 41.138400 18.091900 l 41.138400 20.791900 l 32.023400 20.791900 l ef
0.117647 0.564706 1.000000 srgb
n 32.023400 18.091900 m 41.138400 18.091900 l 41.138400 20.791900 l 32.023400 20.791900 l cp s
/Helvetica-latin1 ff 0.560000 scf sf
(Escribir cada script) dup sw 2 div 36.580900 ex sub 19.076900 m
 gs 1 -1 sc sh gr
(en el sistema de ficheros) dup sw 2 div 36.580900 ex sub 19.876900 m
 gs 1 -1 sc sh gr
0.100000 slw
[] 0 sd
0 slj
1.000000 1.000000 1.000000 srgb
n 32.158100 21.797300 m 41.820600 21.797300 l 41.820600 23.697300 l 32.158100 23.697300 l ef
0.117647 0.564706 1.000000 srgb
n 32.158100 21.797300 m 41.820600 21.797300 l 41.820600 23.697300 l 32.158100 23.697300 l cp s
/Helvetica-latin1 ff 0.560000 scf sf
(Solicitar reiniciar nodemcu) dup sw 2 div 36.989350 ex sub 22.782300 m
 gs 1 -1 sc sh gr
0.100000 slw
[] 0 sd
0 slj
1.000000 1.000000 1.000000 srgb
n 21.868200 16.886900 m 30.285700 16.886900 l 30.285700 19.586900 l 21.868200 19.586900 l ef
0.117647 0.564706 1.000000 srgb
n 21.868200 16.886900 m 30.285700 16.886900 l 30.285700 19.586900 l 21.868200 19.586900 l cp s
/Helvetica-latin1 ff 0.560000 scf sf
(Transferir scripts) dup sw 2 div 26.076950 ex sub 17.871900 m
 gs 1 -1 sc sh gr
(por nodemcu-uploader) dup sw 2 div 26.076950 ex sub 18.671900 m
 gs 1 -1 sc sh gr
0.100000 slw
[] 0 sd
0 slj
1.000000 1.000000 1.000000 srgb
n 22.618300 21.395700 m 29.488300 21.395700 l 29.488300 23.295700 l 22.618300 23.295700 l ef
0.117647 0.564706 1.000000 srgb
n 22.618300 21.395700 m 29.488300 21.395700 l 29.488300 23.295700 l 22.618300 23.295700 l cp s
/Helvetica-latin1 ff 0.560000 scf sf
(reiniciar nodemcu) dup sw 2 div 26.053300 ex sub 22.380700 m
 gs 1 -1 sc sh gr
0.100000 slw
[] 0 sd
0 slc
n 35.191204 23.747296 m 32.114352 25.458415 l s
0.100000 slw
[] 0 sd
0 slj
n 31.992846 25.239928 m 31.677379 25.701427 l 32.235858 25.676901 l ef
n 31.992846 25.239928 m 31.677379 25.701427 l 32.235858 25.676901 l cp s
0.100000 slw
[] 0 sd
0 slc
n 27.017338 23.345746 m 28.728593 25.120920 l s
0.100000 slw
[] 0 sd
0 slj
n 28.548605 25.294427 m 29.075606 25.480895 l 28.908580 24.947414 l ef
n 28.548605 25.294427 m 29.075606 25.480895 l 28.908580 24.947414 l cp s
0.100000 slw
[] 0 sd
0 slc
n 36.753614 20.839594 m 36.798646 21.204021 l s
0.100000 slw
[] 0 sd
0 slj
n 36.550533 21.234681 m 36.859965 21.700247 l 37.046759 21.173362 l ef
n 36.550533 21.234681 m 36.859965 21.700247 l 37.046759 21.173362 l cp s
0.100000 slw
[] 0 sd
0 slc
n 36.517100 17.109793 m 36.527559 17.492113 l s
0.100000 slw
[] 0 sd
0 slj
n 36.277653 17.498949 m 36.541233 17.991926 l 36.777466 17.485276 l ef
n 36.277653 17.498949 m 36.541233 17.991926 l 36.777466 17.485276 l cp s
0.100000 slw
[] 0 sd
0 slc
n 26.068901 19.635256 m 26.062219 20.796095 l s
0.100000 slw
[] 0 sd
0 slj
n 25.812224 20.794656 m 26.059342 21.296087 l 26.312215 20.797534 l ef
n 25.812224 20.794656 m 26.059342 21.296087 l 26.312215 20.797534 l cp s
0.100000 slw
[] 0 sd
0 slj
0 slc
n 31.914720 12.406608 m 36.478800 12.406608 l 36.478800 13.759458 l s
0.100000 slw
[] 0 sd
0 slj
n 36.228800 13.759458 m 36.478800 14.259458 l 36.728800 13.759458 l ef
n 36.228800 13.759458 m 36.478800 14.259458 l 36.728800 13.759458 l cp s
/Helvetica-latin1 ff 0.560000 scf sf
(WIFI) 33.296900 11.642700 m
 gs 1 -1 sc sh gr
0.100000 slw
[] 0 sd
0 slc
n 28.159100 13.868700 m 28.177255 16.336915 l s
0.100000 slw
[] 0 sd
0 slj
n 27.927261 16.338754 m 28.180932 16.836901 l 28.427248 16.335076 l ef
n 27.927261 16.338754 m 28.180932 16.836901 l 28.427248 16.335076 l cp s
/Helvetica-latin1 ff 0.560000 scf sf
(UART) 25.164900 15.203200 m
 gs 1 -1 sc sh gr
0.100000 slw
[0.200000] 0 sd
0 slc
1.000000 0.647059 0.000000 srgb
n 14.072480 19.301513 m 26.648818 7.414418 l s
0.100000 slw
[] 0 sd
0 slj
n 26.820546 7.596103 m 27.012188 7.070962 l 26.477090 7.232733 l ef
n 26.820546 7.596103 m 27.012188 7.070962 l 26.477090 7.232733 l cp s
showpage
