%!PS-Adobe-2.0 EPSF-2.0
%%Title: /home/johnny/projects/sensor-network-iot/dev/sensor-network-iot/docs/latex/informe2020-02-25/imag/demoLua/scripts_lua_endpoint.dia
%%Creator: Dia v0.97+git
%%CreationDate: Tue Feb 25 18:41:45 2020
%%For: johnny
%%Orientation: Portrait
%%Magnification: 1.0000
%%BoundingBox: 0 0 1025 781
%%BeginSetup
%%EndSetup
%%EndComments
%%BeginProlog
[ /.notdef /.notdef /.notdef /.notdef /.notdef /.notdef /.notdef /.notdef /.notdef /.notdef
/.notdef /.notdef /.notdef /.notdef /.notdef /.notdef /.notdef /.notdef /.notdef /.notdef
/.notdef /.notdef /.notdef /.notdef /.notdef /.notdef /.notdef /.notdef /.notdef /.notdef
/.notdef /.notdef /space /exclam /quotedbl /numbersign /dollar /percent /ampersand /quoteright
/parenleft /parenright /asterisk /plus /comma /hyphen /period /slash /zero /one
/two /three /four /five /six /seven /eight /nine /colon /semicolon
/less /equal /greater /question /at /A /B /C /D /E
/F /G /H /I /J /K /L /M /N /O
/P /Q /R /S /T /U /V /W /X /Y
/Z /bracketleft /backslash /bracketright /asciicircum /underscore /quoteleft /a /b /c
/d /e /f /g /h /i /j /k /l /m
/n /o /p /q /r /s /t /u /v /w
/x /y /z /braceleft /bar /braceright /asciitilde /.notdef /.notdef /.notdef
/.notdef /.notdef /.notdef /.notdef /.notdef /.notdef /.notdef /.notdef /.notdef /.notdef
/.notdef /.notdef /.notdef /.notdef /.notdef /.notdef /.notdef /.notdef /.notdef /.notdef
/.notdef /.notdef /.notdef /.notdef /.notdef /.notdef /.notdef /.notdef /.notdef /.notdef
/space /exclamdown /cent /sterling /currency /yen /brokenbar /section /dieresis /copyright
/ordfeminine /guillemotleft /logicalnot /hyphen /registered /macron /degree /plusminus /twosuperior /threesuperior
/acute /mu /paragraph /periodcentered /cedilla /onesuperior /ordmasculine /guillemotright /onequarter /onehalf
/threequarters /questiondown /Agrave /Aacute /Acircumflex /Atilde /Adieresis /Aring /AE /Ccedilla
/Egrave /Eacute /Ecircumflex /Edieresis /Igrave /Iacute /Icircumflex /Idieresis /Eth /Ntilde
/Ograve /Oacute /Ocircumflex /Otilde /Odieresis /multiply /Oslash /Ugrave /Uacute /Ucircumflex
/Udieresis /Yacute /Thorn /germandbls /agrave /aacute /acircumflex /atilde /adieresis /aring
/ae /ccedilla /egrave /eacute /ecircumflex /edieresis /igrave /iacute /icircumflex /idieresis
/eth /ntilde /ograve /oacute /ocircumflex /otilde /odieresis /divide /oslash /ugrave
/uacute /ucircumflex /udieresis /yacute /thorn /ydieresis] /isolatin1encoding exch def
/cp {closepath} bind def
/c {curveto} bind def
/f {fill} bind def
/a {arc} bind def
/ef {eofill} bind def
/ex {exch} bind def
/gr {grestore} bind def
/gs {gsave} bind def
/sa {save} bind def
/rs {restore} bind def
/l {lineto} bind def
/m {moveto} bind def
/rm {rmoveto} bind def
/n {newpath} bind def
/s {stroke} bind def
/sh {show} bind def
/slc {setlinecap} bind def
/slj {setlinejoin} bind def
/slw {setlinewidth} bind def
/srgb {setrgbcolor} bind def
/rot {rotate} bind def
/sc {scale} bind def
/sd {setdash} bind def
/ff {findfont} bind def
/sf {setfont} bind def
/scf {scalefont} bind def
/sw {stringwidth pop} bind def
/tr {translate} bind def

/ellipsedict 8 dict def
ellipsedict /mtrx matrix put
/ellipse
{ ellipsedict begin
   /endangle exch def
   /startangle exch def
   /yrad exch def
   /xrad exch def
   /y exch def
   /x exch def   /savematrix mtrx currentmatrix def
   x y tr xrad yrad sc
   0 0 1 startangle endangle arc
   savematrix setmatrix
   end
} def

/mergeprocs {
dup length
3 -1 roll
dup
length
dup
5 1 roll
3 -1 roll
add
array cvx
dup
3 -1 roll
0 exch
putinterval
dup
4 2 roll
putinterval
} bind def
/Times-Roman-latin1
    /Times-Roman findfont
    dup length dict begin
	{1 index /FID ne {def} {pop pop} ifelse} forall
	/Encoding isolatin1encoding def
    currentdict end
definefont pop
/Times-Italic-latin1
    /Times-Italic findfont
    dup length dict begin
	{1 index /FID ne {def} {pop pop} ifelse} forall
	/Encoding isolatin1encoding def
    currentdict end
definefont pop
/Times-Bold-latin1
    /Times-Bold findfont
    dup length dict begin
	{1 index /FID ne {def} {pop pop} ifelse} forall
	/Encoding isolatin1encoding def
    currentdict end
definefont pop
/Times-BoldItalic-latin1
    /Times-BoldItalic findfont
    dup length dict begin
	{1 index /FID ne {def} {pop pop} ifelse} forall
	/Encoding isolatin1encoding def
    currentdict end
definefont pop
/AvantGarde-Gothic-latin1
    /AvantGarde-Gothic findfont
    dup length dict begin
	{1 index /FID ne {def} {pop pop} ifelse} forall
	/Encoding isolatin1encoding def
    currentdict end
definefont pop
/AvantGarde-BookOblique-latin1
    /AvantGarde-BookOblique findfont
    dup length dict begin
	{1 index /FID ne {def} {pop pop} ifelse} forall
	/Encoding isolatin1encoding def
    currentdict end
definefont pop
/AvantGarde-Demi-latin1
    /AvantGarde-Demi findfont
    dup length dict begin
	{1 index /FID ne {def} {pop pop} ifelse} forall
	/Encoding isolatin1encoding def
    currentdict end
definefont pop
/AvantGarde-DemiOblique-latin1
    /AvantGarde-DemiOblique findfont
    dup length dict begin
	{1 index /FID ne {def} {pop pop} ifelse} forall
	/Encoding isolatin1encoding def
    currentdict end
definefont pop
/Bookman-Light-latin1
    /Bookman-Light findfont
    dup length dict begin
	{1 index /FID ne {def} {pop pop} ifelse} forall
	/Encoding isolatin1encoding def
    currentdict end
definefont pop
/Bookman-LightItalic-latin1
    /Bookman-LightItalic findfont
    dup length dict begin
	{1 index /FID ne {def} {pop pop} ifelse} forall
	/Encoding isolatin1encoding def
    currentdict end
definefont pop
/Bookman-Demi-latin1
    /Bookman-Demi findfont
    dup length dict begin
	{1 index /FID ne {def} {pop pop} ifelse} forall
	/Encoding isolatin1encoding def
    currentdict end
definefont pop
/Bookman-DemiItalic-latin1
    /Bookman-DemiItalic findfont
    dup length dict begin
	{1 index /FID ne {def} {pop pop} ifelse} forall
	/Encoding isolatin1encoding def
    currentdict end
definefont pop
/Courier-latin1
    /Courier findfont
    dup length dict begin
	{1 index /FID ne {def} {pop pop} ifelse} forall
	/Encoding isolatin1encoding def
    currentdict end
definefont pop
/Courier-Oblique-latin1
    /Courier-Oblique findfont
    dup length dict begin
	{1 index /FID ne {def} {pop pop} ifelse} forall
	/Encoding isolatin1encoding def
    currentdict end
definefont pop
/Courier-Bold-latin1
    /Courier-Bold findfont
    dup length dict begin
	{1 index /FID ne {def} {pop pop} ifelse} forall
	/Encoding isolatin1encoding def
    currentdict end
definefont pop
/Courier-BoldOblique-latin1
    /Courier-BoldOblique findfont
    dup length dict begin
	{1 index /FID ne {def} {pop pop} ifelse} forall
	/Encoding isolatin1encoding def
    currentdict end
definefont pop
/Helvetica-latin1
    /Helvetica findfont
    dup length dict begin
	{1 index /FID ne {def} {pop pop} ifelse} forall
	/Encoding isolatin1encoding def
    currentdict end
definefont pop
/Helvetica-Oblique-latin1
    /Helvetica-Oblique findfont
    dup length dict begin
	{1 index /FID ne {def} {pop pop} ifelse} forall
	/Encoding isolatin1encoding def
    currentdict end
definefont pop
/Helvetica-Bold-latin1
    /Helvetica-Bold findfont
    dup length dict begin
	{1 index /FID ne {def} {pop pop} ifelse} forall
	/Encoding isolatin1encoding def
    currentdict end
definefont pop
/Helvetica-BoldOblique-latin1
    /Helvetica-BoldOblique findfont
    dup length dict begin
	{1 index /FID ne {def} {pop pop} ifelse} forall
	/Encoding isolatin1encoding def
    currentdict end
definefont pop
/Helvetica-Narrow-latin1
    /Helvetica-Narrow findfont
    dup length dict begin
	{1 index /FID ne {def} {pop pop} ifelse} forall
	/Encoding isolatin1encoding def
    currentdict end
definefont pop
/Helvetica-Narrow-Oblique-latin1
    /Helvetica-Narrow-Oblique findfont
    dup length dict begin
	{1 index /FID ne {def} {pop pop} ifelse} forall
	/Encoding isolatin1encoding def
    currentdict end
definefont pop
/Helvetica-Narrow-Bold-latin1
    /Helvetica-Narrow-Bold findfont
    dup length dict begin
	{1 index /FID ne {def} {pop pop} ifelse} forall
	/Encoding isolatin1encoding def
    currentdict end
definefont pop
/Helvetica-Narrow-BoldOblique-latin1
    /Helvetica-Narrow-BoldOblique findfont
    dup length dict begin
	{1 index /FID ne {def} {pop pop} ifelse} forall
	/Encoding isolatin1encoding def
    currentdict end
definefont pop
/NewCenturySchlbk-Roman-latin1
    /NewCenturySchlbk-Roman findfont
    dup length dict begin
	{1 index /FID ne {def} {pop pop} ifelse} forall
	/Encoding isolatin1encoding def
    currentdict end
definefont pop
/NewCenturySchlbk-Italic-latin1
    /NewCenturySchlbk-Italic findfont
    dup length dict begin
	{1 index /FID ne {def} {pop pop} ifelse} forall
	/Encoding isolatin1encoding def
    currentdict end
definefont pop
/NewCenturySchlbk-Bold-latin1
    /NewCenturySchlbk-Bold findfont
    dup length dict begin
	{1 index /FID ne {def} {pop pop} ifelse} forall
	/Encoding isolatin1encoding def
    currentdict end
definefont pop
/NewCenturySchlbk-BoldItalic-latin1
    /NewCenturySchlbk-BoldItalic findfont
    dup length dict begin
	{1 index /FID ne {def} {pop pop} ifelse} forall
	/Encoding isolatin1encoding def
    currentdict end
definefont pop
/Palatino-Roman-latin1
    /Palatino-Roman findfont
    dup length dict begin
	{1 index /FID ne {def} {pop pop} ifelse} forall
	/Encoding isolatin1encoding def
    currentdict end
definefont pop
/Palatino-Italic-latin1
    /Palatino-Italic findfont
    dup length dict begin
	{1 index /FID ne {def} {pop pop} ifelse} forall
	/Encoding isolatin1encoding def
    currentdict end
definefont pop
/Palatino-Bold-latin1
    /Palatino-Bold findfont
    dup length dict begin
	{1 index /FID ne {def} {pop pop} ifelse} forall
	/Encoding isolatin1encoding def
    currentdict end
definefont pop
/Palatino-BoldItalic-latin1
    /Palatino-BoldItalic findfont
    dup length dict begin
	{1 index /FID ne {def} {pop pop} ifelse} forall
	/Encoding isolatin1encoding def
    currentdict end
definefont pop
/Symbol-latin1
    /Symbol findfont
definefont pop
/ZapfChancery-MediumItalic-latin1
    /ZapfChancery-MediumItalic findfont
    dup length dict begin
	{1 index /FID ne {def} {pop pop} ifelse} forall
	/Encoding isolatin1encoding def
    currentdict end
definefont pop
/ZapfDingbats-latin1
    /ZapfDingbats findfont
    dup length dict begin
	{1 index /FID ne {def} {pop pop} ifelse} forall
	/Encoding isolatin1encoding def
    currentdict end
definefont pop
28.346000 -28.346000 scale
-20.170600 -28.953328 translate
%%EndProlog


0.100000 slw
[] 0 sd
0 slc
0 slj
0.100000 slw
0 slc
0 slj
[] 0 sd
0.901961 0.901961 0.901961 srgb
n 21.274686 24.150000 m 21.274686 23.750000 21.274686 23.750000 21.766472 23.750000 c 22.258257 23.750000 22.258257 23.750000 22.750043 23.750000 c 23.241829 23.750000 23.241829 23.750000 23.241829 24.150000 c 23.241829 24.150000 24.717186 24.150000 24.717186 24.150000 c 24.717186 24.150000 24.717186 25.750000 24.717186 25.750000 c 24.717186 25.750000 21.274686 25.750000 21.274686 25.750000 c 21.274686 25.750000 21.274686 24.550000 21.274686 24.150000 c ef
0.117647 0.564706 1.000000 srgb
n 21.274686 24.150000 m 21.274686 23.750000 21.274686 23.750000 21.766472 23.750000 c 22.258257 23.750000 22.258257 23.750000 22.750043 23.750000 c 23.241829 23.750000 23.241829 23.750000 23.241829 24.150000 c 23.241829 24.150000 24.717186 24.150000 24.717186 24.150000 c 24.717186 24.150000 24.717186 25.750000 24.717186 25.750000 c 24.717186 25.750000 21.274686 25.750000 21.274686 25.750000 c 21.274686 25.750000 21.274686 24.550000 21.274686 24.150000 c s
0.010000 slw
0 slc
0 slj
[] 0 sd
n 21.274686 24.150000 m 21.274686 23.750000 21.274686 23.750000 21.766472 23.750000 c 22.258257 23.750000 22.258257 23.750000 22.750043 23.750000 c 23.241829 23.750000 23.241829 23.750000 23.241829 24.150000 c 23.241829 24.150000 24.717186 24.150000 24.717186 24.150000 c 24.717186 24.150000 24.717186 25.750000 24.717186 25.750000 c 24.717186 25.750000 21.274686 25.750000 21.274686 25.750000 c 21.274686 25.750000 21.274686 24.550000 21.274686 24.150000 c s
0.100000 slw
0 slc
0 slj
[] 0 sd
1.000000 1.000000 1.000000 srgb
n 21.274686 25.750000 m 20.782900 24.350000 l 24.225400 24.350000 l 24.717186 25.750000 l ef
0.117647 0.564706 1.000000 srgb
n 21.274686 25.750000 m 20.782900 24.350000 l 24.225400 24.350000 l 24.717186 25.750000 l cp s
0.010000 slw
0 slc
0 slj
[] 0 sd
n 21.274686 25.750000 m 20.782900 24.350000 l 24.225400 24.350000 l 24.717186 25.750000 l cp s
/Helvetica-latin1 ff 0.560000 scf sf
(NodeMCU) dup sw 2 div 22.750043 ex sub 24.890000 m
 gs 1 -1 sc sh gr
0.100000 slw
[] 0 sd
0 slc
n 22.499988 7.650000 m 22.504112 24.400000 l s
n 22.501157 12.400369 m 24.000000 12.400000 l s
n 22.501824 15.105386 m 24.070000 15.105000 l s
n 22.502439 17.605374 m 24.020000 17.605000 l s
n 22.503044 20.060378 m 24.040000 20.060000 l s
n 22.500518 9.805411 m 24.170000 9.805000 l s
n 22.503514 21.971446 m 23.503500 21.971200 l s
0.100000 slw
[] 0 sd
0 slc
0 slj
0.100000 slw
0 slc
0 slj
[] 0 sd
1.000000 1.000000 1.000000 srgb
n 21.013725 5.700000 m 23.986225 5.700000 l 24.396642 5.700000 24.729350 6.147715 24.729350 6.700000 c 24.729350 7.252285 24.396642 7.700000 23.986225 7.700000 c 21.013725 7.700000 l 20.603308 7.700000 20.270600 7.252285 20.270600 6.700000 c 20.270600 6.147715 20.603308 5.700000 21.013725 5.700000 c ef
0.117647 0.564706 1.000000 srgb
n 21.013725 5.700000 m 23.986225 5.700000 l 24.396642 5.700000 24.729350 6.147715 24.729350 6.700000 c 24.729350 7.252285 24.396642 7.700000 23.986225 7.700000 c 21.013725 7.700000 l 20.603308 7.700000 20.270600 7.252285 20.270600 6.700000 c 20.270600 6.147715 20.603308 5.700000 21.013725 5.700000 c s
/Helvetica-latin1 ff 0.560000 scf sf
(SCRIPTS) dup sw 2 div 22.499975 ex sub 6.740000 m
 gs 1 -1 sc sh gr
0.100000 slw
[] 0 sd
1.000000 1.000000 1.000000 srgb
n 24.000000 11.550000 m 28.150000 11.550000 l 28.750000 12.150000 l 28.750000 13.250000 l 24.000000 13.250000 l ef
0.117647 0.564706 1.000000 srgb
n 24.000000 11.550000 m 28.150000 11.550000 l 28.750000 12.150000 l 28.750000 13.250000 l 24.000000 13.250000 l cp s
0.050000 slw
n 28.150000 11.550000 m 28.150000 12.150000 l 28.750000 12.150000 l s
/Courier-latin1 ff 0.560000 scf sf
(config.lua) 24.350000 12.635000 m
 gs 1 -1 sc sh gr
0.100000 slw
[] 0 sd
1.000000 1.000000 1.000000 srgb
n 24.070000 14.255000 m 27.065000 14.255000 l 27.665000 14.855000 l 27.665000 15.955000 l 24.070000 15.955000 l ef
0.117647 0.564706 1.000000 srgb
n 24.070000 14.255000 m 27.065000 14.255000 l 27.665000 14.855000 l 27.665000 15.955000 l 24.070000 15.955000 l cp s
0.050000 slw
n 27.065000 14.255000 m 27.065000 14.855000 l 27.665000 14.855000 l s
/Courier-latin1 ff 0.560000 scf sf
(iot.lua) 24.420000 15.340000 m
 gs 1 -1 sc sh gr
0.100000 slw
[] 0 sd
1.000000 1.000000 1.000000 srgb
n 24.020000 16.755000 m 30.480000 16.755000 l 31.080000 17.355000 l 31.080000 18.455000 l 24.020000 18.455000 l ef
0.117647 0.564706 1.000000 srgb
n 24.020000 16.755000 m 30.480000 16.755000 l 31.080000 17.355000 l 31.080000 18.455000 l 24.020000 18.455000 l cp s
0.050000 slw
n 30.480000 16.755000 m 30.480000 17.355000 l 31.080000 17.355000 l s
/Courier-latin1 ff 0.560000 scf sf
(read_sensors.lua) 24.370000 17.840000 m
 gs 1 -1 sc sh gr
0.100000 slw
[] 0 sd
1.000000 1.000000 1.000000 srgb
n 24.040000 19.210000 m 27.035000 19.210000 l 27.635000 19.810000 l 27.635000 20.910000 l 24.040000 20.910000 l ef
0.117647 0.564706 1.000000 srgb
n 24.040000 19.210000 m 27.035000 19.210000 l 27.635000 19.810000 l 27.635000 20.910000 l 24.040000 20.910000 l cp s
0.050000 slw
n 27.035000 19.210000 m 27.035000 19.810000 l 27.635000 19.810000 l s
/Courier-latin1 ff 0.560000 scf sf
(run.lua) 24.390000 20.295000 m
 gs 1 -1 sc sh gr
0.100000 slw
[] 0 sd
1.000000 1.000000 1.000000 srgb
n 24.170000 8.955000 m 27.550000 8.955000 l 28.150000 9.555000 l 28.150000 10.655000 l 24.170000 10.655000 l ef
0.117647 0.564706 1.000000 srgb
n 24.170000 8.955000 m 27.550000 8.955000 l 28.150000 9.555000 l 28.150000 10.655000 l 24.170000 10.655000 l cp s
0.050000 slw
n 27.550000 8.955000 m 27.550000 9.555000 l 28.150000 9.555000 l s
/Courier-latin1 ff 0.560000 scf sf
(init.lua) 24.520000 10.040000 m
 gs 1 -1 sc sh gr
0.100000 slw
[] 0 sd
0 slc
0 slj
0.100000 slw
0 slc
0 slj
[] 0 sd
1.000000 1.000000 1.000000 srgb
n 37.211275 1.800000 m 39.488775 1.800000 l 39.803232 1.800000 40.058150 2.247715 40.058150 2.800000 c 40.058150 3.352285 39.803232 3.800000 39.488775 3.800000 c 37.211275 3.800000 l 36.896818 3.800000 36.641900 3.352285 36.641900 2.800000 c 36.641900 2.247715 36.896818 1.800000 37.211275 1.800000 c ef
0.117647 0.564706 1.000000 srgb
n 37.211275 1.800000 m 39.488775 1.800000 l 39.803232 1.800000 40.058150 2.247715 40.058150 2.800000 c 40.058150 3.352285 39.803232 3.800000 39.488775 3.800000 c 37.211275 3.800000 l 36.896818 3.800000 36.641900 3.352285 36.641900 2.800000 c 36.641900 2.247715 36.896818 1.800000 37.211275 1.800000 c s
/Helvetica-latin1 ff 0.560000 scf sf
(START) dup sw 2 div 38.350025 ex sub 2.840000 m
 gs 1 -1 sc sh gr
0.100000 slw
[] 0 sd
0 slc
0 slj
0.100000 slw
0 slc
0 slj
[] 0 sd
1.000000 1.000000 1.000000 srgb
n 48.589375 26.755000 m 50.866875 26.755000 l 51.181332 26.755000 51.436250 27.202715 51.436250 27.755000 c 51.436250 28.307285 51.181332 28.755000 50.866875 28.755000 c 48.589375 28.755000 l 48.274918 28.755000 48.020000 28.307285 48.020000 27.755000 c 48.020000 27.202715 48.274918 26.755000 48.589375 26.755000 c ef
0.117647 0.564706 1.000000 srgb
n 48.589375 26.755000 m 50.866875 26.755000 l 51.181332 26.755000 51.436250 27.202715 51.436250 27.755000 c 51.436250 28.307285 51.181332 28.755000 50.866875 28.755000 c 48.589375 28.755000 l 48.274918 28.755000 48.020000 28.307285 48.020000 27.755000 c 48.020000 27.202715 48.274918 26.755000 48.589375 26.755000 c s
/Helvetica-latin1 ff 0.560000 scf sf
(END) dup sw 2 div 49.728125 ex sub 27.795000 m
 gs 1 -1 sc sh gr
0.100000 slw
[] 0 sd
0 slj
1.000000 1.000000 1.000000 srgb
n 34.497500 5.150000 m 42.302500 5.150000 l 42.302500 7.850000 l 34.497500 7.850000 l ef
0.117647 0.564706 1.000000 srgb
n 34.497500 5.150000 m 42.302500 5.150000 l 42.302500 7.850000 l 34.497500 7.850000 l cp s
/Helvetica-latin1 ff 0.560000 scf sf
(Cargar configuración) dup sw 2 div 38.400000 ex sub 6.135000 m
 gs 1 -1 sc sh gr
(y los demás scripts) dup sw 2 div 38.400000 ex sub 6.935000 m
 gs 1 -1 sc sh gr
0.100000 slw
[] 0 sd
0 slc
n 38.364209 3.850110 m 38.373673 4.550807 l s
0.100000 slw
[] 0 sd
0 slj
n 38.123696 4.554183 m 38.380425 5.050761 l 38.623650 4.547431 l ef
n 38.123696 4.554183 m 38.380425 5.050761 l 38.623650 4.547431 l cp s
0.100000 slw
[] 0 sd
0 slj
1.000000 1.000000 1.000000 srgb
n 38.387138 13.437200 m 42.677576 15.091211 l 38.387138 16.745223 l 34.096700 15.091211 l ef
0.117647 0.564706 1.000000 srgb
n 38.387138 13.437200 m 42.677576 15.091211 l 38.387138 16.745223 l 34.096700 15.091211 l cp s
/Helvetica-latin1 ff 0.560000 scf sf
(IP obtenida) dup sw 2 div 38.387138 ex sub 15.126211 m
 gs 1 -1 sc sh gr
0.100000 slw
[] 0 sd
0 slj
1.000000 1.000000 1.000000 srgb
n 35.048700 9.005000 m 41.641200 9.005000 l 41.641200 11.705000 l 35.048700 11.705000 l ef
0.117647 0.564706 1.000000 srgb
n 35.048700 9.005000 m 41.641200 9.005000 l 41.641200 11.705000 l 35.048700 11.705000 l cp s
/Helvetica-latin1 ff 0.560000 scf sf
(conectarse como) dup sw 2 div 38.344950 ex sub 9.990000 m
 gs 1 -1 sc sh gr
(STA WiFi) dup sw 2 div 38.344950 ex sub 10.790000 m
 gs 1 -1 sc sh gr
0.100000 slw
[] 0 sd
0 slc
n 38.357418 11.754703 m 38.367114 12.843204 l s
0.100000 slw
[] 0 sd
0 slj
n 38.117124 12.845431 m 38.371567 13.343184 l 38.617104 12.840977 l ef
n 38.117124 12.845431 m 38.371567 13.343184 l 38.617104 12.840977 l cp s
0.100000 slw
[] 0 sd
0 slj
1.000000 1.000000 1.000000 srgb
n 34.836300 18.200000 m 41.863800 18.200000 l 41.863800 20.100000 l 34.836300 20.100000 l ef
0.117647 0.564706 1.000000 srgb
n 34.836300 18.200000 m 41.863800 18.200000 l 41.863800 20.100000 l 34.836300 20.100000 l cp s
/Helvetica-latin1 ff 0.560000 scf sf
(Conectar al broker) dup sw 2 div 38.350050 ex sub 19.185000 m
 gs 1 -1 sc sh gr
0.100000 slw
[] 0 sd
0 slc
n 38.380109 7.892920 m 38.372694 8.412136 l s
0.100000 slw
[] 0 sd
0 slj
n 38.122720 8.408566 m 38.365555 8.912085 l 38.622669 8.415706 l ef
n 38.122720 8.408566 m 38.365555 8.912085 l 38.622669 8.415706 l cp s
0.100000 slw
[] 0 sd
0 slc
0.000000 0.501961 0.000000 srgb
n 38.371627 16.788649 m 38.364212 17.600190 l s
0.100000 slw
[] 0 sd
0 slj
n 38.114222 17.597905 m 38.359643 18.100169 l 38.614201 17.602474 l ef
n 38.114222 17.597905 m 38.359643 18.100169 l 38.614201 17.602474 l cp s
0.100000 slw
[] 0 sd
0 slj
1.000000 1.000000 1.000000 srgb
n 38.310464 21.538900 m 44.195928 23.635742 l 38.310464 25.732585 l 32.425000 23.635742 l ef
0.117647 0.564706 1.000000 srgb
n 38.310464 21.538900 m 44.195928 23.635742 l 38.310464 25.732585 l 32.425000 23.635742 l cp s
/Helvetica-latin1 ff 0.560000 scf sf
(Conectado al) dup sw 2 div 38.310464 ex sub 23.270742 m
 gs 1 -1 sc sh gr
(Broker) dup sw 2 div 38.310464 ex sub 24.070742 m
 gs 1 -1 sc sh gr
0.100000 slw
[] 0 sd
0 slc
n 38.341226 20.149874 m 38.334207 20.945289 l s
0.100000 slw
[] 0 sd
0 slj
n 38.084217 20.943083 m 38.329795 21.445270 l 38.584197 20.947495 l ef
n 38.084217 20.943083 m 38.329795 21.445270 l 38.584197 20.947495 l cp s
0.100000 slw
[] 0 sd
0 slj
1.000000 1.000000 1.000000 srgb
n 38.250028 28.049964 1.706728 0.853364 0 360 ellipse f
0.117647 0.564706 1.000000 srgb
n 38.250028 28.049964 1.706728 0.853364 0 360 ellipse cp s
/Helvetica-latin1 ff 0.560000 scf sf
(A) dup sw 2 div 38.250028 ex sub 28.084964 m
 gs 1 -1 sc sh gr
0.100000 slw
[] 0 sd
0 slc
0.000000 0.501961 0.000000 srgb
n 38.281212 25.772264 m 38.269929 26.596372 l s
0.100000 slw
[] 0 sd
0 slj
n 38.019953 26.592949 m 38.263084 27.096325 l 38.519906 26.599794 l ef
n 38.019953 26.592949 m 38.263084 27.096325 l 38.519906 26.599794 l cp s
0.100000 slw
[] 0 sd
0 slj
1.000000 1.000000 1.000000 srgb
n 49.626728 2.308364 1.706728 0.853364 0 360 ellipse f
0.117647 0.564706 1.000000 srgb
n 49.626728 2.308364 1.706728 0.853364 0 360 ellipse cp s
/Helvetica-latin1 ff 0.560000 scf sf
(A) dup sw 2 div 49.626728 ex sub 2.343364 m
 gs 1 -1 sc sh gr
0.100000 slw
[] 0 sd
0 slj
1.000000 1.000000 1.000000 srgb
n 45.398800 4.700000 m 54.001300 4.700000 l 54.001300 6.600000 l 45.398800 6.600000 l ef
0.117647 0.564706 1.000000 srgb
n 45.398800 4.700000 m 54.001300 4.700000 l 54.001300 6.600000 l 45.398800 6.600000 l cp s
/Helvetica-latin1 ff 0.560000 scf sf
(Lanzar trabajo iterativo) dup sw 2 div 49.700050 ex sub 5.685000 m
 gs 1 -1 sc sh gr
0.100000 slw
[] 0 sd
0 slc
n 49.646526 3.210671 m 49.666056 4.100742 l s
0.100000 slw
[] 0 sd
0 slj
n 49.416116 4.106226 m 49.677025 4.600621 l 49.915996 4.095257 l ef
n 49.416116 4.106226 m 49.677025 4.600621 l 49.915996 4.095257 l cp s
0.100000 slw
[] 0 sd
0 slj
1.000000 1.000000 1.000000 srgb
n 44.755000 8.855000 m 54.600000 8.855000 l 54.600000 10.755000 l 44.755000 10.755000 l ef
0.117647 0.564706 1.000000 srgb
n 44.755000 8.855000 m 54.600000 8.855000 l 54.600000 10.755000 l 44.755000 10.755000 l cp s
/Helvetica-latin1 ff 0.560000 scf sf
(Leer sensores segun config) dup sw 2 div 49.677500 ex sub 9.840000 m
 gs 1 -1 sc sh gr
0.100000 slw
[] 0 sd
0 slc
n 49.694627 6.649188 m 49.685908 8.255820 l s
0.100000 slw
[] 0 sd
0 slj
n 49.435911 8.254463 m 49.683194 8.755813 l 49.935904 8.257177 l ef
n 49.435911 8.254463 m 49.683194 8.755813 l 49.935904 8.257177 l cp s
0.100000 slw
[] 0 sd
0 slj
1.000000 1.000000 1.000000 srgb
n 49.548861 16.274900 m 56.067021 18.814870 l 49.548861 21.354840 l 43.030700 18.814870 l ef
0.117647 0.564706 1.000000 srgb
n 49.548861 16.274900 m 56.067021 18.814870 l 49.548861 21.354840 l 43.030700 18.814870 l cp s
/Helvetica-latin1 ff 0.560000 scf sf
(no hay evento indeseado) dup sw 2 div 49.548861 ex sub 18.849870 m
 gs 1 -1 sc sh gr
0.100000 slw
[] 0 sd
0 slj
1.000000 1.000000 1.000000 srgb
n 46.259400 22.900000 m 52.821900 22.900000 l 52.821900 24.800000 l 46.259400 24.800000 l ef
0.117647 0.564706 1.000000 srgb
n 46.259400 22.900000 m 52.821900 22.900000 l 52.821900 24.800000 l 46.259400 24.800000 l cp s
/Helvetica-latin1 ff 0.560000 scf sf
(Reiniciar sistema) dup sw 2 div 49.540650 ex sub 23.885000 m
 gs 1 -1 sc sh gr
0.100000 slw
[] 0 sd
0 slj
1.000000 1.000000 1.000000 srgb
n 45.720000 12.655000 m 53.632500 12.655000 l 53.632500 14.555000 l 45.720000 14.555000 l ef
0.117647 0.564706 1.000000 srgb
n 45.720000 12.655000 m 53.632500 12.655000 l 53.632500 14.555000 l 45.720000 14.555000 l cp s
/Helvetica-latin1 ff 0.560000 scf sf
(Publicar segun topics) dup sw 2 div 49.676250 ex sub 13.640000 m
 gs 1 -1 sc sh gr
0.100000 slw
[] 0 sd
0 slc
n 49.677171 10.804170 m 49.676760 12.055830 l s
0.100000 slw
[] 0 sd
0 slj
n 49.426760 12.055748 m 49.676595 12.555830 l 49.926760 12.055912 l ef
n 49.426760 12.055748 m 49.676595 12.555830 l 49.926760 12.055912 l cp s
0.100000 slw
[] 0 sd
0 slc
n 49.628503 14.605235 m 49.575025 15.725526 l s
0.100000 slw
[] 0 sd
0 slj
n 49.325309 15.713605 m 49.551184 16.224957 l 49.824741 15.737446 l ef
n 49.325309 15.713605 m 49.551184 16.224957 l 49.824741 15.737446 l cp s
0.100000 slw
[] 0 sd
0 slc
1.000000 0.000000 0.000000 srgb
n 49.544641 21.402504 m 49.543177 22.300596 l s
0.100000 slw
[] 0 sd
0 slj
n 49.293177 22.300189 m 49.542361 22.800596 l 49.793176 22.301004 l ef
n 49.293177 22.300189 m 49.542361 22.800596 l 49.793176 22.301004 l cp s
0.100000 slw
[] 0 sd
0 slc
0.117647 0.564706 1.000000 srgb
n 49.588640 24.849608 m 49.651357 26.155973 l s
0.100000 slw
[] 0 sd
0 slj
n 49.401645 26.167962 m 49.675334 26.655398 l 49.901070 26.143985 l ef
n 49.401645 26.167962 m 49.675334 26.655398 l 49.901070 26.143985 l cp s
0.100000 slw
[] 0 sd
0 slj
0 slc
0.000000 0.501961 0.000000 srgb
n 56.067000 18.814900 m 56.250000 18.814900 l 56.250000 7.727500 l 50.238800 7.727500 l s
0.100000 slw
[] 0 sd
0 slj
n 50.238800 7.477500 m 49.738800 7.727500 l 50.238800 7.977500 l ef
n 50.238800 7.477500 m 49.738800 7.727500 l 50.238800 7.977500 l cp s
0.100000 slw
[] 0 sd
0 slj
0 slc
1.000000 0.000000 0.000000 srgb
n 42.677600 15.091200 m 43.700000 15.091200 l 43.700000 12.573900 l 38.914700 12.573900 l s
0.100000 slw
[] 0 sd
0 slj
n 38.914700 12.323900 m 38.414700 12.573900 l 38.914700 12.823900 l ef
n 38.914700 12.323900 m 38.414700 12.573900 l 38.914700 12.823900 l cp s
0.100000 slw
[0.200000] 0 sd
0 slc
1.000000 0.647059 0.000000 srgb
n 27.923833 9.328736 m 33.917014 7.710479 l s
0.100000 slw
[] 0 sd
0 slj
n 33.982184 7.951836 m 34.399727 7.580139 l 33.851844 7.469123 l ef
n 33.982184 7.951836 m 34.399727 7.580139 l 33.851844 7.469123 l cp s
0.100000 slw
[0.200000] 0 sd
0 slc
n 28.148681 9.894764 m 34.450300 10.179205 l s
0.100000 slw
[] 0 sd
0 slj
n 34.439027 10.428950 m 34.949792 10.201751 l 34.461573 9.929459 l ef
n 34.439027 10.428950 m 34.949792 10.201751 l 34.461573 9.929459 l cp s
0.100000 slw
[0.200000] 0 sd
0 slc
n 27.662476 15.686666 m 34.741244 17.980558 l s
0.100000 slw
[] 0 sd
0 slj
n 34.664177 18.218383 m 35.216894 18.134693 l 34.818312 17.742733 l ef
n 34.664177 18.218383 m 35.216894 18.134693 l 34.818312 17.742733 l cp s
0.100000 slw
[0.200000] 0 sd
0 slc
n 27.114082 19.289104 m 47.573247 6.934323 l s
0.100000 slw
[] 0 sd
0 slj
n 47.702480 7.148330 m 48.001260 6.675857 l 47.444014 6.720317 l ef
n 47.702480 7.148330 m 48.001260 6.675857 l 47.444014 6.720317 l cp s
0.100000 slw
[0.200000] 0 sd
0 slc
n 27.664346 14.991795 m 45.121673 13.891948 l s
0.100000 slw
[] 0 sd
0 slj
n 45.137392 14.141453 m 45.620684 13.860509 l 45.105954 13.642442 l ef
n 45.137392 14.141453 m 45.620684 13.860509 l 45.105954 13.642442 l cp s
0.100000 slw
[0.200000] 0 sd
0 slc
n 29.960741 16.755208 m 46.321267 10.988081 l s
0.100000 slw
[] 0 sd
0 slj
n 46.404380 11.223861 m 46.792827 10.821855 l 46.238154 10.752301 l ef
n 46.404380 11.223861 m 46.792827 10.821855 l 46.238154 10.752301 l cp s
showpage
