<?xml version="1.0" encoding="UTF-8" standalone="no"?>
<!DOCTYPE svg PUBLIC "-//W3C//DTD SVG 1.0//EN" "http://www.w3.org/TR/2001/PR-SVG-20010719/DTD/svg10.dtd">
<svg width="14cm" height="19cm" viewBox="395 145 268 375" xmlns="http://www.w3.org/2000/svg" xmlns:xlink="http://www.w3.org/1999/xlink">
  <g id="Background">
    <g>
      <path style="fill: #e6e6e6; fill-opacity: 1; stroke-opacity: 1; stroke-width: 2; stroke: #1e90ff" fill-rule="evenodd" d="M 598.439 486.361 C 598.439,478.361 598.439,478.361 607.196,478.361 C 615.953,478.361 615.953,478.361 624.711,478.361 C 633.468,478.361 633.468,478.361 633.468,486.361 C 633.468,486.361 659.739,486.361 659.739,486.361 C 659.739,486.361 659.739,518.361 659.739,518.361 C 659.739,518.361 598.439,518.361 598.439,518.361 C 598.439,518.361 598.439,494.361 598.439,486.361z"/>
      <path style="fill: none; stroke-opacity: 1; stroke-width: 0.2; stroke: #1e90ff" d="M 598.439 486.361 C 598.439,478.361 598.439,478.361 607.196,478.361 C 615.953,478.361 615.953,478.361 624.711,478.361 C 633.468,478.361 633.468,478.361 633.468,486.361 C 633.468,486.361 659.739,486.361 659.739,486.361 C 659.739,486.361 659.739,518.361 659.739,518.361 C 659.739,518.361 598.439,518.361 598.439,518.361 C 598.439,518.361 598.439,494.361 598.439,486.361"/>
      <polygon style="fill: #ffffff; fill-opacity: 1; stroke-opacity: 1; stroke-width: 2; stroke: #1e90ff" fill-rule="evenodd" points="598.439,518.361 589.682,490.361 650.982,490.361 659.739,518.361 "/>
      <polygon style="fill: none; stroke-opacity: 1; stroke-width: 0.2; stroke: #1e90ff" points="598.439,518.361 589.682,490.361 650.982,490.361 659.739,518.361 "/>
      <text font-size="12.7998" style="fill: #1e90ff; fill-opacity: 1; stroke: none;text-anchor:middle;font-family:sans-serif;font-style:normal;font-weight:normal" x="624.711" y="504.361">
        <tspan x="624.711" y="504.361">esp8266</tspan>
      </text>
    </g>
    <g>
      <path style="fill: #e6e6e6; fill-opacity: 1; stroke-opacity: 1; stroke-width: 2; stroke: #1e90ff" fill-rule="evenodd" d="M 486.136 432.75 C 486.136,419.25 486.136,419.25 495.757,419.25 C 505.379,419.25 505.379,419.25 515,419.25 C 524.621,419.25 524.621,419.25 524.621,432.75 C 524.621,432.75 553.486,432.75 553.486,432.75 C 553.486,432.75 553.486,486.75 553.486,486.75 C 553.486,486.75 486.136,486.75 486.136,486.75 C 486.136,486.75 486.136,446.25 486.136,432.75z"/>
      <path style="fill: none; stroke-opacity: 1; stroke-width: 0.2; stroke: #1e90ff" d="M 486.136 432.75 C 486.136,419.25 486.136,419.25 495.757,419.25 C 505.379,419.25 505.379,419.25 515,419.25 C 524.621,419.25 524.621,419.25 524.621,432.75 C 524.621,432.75 553.486,432.75 553.486,432.75 C 553.486,432.75 553.486,486.75 553.486,486.75 C 553.486,486.75 486.136,486.75 486.136,486.75 C 486.136,486.75 486.136,446.25 486.136,432.75"/>
      <polygon style="fill: #ffffff; fill-opacity: 1; stroke-opacity: 1; stroke-width: 2; stroke: #1e90ff" fill-rule="evenodd" points="486.136,486.75 476.514,439.5 543.864,439.5 553.486,486.75 "/>
      <polygon style="fill: none; stroke-opacity: 1; stroke-width: 0.2; stroke: #1e90ff" points="486.136,486.75 476.514,439.5 543.864,439.5 553.486,486.75 "/>
      <text font-size="12.7998" style="fill: #1e90ff; fill-opacity: 1; stroke: none;text-anchor:middle;font-family:sans-serif;font-style:normal;font-weight:normal" x="515" y="444.375">
        <tspan x="515" y="444.375"></tspan>
        <tspan x="515" y="460.375">nodeMCU</tspan>
        <tspan x="515" y="476.375">lua5.1</tspan>
      </text>
    </g>
    <g>
      <line style="fill: none; stroke-opacity: 1; stroke-width: 2; stroke: #1e90ff" x1="510.181" y1="145.796" x2="510.189" y2="440.5"/>
      <line style="fill: none; stroke-opacity: 1; stroke-width: 2; stroke: #1e90ff" x1="510.181" y1="169.296" x2="537.016" y2="169.295"/>
      <line style="fill: none; stroke-opacity: 1; stroke-width: 2; stroke: #1e90ff" x1="510.183" y1="214.03" x2="535.105" y2="214.029"/>
      <line style="fill: none; stroke-opacity: 1; stroke-width: 2; stroke: #1e90ff" x1="510.184" y1="259.3" x2="535.105" y2="259.299"/>
      <line style="fill: none; stroke-opacity: 1; stroke-width: 2; stroke: #1e90ff" x1="510.185" y1="304.57" x2="535.105" y2="304.569"/>
      <line style="fill: none; stroke-opacity: 1; stroke-width: 2; stroke: #1e90ff" x1="510.187" y1="351.457" x2="535.914" y2="351.456"/>
      <line style="fill: none; stroke-opacity: 1; stroke-width: 2; stroke: #1e90ff" x1="510.188" y1="402.385" x2="534.297" y2="402.385"/>
    </g>
    <g>
      <polygon style="fill: #ffffff; fill-opacity: 1; stroke-opacity: 1; stroke-width: 2; stroke: #1e90ff" fill-rule="evenodd" points="537.016,152.295 573.816,152.295 585.816,164.295 585.816,186.295 537.016,186.295 "/>
      <polyline style="fill: none; stroke-opacity: 1; stroke-width: 1; stroke: #1e90ff" points="573.816,152.295 573.816,164.295 585.816,164.295 "/>
      <text font-size="12.7998" style="fill: #1e90ff; fill-opacity: 1; stroke: none;text-anchor:start;font-family:monospace;font-style:normal;font-weight:normal" x="544.016" y="177.195">
        <tspan x="544.016" y="177.195">WiFi</tspan>
      </text>
    </g>
    <g>
      <polygon style="fill: #ffffff; fill-opacity: 1; stroke-opacity: 1; stroke-width: 2; stroke: #1e90ff" fill-rule="evenodd" points="535.105,197.029 602.755,197.029 614.755,209.029 614.755,231.029 535.105,231.029 "/>
      <polyline style="fill: none; stroke-opacity: 1; stroke-width: 1; stroke: #1e90ff" points="602.755,197.029 602.755,209.029 614.755,209.029 "/>
      <text font-size="12.7998" style="fill: #1e90ff; fill-opacity: 1; stroke: none;text-anchor:start;font-family:monospace;font-style:normal;font-weight:normal" x="542.105" y="221.929">
        <tspan x="542.105" y="221.929">i2C.slow</tspan>
      </text>
    </g>
    <g>
      <polygon style="fill: #ffffff; fill-opacity: 1; stroke-opacity: 1; stroke-width: 2; stroke: #1e90ff" fill-rule="evenodd" points="535.105,242.299 571.905,242.299 583.905,254.299 583.905,276.299 535.105,276.299 "/>
      <polyline style="fill: none; stroke-opacity: 1; stroke-width: 1; stroke: #1e90ff" points="571.905,242.299 571.905,254.299 583.905,254.299 "/>
      <text font-size="12.7998" style="fill: #1e90ff; fill-opacity: 1; stroke: none;text-anchor:start;font-family:monospace;font-style:normal;font-weight:normal" x="542.105" y="267.199">
        <tspan x="542.105" y="267.199">ADC0</tspan>
      </text>
    </g>
    <g>
      <polygon style="fill: #ffffff; fill-opacity: 1; stroke-opacity: 1; stroke-width: 2; stroke: #1e90ff" fill-rule="evenodd" points="535.105,287.569 571.905,287.569 583.905,299.569 583.905,321.569 535.105,321.569 "/>
      <polyline style="fill: none; stroke-opacity: 1; stroke-width: 1; stroke: #1e90ff" points="571.905,287.569 571.905,299.569 583.905,299.569 "/>
      <text font-size="12.7998" style="fill: #1e90ff; fill-opacity: 1; stroke: none;text-anchor:start;font-family:monospace;font-style:normal;font-weight:normal" x="542.105" y="312.469">
        <tspan x="542.105" y="312.469">mDNS</tspan>
      </text>
    </g>
    <g>
      <polygon style="fill: #ffffff; fill-opacity: 1; stroke-opacity: 1; stroke-width: 2; stroke: #1e90ff" fill-rule="evenodd" points="535.914,334.456 572.714,334.456 584.714,346.456 584.714,368.456 535.914,368.456 "/>
      <polyline style="fill: none; stroke-opacity: 1; stroke-width: 1; stroke: #1e90ff" points="572.714,334.456 572.714,346.456 584.714,346.456 "/>
      <text font-size="12.7998" style="fill: #1e90ff; fill-opacity: 1; stroke: none;text-anchor:start;font-family:monospace;font-style:normal;font-weight:normal" x="542.914" y="359.356">
        <tspan x="542.914" y="359.356">MQTT</tspan>
      </text>
    </g>
    <g>
      <polygon style="fill: #ffffff; fill-opacity: 1; stroke-opacity: 1; stroke-width: 2; stroke: #1e90ff" fill-rule="evenodd" points="534.297,385.385 594.197,385.385 606.197,397.385 606.197,419.385 534.297,419.385 "/>
      <polyline style="fill: none; stroke-opacity: 1; stroke-width: 1; stroke: #1e90ff" points="594.197,385.385 594.197,397.385 606.197,397.385 "/>
      <text font-size="12.7998" style="fill: #1e90ff; fill-opacity: 1; stroke: none;text-anchor:start;font-family:monospace;font-style:normal;font-weight:normal" x="541.297" y="410.285">
        <tspan x="541.297" y="410.285">TCP_s/c</tspan>
      </text>
    </g>
    <g>
      <line style="fill: none; stroke-opacity: 1; stroke-width: 2; stroke: #1e90ff" x1="554.487" y1="477.614" x2="578.921" y2="486.676"/>
      <polygon style="fill: #1e90ff; fill-opacity: 1; stroke-opacity: 1; stroke-width: 2; stroke: #1e90ff" fill-rule="evenodd" points="577.183,491.364 588.297,490.154 580.66,481.988 "/>
    </g>
    <g>
      <polygon style="fill: #ffffff; fill-opacity: 1; stroke-opacity: 1; stroke-width: 2; stroke: #1e90ff" fill-rule="evenodd" points="396.062,371.44 463.662,371.44 475.662,383.44 475.662,405.44 396.062,405.44 "/>
      <polyline style="fill: none; stroke-opacity: 1; stroke-width: 1; stroke: #1e90ff" points="463.662,371.44 463.662,383.44 475.662,383.44 "/>
      <text font-size="12.7998" style="fill: #1e90ff; fill-opacity: 1; stroke: none;text-anchor:start;font-family:monospace;font-style:normal;font-weight:normal" x="403.062" y="396.34">
        <tspan x="403.062" y="396.34">init.lua</tspan>
      </text>
    </g>
    <g>
      <line style="fill: none; stroke-opacity: 1; stroke-width: 2; stroke: #1e90ff" x1="454.605" y1="405.434" x2="476.984" y2="425.725"/>
      <polygon style="fill: #1e90ff; fill-opacity: 1; stroke-opacity: 1; stroke-width: 2; stroke: #1e90ff" fill-rule="evenodd" points="473.626,429.429 484.393,432.442 480.343,422.021 "/>
    </g>
  </g>
</svg>
