<?xml version="1.0" encoding="UTF-8" standalone="no"?>
<!DOCTYPE svg PUBLIC "-//W3C//DTD SVG 1.0//EN" "http://www.w3.org/TR/2001/PR-SVG-20010719/DTD/svg10.dtd">
<svg width="36cm" height="23cm" viewBox="129 97 708 456" xmlns="http://www.w3.org/2000/svg" xmlns:xlink="http://www.w3.org/1999/xlink">
  <g id="Background">
    <g>
      <path style="fill: #ffffff; fill-opacity: 1; stroke-opacity: 1; stroke-width: 2; stroke: #1e90ff" fill-rule="evenodd" d="M 227.111 103.973 L 272.661,103.973 C 278.95,103.973 284.048,112.927 284.048,123.973 C 284.048,135.019 278.95,143.973 272.661,143.973 L 227.111,143.973 C 220.821,143.973 215.723,135.019 215.723,123.973 C 215.723,112.927 220.821,103.973 227.111,103.973z"/>
      <text font-size="12.7998" style="fill: #1e90ff; fill-opacity: 1; stroke: none;text-anchor:middle;font-family:sans-serif;font-style:normal;font-weight:normal" x="249.886" y="127.973">
        <tspan x="249.886" y="127.973">START</tspan>
      </text>
    </g>
    <g>
      <path style="fill: #ffffff; fill-opacity: 1; stroke-opacity: 1; stroke-width: 2; stroke: #1e90ff" fill-rule="evenodd" d="M 229.538 470.316 L 275.088,470.316 C 281.377,470.316 286.476,479.271 286.476,490.316 C 286.476,501.362 281.377,510.316 275.088,510.316 L 229.538,510.316 C 223.249,510.316 218.151,501.362 218.151,490.316 C 218.151,479.271 223.249,470.316 229.538,470.316z"/>
      <text font-size="12.7998" style="fill: #1e90ff; fill-opacity: 1; stroke: none;text-anchor:middle;font-family:sans-serif;font-style:normal;font-weight:normal" x="252.313" y="494.316">
        <tspan x="252.313" y="494.316">END</tspan>
      </text>
    </g>
    <g>
      <rect style="fill: #ffffff; fill-opacity: 1; stroke-opacity: 1; stroke-width: 2; stroke: #1e90ff" x="132.611" y="172.973" width="238.55" height="38" rx="0" ry="0"/>
      <text font-size="12.7998" style="fill: #1e90ff; fill-opacity: 1; stroke: none;text-anchor:middle;font-family:sans-serif;font-style:normal;font-weight:normal" x="251.886" y="195.873">
        <tspan x="251.886" y="195.873">Leer chip_id relacionado endpoint</tspan>
      </text>
    </g>
    <g>
      <rect style="fill: #ffffff; fill-opacity: 1; stroke-opacity: 1; stroke-width: 2; stroke: #1e90ff" x="130.486" y="238.973" width="244.8" height="38" rx="0" ry="0"/>
      <text font-size="12.7998" style="fill: #1e90ff; fill-opacity: 1; stroke: none;text-anchor:middle;font-family:sans-serif;font-style:normal;font-weight:normal" x="252.886" y="261.873">
        <tspan x="252.886" y="261.873">Leer configuración según endpoint</tspan>
      </text>
    </g>
    <g>
      <rect style="fill: #ffffff; fill-opacity: 1; stroke-opacity: 1; stroke-width: 2; stroke: #1e90ff" x="144.061" y="309.973" width="221.65" height="54" rx="0" ry="0"/>
      <text font-size="12.7998" style="fill: #1e90ff; fill-opacity: 1; stroke: none;text-anchor:middle;font-family:sans-serif;font-style:normal;font-weight:normal" x="254.886" y="332.873">
        <tspan x="254.886" y="332.873">Crear archivo de configuración</tspan>
        <tspan x="254.886" y="348.873">para ese endpoint</tspan>
      </text>
    </g>
    <g>
      <rect style="fill: #ffffff; fill-opacity: 1; stroke-opacity: 1; stroke-width: 2; stroke: #1e90ff" x="182.336" y="386.973" width="139.1" height="54" rx="0" ry="0"/>
      <text font-size="12.7998" style="fill: #1e90ff; fill-opacity: 1; stroke: none;text-anchor:middle;font-family:sans-serif;font-style:normal;font-weight:normal" x="251.886" y="409.873">
        <tspan x="251.886" y="409.873">Subir los scripts al</tspan>
        <tspan x="251.886" y="425.873">nodemcu</tspan>
      </text>
    </g>
    <g>
      <line style="fill: none; stroke-opacity: 1; stroke-width: 2; stroke: #1e90ff" x1="250.503" y1="144.974" x2="250.974" y2="160.981"/>
      <polygon style="fill: #1e90ff; fill-opacity: 1; stroke-opacity: 1; stroke-width: 2; stroke: #1e90ff" fill-rule="evenodd" points="245.976,161.128 251.268,170.977 255.972,160.834 "/>
    </g>
    <g>
      <line style="fill: none; stroke-opacity: 1; stroke-width: 2; stroke: #1e90ff" x1="252.189" y1="211.97" x2="252.416" y2="226.978"/>
      <polygon style="fill: #1e90ff; fill-opacity: 1; stroke-opacity: 1; stroke-width: 2; stroke: #1e90ff" fill-rule="evenodd" points="247.417,227.054 252.567,236.977 257.415,226.902 "/>
    </g>
    <g>
      <line style="fill: none; stroke-opacity: 1; stroke-width: 2; stroke: #1e90ff" x1="253.392" y1="277.964" x2="253.899" y2="298.01"/>
      <polygon style="fill: #1e90ff; fill-opacity: 1; stroke-opacity: 1; stroke-width: 2; stroke: #1e90ff" fill-rule="evenodd" points="248.901,298.137 254.152,308.007 258.898,297.884 "/>
    </g>
    <g>
      <line style="fill: none; stroke-opacity: 1; stroke-width: 2; stroke: #1e90ff" x1="253.795" y1="364.965" x2="253.404" y2="374.99"/>
      <polygon style="fill: #1e90ff; fill-opacity: 1; stroke-opacity: 1; stroke-width: 2; stroke: #1e90ff" fill-rule="evenodd" points="248.408,374.795 253.015,384.982 258.401,375.185 "/>
    </g>
    <g>
      <line style="fill: none; stroke-opacity: 1; stroke-width: 2; stroke: #1e90ff" x1="252.042" y1="441.977" x2="252.134" y2="458.32"/>
      <polygon style="fill: #1e90ff; fill-opacity: 1; stroke-opacity: 1; stroke-width: 2; stroke: #1e90ff" fill-rule="evenodd" points="247.134,458.348 252.19,468.32 257.134,458.292 "/>
    </g>
    <g>
      <path style="fill: #ffffff; fill-opacity: 1; stroke-opacity: 1; stroke-width: 2; stroke: #1e90ff" fill-rule="evenodd" d="M 509.357 99.7386 L 617.007,99.7386 C 631.87,99.7386 643.919,108.693 643.919,119.739 C 643.919,130.784 631.87,139.739 617.007,139.739 L 509.357,139.739 C 494.494,139.739 482.444,130.784 482.444,119.739 C 482.444,108.693 494.494,99.7386 509.357,99.7386z"/>
      <text font-size="12.7998" style="fill: #1e90ff; fill-opacity: 1; stroke: none;text-anchor:middle;font-family:sans-serif;font-style:normal;font-weight:normal" x="563.182" y="115.739">
        <tspan x="563.182" y="115.739">Subir los scripts</tspan>
        <tspan x="563.182" y="131.739">al nodemcu</tspan>
      </text>
    </g>
    <g>
      <path style="fill: #ffffff; fill-opacity: 1; stroke-opacity: 1; stroke-width: 2; stroke: #1e90ff" fill-rule="evenodd" d="M 579.665 511.328 L 625.215,511.328 C 631.504,511.328 636.602,520.282 636.602,531.328 C 636.602,542.373 631.504,551.328 625.215,551.328 L 579.665,551.328 C 573.376,551.328 568.277,542.373 568.277,531.328 C 568.277,520.282 573.376,511.328 579.665,511.328z"/>
      <text font-size="12.7998" style="fill: #1e90ff; fill-opacity: 1; stroke: none;text-anchor:middle;font-family:sans-serif;font-style:normal;font-weight:normal" x="602.44" y="535.328">
        <tspan x="602.44" y="535.328">END</tspan>
      </text>
    </g>
    <g>
      <rect style="fill: #ffffff; fill-opacity: 1; stroke-opacity: 1; stroke-width: 2; stroke: #1e90ff" x="493.857" y="159.741" width="138.65" height="38" rx="0" ry="0"/>
      <text font-size="12.7998" style="fill: #1e90ff; fill-opacity: 1; stroke: none;text-anchor:middle;font-family:sans-serif;font-style:normal;font-weight:normal" x="563.182" y="182.641">
        <tspan x="563.182" y="182.641">seleccionar medio</tspan>
      </text>
    </g>
    <g>
      <polygon style="fill: #ffffff; fill-opacity: 1; stroke-opacity: 1; stroke-width: 2; stroke: #1e90ff" fill-rule="evenodd" points="563.182,218.89 638.295,248.132 563.182,277.374 488.069,248.132 "/>
      <text font-size="12.7998" style="fill: #1e90ff; fill-opacity: 1; stroke: none;text-anchor:middle;font-family:sans-serif;font-style:normal;font-weight:normal" x="563.182" y="252.032">
        <tspan x="563.182" y="252.032">medio</tspan>
      </text>
    </g>
    <g>
      <line style="fill: none; stroke-opacity: 1; stroke-width: 2; stroke: #1e90ff" x1="563.182" y1="140.716" x2="563.182" y2="148.741"/>
      <polygon style="fill: #1e90ff; fill-opacity: 1; stroke-opacity: 1; stroke-width: 2; stroke: #1e90ff" fill-rule="evenodd" points="558.182,148.741 563.182,158.741 568.182,148.741 "/>
    </g>
    <g>
      <line style="fill: none; stroke-opacity: 1; stroke-width: 2; stroke: #1e90ff" x1="563.182" y1="197.741" x2="563.182" y2="207.89"/>
      <polygon style="fill: #1e90ff; fill-opacity: 1; stroke-opacity: 1; stroke-width: 2; stroke: #1e90ff" fill-rule="evenodd" points="558.182,207.89 563.182,217.89 568.182,207.89 "/>
    </g>
    <g>
      <rect style="fill: #ffffff; fill-opacity: 1; stroke-opacity: 1; stroke-width: 2; stroke: #1e90ff" x="640.176" y="287.197" width="178.8" height="54" rx="0" ry="0"/>
      <text font-size="12.7998" style="fill: #1e90ff; fill-opacity: 1; stroke: none;text-anchor:middle;font-family:sans-serif;font-style:normal;font-weight:normal" x="729.576" y="310.097">
        <tspan x="729.576" y="310.097">Conectarse a TCP server</tspan>
        <tspan x="729.576" y="326.097">en nodemcu</tspan>
      </text>
    </g>
    <g>
      <rect style="fill: #ffffff; fill-opacity: 1; stroke-opacity: 1; stroke-width: 2; stroke: #1e90ff" x="640.468" y="361.838" width="182.3" height="54" rx="0" ry="0"/>
      <text font-size="12.7998" style="fill: #1e90ff; fill-opacity: 1; stroke: none;text-anchor:middle;font-family:sans-serif;font-style:normal;font-weight:normal" x="731.618" y="384.738">
        <tspan x="731.618" y="384.738">Escribir cada script</tspan>
        <tspan x="731.618" y="400.738">en el sistema de ficheros</tspan>
      </text>
    </g>
    <g>
      <rect style="fill: #ffffff; fill-opacity: 1; stroke-opacity: 1; stroke-width: 2; stroke: #1e90ff" x="643.163" y="435.945" width="193.25" height="38" rx="0" ry="0"/>
      <text font-size="12.7998" style="fill: #1e90ff; fill-opacity: 1; stroke: none;text-anchor:middle;font-family:sans-serif;font-style:normal;font-weight:normal" x="739.788" y="458.845">
        <tspan x="739.788" y="458.845">Solicitar reiniciar nodemcu</tspan>
      </text>
    </g>
    <g>
      <rect style="fill: #ffffff; fill-opacity: 1; stroke-opacity: 1; stroke-width: 2; stroke: #1e90ff" x="437.364" y="337.738" width="168.35" height="54" rx="0" ry="0"/>
      <text font-size="12.7998" style="fill: #1e90ff; fill-opacity: 1; stroke: none;text-anchor:middle;font-family:sans-serif;font-style:normal;font-weight:normal" x="521.539" y="360.638">
        <tspan x="521.539" y="360.638">Transferir scripts</tspan>
        <tspan x="521.539" y="376.638">por nodemcu-uploader</tspan>
      </text>
    </g>
    <g>
      <rect style="fill: #ffffff; fill-opacity: 1; stroke-opacity: 1; stroke-width: 2; stroke: #1e90ff" x="452.366" y="427.915" width="137.4" height="38" rx="0" ry="0"/>
      <text font-size="12.7998" style="fill: #1e90ff; fill-opacity: 1; stroke: none;text-anchor:middle;font-family:sans-serif;font-style:normal;font-weight:normal" x="521.066" y="450.815">
        <tspan x="521.066" y="450.815">reiniciar nodemcu</tspan>
      </text>
    </g>
    <g>
      <line style="fill: none; stroke-opacity: 1; stroke-width: 2; stroke: #1e90ff" x1="703.824" y1="474.945" x2="642.286" y2="509.168"/>
      <polygon style="fill: #1e90ff; fill-opacity: 1; stroke-opacity: 1; stroke-width: 2; stroke: #1e90ff" fill-rule="evenodd" points="639.856,504.799 633.547,514.028 644.716,513.538 "/>
    </g>
    <g>
      <line style="fill: none; stroke-opacity: 1; stroke-width: 2; stroke: #1e90ff" x1="540.346" y1="466.916" x2="574.571" y2="502.418"/>
      <polygon style="fill: #1e90ff; fill-opacity: 1; stroke-opacity: 1; stroke-width: 2; stroke: #1e90ff" fill-rule="evenodd" points="570.972,505.888 581.512,509.618 578.171,498.948 "/>
    </g>
    <g>
      <line style="fill: none; stroke-opacity: 1; stroke-width: 2; stroke: #1e90ff" x1="735.073" y1="416.792" x2="735.973" y2="424.08"/>
      <polygon style="fill: #1e90ff; fill-opacity: 1; stroke-opacity: 1; stroke-width: 2; stroke: #1e90ff" fill-rule="evenodd" points="731.011,424.693 737.2,434.005 740.936,423.467 "/>
    </g>
    <g>
      <line style="fill: none; stroke-opacity: 1; stroke-width: 2; stroke: #1e90ff" x1="730.342" y1="342.196" x2="730.551" y2="349.842"/>
      <polygon style="fill: #1e90ff; fill-opacity: 1; stroke-opacity: 1; stroke-width: 2; stroke: #1e90ff" fill-rule="evenodd" points="725.553,349.979 730.825,359.839 735.55,349.706 "/>
    </g>
    <g>
      <line style="fill: none; stroke-opacity: 1; stroke-width: 2; stroke: #1e90ff" x1="521.378" y1="392.705" x2="521.244" y2="415.923"/>
      <polygon style="fill: #1e90ff; fill-opacity: 1; stroke-opacity: 1; stroke-width: 2; stroke: #1e90ff" fill-rule="evenodd" points="516.244,415.894 521.187,425.922 526.244,415.951 "/>
    </g>
    <g>
      <polyline style="fill: none; stroke-opacity: 1; stroke-width: 2; stroke: #1e90ff" points="638.295,248.132 729.576,248.132 729.576,275.19 "/>
      <polygon style="fill: #1e90ff; fill-opacity: 1; stroke-opacity: 1; stroke-width: 2; stroke: #1e90ff" fill-rule="evenodd" points="724.576,275.19 729.576,285.19 734.576,275.19 "/>
    </g>
    <text font-size="12.7998" style="fill: #1e90ff; fill-opacity: 1; stroke: none;text-anchor:start;font-family:sans-serif;font-style:normal;font-weight:normal" x="665.938" y="236.055">
      <tspan x="665.938" y="236.055">WIFI</tspan>
    </text>
    <g>
      <line style="fill: none; stroke-opacity: 1; stroke-width: 2; stroke: #1e90ff" x1="563.182" y1="277.374" x2="563.546" y2="326.738"/>
      <polygon style="fill: #1e90ff; fill-opacity: 1; stroke-opacity: 1; stroke-width: 2; stroke: #1e90ff" fill-rule="evenodd" points="558.546,326.775 563.62,336.738 568.546,326.701 "/>
    </g>
    <text font-size="12.7998" style="fill: #1e90ff; fill-opacity: 1; stroke: none;text-anchor:start;font-family:sans-serif;font-style:normal;font-weight:normal" x="503.298" y="307.265">
      <tspan x="503.298" y="307.265">UART</tspan>
    </text>
    <g>
      <line style="fill: none; stroke-opacity: 1; stroke-width: 2; stroke-dasharray: 4; stroke: #ffa500" x1="281.45" y1="386.029" x2="532.977" y2="148.288"/>
      <polygon style="fill: #ffa500; fill-opacity: 1; stroke-opacity: 1; stroke-width: 2; stroke: #ffa500" fill-rule="evenodd" points="536.411,151.922 540.244,141.419 529.542,144.655 "/>
    </g>
  </g>
</svg>
