%!PS-Adobe-2.0 EPSF-2.0
%%Title: /home/johnny/projects/sensor-network-iot/dev/sensor-network-iot/docs/mkdocs/docs/img/esquemaGeneralDemo1.dia
%%Creator: Dia v0.97+git
%%CreationDate: Thu Sep 12 15:25:53 2019
%%For: johnny
%%Orientation: Portrait
%%Magnification: 1.0000
%%BoundingBox: 0 0 849 441
%%BeginSetup
%%EndSetup
%%EndComments
%%BeginProlog
[ /.notdef /.notdef /.notdef /.notdef /.notdef /.notdef /.notdef /.notdef /.notdef /.notdef
/.notdef /.notdef /.notdef /.notdef /.notdef /.notdef /.notdef /.notdef /.notdef /.notdef
/.notdef /.notdef /.notdef /.notdef /.notdef /.notdef /.notdef /.notdef /.notdef /.notdef
/.notdef /.notdef /space /exclam /quotedbl /numbersign /dollar /percent /ampersand /quoteright
/parenleft /parenright /asterisk /plus /comma /hyphen /period /slash /zero /one
/two /three /four /five /six /seven /eight /nine /colon /semicolon
/less /equal /greater /question /at /A /B /C /D /E
/F /G /H /I /J /K /L /M /N /O
/P /Q /R /S /T /U /V /W /X /Y
/Z /bracketleft /backslash /bracketright /asciicircum /underscore /quoteleft /a /b /c
/d /e /f /g /h /i /j /k /l /m
/n /o /p /q /r /s /t /u /v /w
/x /y /z /braceleft /bar /braceright /asciitilde /.notdef /.notdef /.notdef
/.notdef /.notdef /.notdef /.notdef /.notdef /.notdef /.notdef /.notdef /.notdef /.notdef
/.notdef /.notdef /.notdef /.notdef /.notdef /.notdef /.notdef /.notdef /.notdef /.notdef
/.notdef /.notdef /.notdef /.notdef /.notdef /.notdef /.notdef /.notdef /.notdef /.notdef
/space /exclamdown /cent /sterling /currency /yen /brokenbar /section /dieresis /copyright
/ordfeminine /guillemotleft /logicalnot /hyphen /registered /macron /degree /plusminus /twosuperior /threesuperior
/acute /mu /paragraph /periodcentered /cedilla /onesuperior /ordmasculine /guillemotright /onequarter /onehalf
/threequarters /questiondown /Agrave /Aacute /Acircumflex /Atilde /Adieresis /Aring /AE /Ccedilla
/Egrave /Eacute /Ecircumflex /Edieresis /Igrave /Iacute /Icircumflex /Idieresis /Eth /Ntilde
/Ograve /Oacute /Ocircumflex /Otilde /Odieresis /multiply /Oslash /Ugrave /Uacute /Ucircumflex
/Udieresis /Yacute /Thorn /germandbls /agrave /aacute /acircumflex /atilde /adieresis /aring
/ae /ccedilla /egrave /eacute /ecircumflex /edieresis /igrave /iacute /icircumflex /idieresis
/eth /ntilde /ograve /oacute /ocircumflex /otilde /odieresis /divide /oslash /ugrave
/uacute /ucircumflex /udieresis /yacute /thorn /ydieresis] /isolatin1encoding exch def
/cp {closepath} bind def
/c {curveto} bind def
/f {fill} bind def
/a {arc} bind def
/ef {eofill} bind def
/ex {exch} bind def
/gr {grestore} bind def
/gs {gsave} bind def
/sa {save} bind def
/rs {restore} bind def
/l {lineto} bind def
/m {moveto} bind def
/rm {rmoveto} bind def
/n {newpath} bind def
/s {stroke} bind def
/sh {show} bind def
/slc {setlinecap} bind def
/slj {setlinejoin} bind def
/slw {setlinewidth} bind def
/srgb {setrgbcolor} bind def
/rot {rotate} bind def
/sc {scale} bind def
/sd {setdash} bind def
/ff {findfont} bind def
/sf {setfont} bind def
/scf {scalefont} bind def
/sw {stringwidth pop} bind def
/tr {translate} bind def

/ellipsedict 8 dict def
ellipsedict /mtrx matrix put
/ellipse
{ ellipsedict begin
   /endangle exch def
   /startangle exch def
   /yrad exch def
   /xrad exch def
   /y exch def
   /x exch def   /savematrix mtrx currentmatrix def
   x y tr xrad yrad sc
   0 0 1 startangle endangle arc
   savematrix setmatrix
   end
} def

/mergeprocs {
dup length
3 -1 roll
dup
length
dup
5 1 roll
3 -1 roll
add
array cvx
dup
3 -1 roll
0 exch
putinterval
dup
4 2 roll
putinterval
} bind def
/dpi_x 300 def
/dpi_y 300 def
/conicto {
    /to_y exch def
    /to_x exch def
    /conic_cntrl_y exch def
    /conic_cntrl_x exch def
    currentpoint
    /p0_y exch def
    /p0_x exch def
    /p1_x p0_x conic_cntrl_x p0_x sub 2 3 div mul add def
    /p1_y p0_y conic_cntrl_y p0_y sub 2 3 div mul add def
    /p2_x p1_x to_x p0_x sub 1 3 div mul add def
    /p2_y p1_y to_y p0_y sub 1 3 div mul add def
    p1_x p1_y p2_x p2_y to_x to_y curveto
} bind def
/start_ol { gsave 1.1 dpi_x div dup scale} bind def
/end_ol { closepath fill grestore } bind def
28.346000 -28.346000 scale
-3.252480 -22.049400 translate
%%EndProlog


0.100000 slw
[] 0 sd
0 slj
1.000000 1.000000 1.000000 srgb
n 9.427500 14.600000 m 15.472500 14.600000 l 15.472500 16.500000 l 9.427500 16.500000 l ef
0.117647 0.564706 1.000000 srgb
n 9.427500 14.600000 m 15.472500 14.600000 l 15.472500 16.500000 l 9.427500 16.500000 l cp s
gsave 9.977500 15.745000 translate 0.035278 -0.035278 scale
start_ol
2734 1480 moveto
2734 1280 lineto
724 1280 lineto
753 811 996 565 conicto
1240 320 1674 320 conicto
1926 320 2162 384 conicto
2399 448 2632 576 conicto
2632 192 lineto
2397 67 2150 1 conicto
1903 -64 1648 -64 conicto
1012 -64 640 309 conicto
268 683 268 1320 conicto
268 1979 621 2365 conicto
974 2752 1572 2752 conicto
2109 2752 2421 2410 conicto
2734 2068 2734 1480 conicto
2297 1600 moveto
2292 1950 2096 2159 conicto
1900 2368 1577 2368 conicto
1212 2368 992 2166 conicto
772 1964 739 1597 conicto
2297 1600 lineto
end_ol grestore 
gsave 10.372126 15.745000 translate 0.035278 -0.035278 scale
start_ol
2154 2560 moveto
2154 2176 lineto
1969 2272 1769 2320 conicto
1570 2368 1356 2368 conicto
1030 2368 867 2269 conicto
705 2170 705 1972 conicto
705 1821 821 1735 conicto
938 1649 1290 1571 conicto
1439 1538 lineto
1905 1438 2101 1255 conicto
2297 1072 2297 744 conicto
2297 371 2003 153 conicto
1710 -64 1197 -64 conicto
984 -64 752 -16 conicto
521 32 264 128 conicto
264 576 lineto
506 448 741 384 conicto
976 320 1207 320 conicto
1516 320 1682 425 conicto
1848 531 1848 722 conicto
1848 900 1728 994 conicto
1608 1089 1202 1177 conicto
1050 1212 lineto
644 1298 463 1476 conicto
283 1654 283 1964 conicto
283 2341 549 2546 conicto
815 2752 1304 2752 conicto
1546 2752 1760 2704 conicto
1974 2656 2154 2560 conicto
end_ol grestore 
gsave 10.704310 15.745000 translate 0.035278 -0.035278 scale
start_ol
881 384 moveto
881 -1024 lineto
442 -1024 lineto
442 2688 lineto
881 2688 lineto
881 2304 lineto
1019 2531 1229 2641 conicto
1439 2752 1732 2752 conicto
2216 2752 2519 2364 conicto
2822 1976 2822 1344 conicto
2822 712 2519 324 conicto
2216 -64 1732 -64 conicto
1439 -64 1229 46 conicto
1019 157 881 384 conicto
2368 1344 moveto
2368 1823 2169 2095 conicto
1971 2368 1624 2368 conicto
1278 2368 1079 2095 conicto
881 1823 881 1344 conicto
881 865 1079 592 conicto
1278 320 1624 320 conicto
1971 320 2169 592 conicto
2368 865 2368 1344 conicto
end_ol grestore 
gsave 11.111430 15.745000 translate 0.035278 -0.035278 scale
start_ol
1546 1664 moveto
1204 1664 1008 1485 conicto
812 1306 812 992 conicto
812 678 1008 499 conicto
1204 320 1546 320 conicto
1888 320 2085 500 conicto
2282 680 2282 992 conicto
2282 1306 2086 1485 conicto
1890 1664 1546 1664 conicto
1066 1872 moveto
757 1948 585 2158 conicto
413 2368 413 2670 conicto
413 3093 716 3338 conicto
1019 3584 1546 3584 conicto
2076 3584 2377 3338 conicto
2679 3093 2679 2670 conicto
2679 2368 2506 2158 conicto
2334 1948 2028 1872 conicto
2375 1792 2568 1559 conicto
2762 1327 2762 991 conicto
2762 481 2447 208 conicto
2133 -64 1546 -64 conicto
959 -64 644 208 conicto
330 481 330 991 conicto
330 1327 524 1559 conicto
719 1792 1066 1872 conicto
891 2624 moveto
891 2352 1063 2200 conicto
1235 2048 1546 2048 conicto
1855 2048 2029 2200 conicto
2204 2352 2204 2624 conicto
2204 2896 2029 3048 conicto
1855 3200 1546 3200 conicto
1235 3200 1063 3048 conicto
891 2896 891 2624 conicto
end_ol grestore 
gsave 11.518549 15.745000 translate 0.035278 -0.035278 scale
start_ol
933 384 moveto
2608 384 lineto
2608 0 lineto
356 0 lineto
356 384 lineto
629 668 1100 1146 conicto
1572 1625 1694 1763 conicto
1924 2023 2015 2203 conicto
2107 2384 2107 2558 conicto
2107 2842 1908 3021 conicto
1710 3200 1392 3200 conicto
1166 3200 915 3104 conicto
665 3009 380 2816 conicto
380 3328 lineto
670 3455 921 3519 conicto
1173 3584 1382 3584 conicto
1933 3584 2261 3309 conicto
2589 3034 2589 2574 conicto
2589 2356 2507 2160 conicto
2425 1965 2209 1700 conicto
2149 1631 1831 1302 conicto
1513 974 933 384 conicto
end_ol grestore 
gsave 11.925668 15.745000 translate 0.035278 -0.035278 scale
start_ol
1605 1984 moveto
1283 1984 1094 1761 conicto
905 1539 905 1152 conicto
905 767 1094 543 conicto
1283 320 1605 320 conicto
1928 320 2117 543 conicto
2306 767 2306 1152 conicto
2306 1539 2117 1761 conicto
1928 1984 1605 1984 conicto
2558 3456 moveto
2558 3008 lineto
2377 3101 2193 3150 conicto
2009 3200 1829 3200 conicto
1354 3200 1103 2885 conicto
853 2571 817 1936 conicto
957 2145 1168 2256 conicto
1380 2368 1634 2368 conicto
2168 2368 2478 2041 conicto
2788 1715 2788 1152 conicto
2788 601 2465 268 conicto
2142 -64 1606 -64 conicto
991 -64 665 403 conicto
340 871 340 1759 conicto
340 2593 739 3088 conicto
1138 3584 1810 3584 conicto
1990 3584 2174 3552 conicto
2359 3520 2558 3456 conicto
end_ol grestore 
gsave 12.332788 15.745000 translate 0.035278 -0.035278 scale
start_ol
1605 1984 moveto
1283 1984 1094 1761 conicto
905 1539 905 1152 conicto
905 767 1094 543 conicto
1283 320 1605 320 conicto
1928 320 2117 543 conicto
2306 767 2306 1152 conicto
2306 1539 2117 1761 conicto
1928 1984 1605 1984 conicto
2558 3456 moveto
2558 3008 lineto
2377 3101 2193 3150 conicto
2009 3200 1829 3200 conicto
1354 3200 1103 2885 conicto
853 2571 817 1936 conicto
957 2145 1168 2256 conicto
1380 2368 1634 2368 conicto
2168 2368 2478 2041 conicto
2788 1715 2788 1152 conicto
2788 601 2465 268 conicto
2142 -64 1606 -64 conicto
991 -64 665 403 conicto
340 871 340 1759 conicto
340 2593 739 3088 conicto
1138 3584 1810 3584 conicto
1990 3584 2174 3552 conicto
2359 3520 2558 3456 conicto
end_ol grestore 
gsave 12.739907 15.745000 translate 0.035278 -0.035278 scale
start_ol
238 1536 moveto
1518 1536 lineto
1518 1152 lineto
238 1152 lineto
238 1536 lineto
end_ol grestore 
gsave 12.969689 15.745000 translate 0.035278 -0.035278 scale
start_ol
2734 1480 moveto
2734 1280 lineto
724 1280 lineto
753 811 996 565 conicto
1240 320 1674 320 conicto
1926 320 2162 384 conicto
2399 448 2632 576 conicto
2632 192 lineto
2397 67 2150 1 conicto
1903 -64 1648 -64 conicto
1012 -64 640 309 conicto
268 683 268 1320 conicto
268 1979 621 2365 conicto
974 2752 1572 2752 conicto
2109 2752 2421 2410 conicto
2734 2068 2734 1480 conicto
2297 1600 moveto
2292 1950 2096 2159 conicto
1900 2368 1577 2368 conicto
1212 2368 992 2166 conicto
772 1964 739 1597 conicto
2297 1600 lineto
end_ol grestore 
gsave 13.364315 15.745000 translate 0.035278 -0.035278 scale
start_ol
2154 2560 moveto
2154 2176 lineto
1969 2272 1769 2320 conicto
1570 2368 1356 2368 conicto
1030 2368 867 2269 conicto
705 2170 705 1972 conicto
705 1821 821 1735 conicto
938 1649 1290 1571 conicto
1439 1538 lineto
1905 1438 2101 1255 conicto
2297 1072 2297 744 conicto
2297 371 2003 153 conicto
1710 -64 1197 -64 conicto
984 -64 752 -16 conicto
521 32 264 128 conicto
264 576 lineto
506 448 741 384 conicto
976 320 1207 320 conicto
1516 320 1682 425 conicto
1848 531 1848 722 conicto
1848 900 1728 994 conicto
1608 1089 1202 1177 conicto
1050 1212 lineto
644 1298 463 1476 conicto
283 1654 283 1964 conicto
283 2341 549 2546 conicto
815 2752 1304 2752 conicto
1546 2752 1760 2704 conicto
1974 2656 2154 2560 conicto
end_ol grestore 
gsave 13.696500 15.745000 translate 0.035278 -0.035278 scale
start_ol
881 384 moveto
881 -1024 lineto
442 -1024 lineto
442 2688 lineto
881 2688 lineto
881 2304 lineto
1019 2531 1229 2641 conicto
1439 2752 1732 2752 conicto
2216 2752 2519 2364 conicto
2822 1976 2822 1344 conicto
2822 712 2519 324 conicto
2216 -64 1732 -64 conicto
1439 -64 1229 46 conicto
1019 157 881 384 conicto
2368 1344 moveto
2368 1823 2169 2095 conicto
1971 2368 1624 2368 conicto
1278 2368 1079 2095 conicto
881 1823 881 1344 conicto
881 865 1079 592 conicto
1278 320 1624 320 conicto
1971 320 2169 592 conicto
2368 865 2368 1344 conicto
end_ol grestore 
gsave 14.103619 15.745000 translate 0.035278 -0.035278 scale
start_ol
1546 3200 moveto
1176 3200 989 2840 conicto
803 2481 803 1759 conicto
803 1039 989 679 conicto
1176 320 1546 320 conicto
1919 320 2105 679 conicto
2292 1039 2292 1759 conicto
2292 2481 2105 2840 conicto
1919 3200 1546 3200 conicto
1547 3584 moveto
2143 3584 2457 3116 conicto
2772 2649 2772 1759 conicto
2772 871 2457 403 conicto
2143 -64 1547 -64 conicto
950 -64 635 403 conicto
321 871 321 1759 conicto
321 2649 635 3116 conicto
950 3584 1547 3584 conicto
end_ol grestore 
gsave 14.510739 15.745000 translate 0.035278 -0.035278 scale
start_ol
603 384 moveto
1387 384 lineto
1387 3136 lineto
534 2944 lineto
534 3328 lineto
1382 3520 lineto
1862 3520 lineto
1862 384 lineto
2646 384 lineto
2646 0 lineto
603 0 lineto
603 384 lineto
end_ol grestore 
0.100000 slw
[] 0 sd
0 slj
1.000000 1.000000 1.000000 srgb
n 3.548820 14.604300 m 6.846320 14.604300 l 6.846320 16.504300 l 3.548820 16.504300 l ef
0.117647 0.564706 1.000000 srgb
n 3.548820 14.604300 m 6.846320 14.604300 l 6.846320 16.504300 l 3.548820 16.504300 l cp s
gsave 4.098820 15.749300 translate 0.035278 -0.035278 scale
start_ol
2603 3392 moveto
2603 2944 lineto
2330 3073 2087 3136 conicto
1845 3200 1620 3200 conicto
1228 3200 1015 3052 conicto
803 2904 803 2631 conicto
803 2402 944 2285 conicto
1086 2169 1480 2097 conicto
1769 2039 lineto
2306 1937 2561 1678 conicto
2817 1420 2817 986 conicto
2817 469 2471 202 conicto
2126 -64 1458 -64 conicto
1207 -64 923 0 conicto
639 65 335 192 conicto
335 704 lineto
627 513 907 416 conicto
1188 320 1459 320 conicto
1869 320 2092 485 conicto
2316 650 2316 955 conicto
2316 1221 2155 1371 conicto
1995 1522 1629 1597 conicto
1337 1652 lineto
801 1756 561 1978 conicto
321 2201 321 2597 conicto
321 3056 652 3320 conicto
984 3584 1565 3584 conicto
1815 3584 2073 3536 conicto
2332 3488 2603 3392 conicto
end_ol grestore 
gsave 4.505939 15.749300 translate 0.035278 -0.035278 scale
start_ol
2734 1480 moveto
2734 1280 lineto
724 1280 lineto
753 811 996 565 conicto
1240 320 1674 320 conicto
1926 320 2162 384 conicto
2399 448 2632 576 conicto
2632 192 lineto
2397 67 2150 1 conicto
1903 -64 1648 -64 conicto
1012 -64 640 309 conicto
268 683 268 1320 conicto
268 1979 621 2365 conicto
974 2752 1572 2752 conicto
2109 2752 2421 2410 conicto
2734 2068 2734 1480 conicto
2297 1600 moveto
2292 1950 2096 2159 conicto
1900 2368 1577 2368 conicto
1212 2368 992 2166 conicto
772 1964 739 1597 conicto
2297 1600 lineto
end_ol grestore 
gsave 4.900565 15.749300 translate 0.035278 -0.035278 scale
start_ol
2670 1646 moveto
2670 0 lineto
2233 0 lineto
2233 1632 lineto
2233 2001 2085 2184 conicto
1938 2368 1644 2368 conicto
1290 2368 1085 2146 conicto
881 1925 881 1542 conicto
881 0 lineto
442 0 lineto
442 2688 lineto
881 2688 lineto
881 2304 lineto
1038 2529 1250 2640 conicto
1463 2752 1741 2752 conicto
2200 2752 2435 2471 conicto
2670 2191 2670 1646 conicto
end_ol grestore 
gsave 5.305179 15.749300 translate 0.035278 -0.035278 scale
start_ol
2154 2560 moveto
2154 2176 lineto
1969 2272 1769 2320 conicto
1570 2368 1356 2368 conicto
1030 2368 867 2269 conicto
705 2170 705 1972 conicto
705 1821 821 1735 conicto
938 1649 1290 1571 conicto
1439 1538 lineto
1905 1438 2101 1255 conicto
2297 1072 2297 744 conicto
2297 371 2003 153 conicto
1710 -64 1197 -64 conicto
984 -64 752 -16 conicto
521 32 264 128 conicto
264 576 lineto
506 448 741 384 conicto
976 320 1207 320 conicto
1516 320 1682 425 conicto
1848 531 1848 722 conicto
1848 900 1728 994 conicto
1608 1089 1202 1177 conicto
1050 1212 lineto
644 1298 463 1476 conicto
283 1654 283 1964 conicto
283 2341 549 2546 conicto
815 2752 1304 2752 conicto
1546 2752 1760 2704 conicto
1974 2656 2154 2560 conicto
end_ol grestore 
gsave 5.637364 15.749300 translate 0.035278 -0.035278 scale
start_ol
1489 2368 moveto
1138 2368 933 2094 conicto
729 1820 729 1344 conicto
729 868 932 594 conicto
1135 320 1489 320 conicto
1838 320 2042 595 conicto
2247 870 2247 1344 conicto
2247 1816 2042 2092 conicto
1838 2368 1489 2368 conicto
1489 2752 moveto
2059 2752 2384 2378 conicto
2710 2005 2710 1344 conicto
2710 685 2384 310 conicto
2059 -64 1489 -64 conicto
917 -64 592 310 conicto
268 685 268 1344 conicto
268 2005 592 2378 conicto
917 2752 1489 2752 conicto
end_ol grestore 
gsave 6.029493 15.749300 translate 0.035278 -0.035278 scale
start_ol
2000 2304 moveto
1926 2337 1839 2352 conicto
1753 2368 1648 2368 conicto
1278 2368 1079 2127 conicto
881 1887 881 1437 conicto
881 0 lineto
442 0 lineto
442 2688 lineto
881 2688 lineto
881 2304 lineto
1019 2531 1240 2641 conicto
1461 2752 1777 2752 conicto
1822 2752 1876 2752 conicto
1931 2752 1998 2752 conicto
2000 2304 lineto
end_ol grestore 
0.100000 slw
[] 0 sd
0 slc
n 6.896030 15.553293 m 8.827544 15.552148 l s
0.100000 slw
[] 0 sd
0 slj
n 8.827692 15.802148 m 9.327544 15.551851 l 8.827396 15.302148 l ef
n 8.827692 15.802148 m 9.327544 15.551851 l 8.827396 15.302148 l cp s
0.100000 slw
[] 0 sd
0 slj
1.000000 1.000000 1.000000 srgb
n 22.668800 16.950000 m 29.031300 16.950000 l 29.031300 18.850000 l 22.668800 18.850000 l ef
0.117647 0.564706 1.000000 srgb
n 22.668800 16.950000 m 29.031300 16.950000 l 29.031300 18.850000 l 22.668800 18.850000 l cp s
gsave 23.218800 18.095000 translate 0.035278 -0.035278 scale
start_ol
2159 1632 moveto
2313 1581 2459 1413 conicto
2606 1245 2753 952 conicto
3240 0 lineto
2724 0 lineto
2271 893 lineto
2095 1243 1930 1357 conicto
1765 1472 1480 1472 conicto
957 1472 lineto
957 0 lineto
477 0 lineto
477 3520 lineto
1560 3520 lineto
2168 3520 2467 3265 conicto
2767 3010 2767 2496 conicto
2767 2161 2611 1939 conicto
2456 1718 2159 1632 conicto
957 3136 moveto
957 1856 lineto
1560 1856 lineto
1907 1856 2084 2019 conicto
2261 2182 2261 2498 conicto
2261 2815 2084 2975 conicto
1907 3136 1560 3136 conicto
957 3136 lineto
end_ol grestore 
gsave 23.648392 18.095000 translate 0.035278 -0.035278 scale
start_ol
1667 1344 moveto
1137 1344 933 1225 conicto
729 1106 729 818 conicto
729 589 882 454 conicto
1035 320 1299 320 conicto
1663 320 1882 572 conicto
2102 825 2102 1244 conicto
2102 1344 lineto
1667 1344 lineto
2539 1513 moveto
2539 0 lineto
2102 0 lineto
2102 384 lineto
1952 154 1729 45 conicto
1506 -64 1183 -64 conicto
774 -64 533 162 conicto
292 389 292 769 conicto
292 1213 592 1438 conicto
893 1664 1489 1664 conicto
2102 1664 lineto
2102 1712 lineto
2102 2025 1903 2196 conicto
1705 2368 1347 2368 conicto
1119 2368 903 2320 conicto
687 2272 487 2176 conicto
487 2560 lineto
727 2656 952 2704 conicto
1178 2752 1392 2752 conicto
1969 2752 2254 2444 conicto
2539 2137 2539 1513 conicto
end_ol grestore 
gsave 24.040521 18.095000 translate 0.035278 -0.035278 scale
start_ol
2154 2560 moveto
2154 2176 lineto
1969 2272 1769 2320 conicto
1570 2368 1356 2368 conicto
1030 2368 867 2269 conicto
705 2170 705 1972 conicto
705 1821 821 1735 conicto
938 1649 1290 1571 conicto
1439 1538 lineto
1905 1438 2101 1255 conicto
2297 1072 2297 744 conicto
2297 371 2003 153 conicto
1710 -64 1197 -64 conicto
984 -64 752 -16 conicto
521 32 264 128 conicto
264 576 lineto
506 448 741 384 conicto
976 320 1207 320 conicto
1516 320 1682 425 conicto
1848 531 1848 722 conicto
1848 900 1728 994 conicto
1608 1089 1202 1177 conicto
1050 1212 lineto
644 1298 463 1476 conicto
283 1654 283 1964 conicto
283 2341 549 2546 conicto
815 2752 1304 2752 conicto
1546 2752 1760 2704 conicto
1974 2656 2154 2560 conicto
end_ol grestore 
gsave 24.372706 18.095000 translate 0.035278 -0.035278 scale
start_ol
881 384 moveto
881 -1024 lineto
442 -1024 lineto
442 2688 lineto
881 2688 lineto
881 2304 lineto
1019 2531 1229 2641 conicto
1439 2752 1732 2752 conicto
2216 2752 2519 2364 conicto
2822 1976 2822 1344 conicto
2822 712 2519 324 conicto
2216 -64 1732 -64 conicto
1439 -64 1229 46 conicto
1019 157 881 384 conicto
2368 1344 moveto
2368 1823 2169 2095 conicto
1971 2368 1624 2368 conicto
1278 2368 1079 2095 conicto
881 1823 881 1344 conicto
881 865 1079 592 conicto
1278 320 1624 320 conicto
1971 320 2169 592 conicto
2368 865 2368 1344 conicto
end_ol grestore 
gsave 24.779825 18.095000 translate 0.035278 -0.035278 scale
start_ol
2368 1344 moveto
2368 1823 2169 2095 conicto
1971 2368 1624 2368 conicto
1278 2368 1079 2095 conicto
881 1823 881 1344 conicto
881 865 1079 592 conicto
1278 320 1624 320 conicto
1971 320 2169 592 conicto
2368 865 2368 1344 conicto
881 2304 moveto
1019 2531 1229 2641 conicto
1439 2752 1732 2752 conicto
2216 2752 2519 2364 conicto
2822 1976 2822 1344 conicto
2822 712 2519 324 conicto
2216 -64 1732 -64 conicto
1439 -64 1229 46 conicto
1019 157 881 384 conicto
881 0 lineto
442 0 lineto
442 3712 lineto
881 3712 lineto
881 2304 lineto
end_ol grestore 
gsave 25.186944 18.095000 translate 0.035278 -0.035278 scale
start_ol
2734 1480 moveto
2734 1280 lineto
724 1280 lineto
753 811 996 565 conicto
1240 320 1674 320 conicto
1926 320 2162 384 conicto
2399 448 2632 576 conicto
2632 192 lineto
2397 67 2150 1 conicto
1903 -64 1648 -64 conicto
1012 -64 640 309 conicto
268 683 268 1320 conicto
268 1979 621 2365 conicto
974 2752 1572 2752 conicto
2109 2752 2421 2410 conicto
2734 2068 2734 1480 conicto
2297 1600 moveto
2292 1950 2096 2159 conicto
1900 2368 1577 2368 conicto
1212 2368 992 2166 conicto
772 1964 739 1597 conicto
2297 1600 lineto
end_ol grestore 
gsave 25.581571 18.095000 translate 0.035278 -0.035278 scale
start_ol
2000 2304 moveto
1926 2337 1839 2352 conicto
1753 2368 1648 2368 conicto
1278 2368 1079 2127 conicto
881 1887 881 1437 conicto
881 0 lineto
442 0 lineto
442 2688 lineto
881 2688 lineto
881 2304 lineto
1019 2531 1240 2641 conicto
1461 2752 1777 2752 conicto
1822 2752 1876 2752 conicto
1931 2752 1998 2752 conicto
2000 2304 lineto
end_ol grestore 
gsave 25.833834 18.095000 translate 0.035278 -0.035278 scale
start_ol
2000 2304 moveto
1926 2337 1839 2352 conicto
1753 2368 1648 2368 conicto
1278 2368 1079 2127 conicto
881 1887 881 1437 conicto
881 0 lineto
442 0 lineto
442 2688 lineto
881 2688 lineto
881 2304 lineto
1019 2531 1240 2641 conicto
1461 2752 1777 2752 conicto
1822 2752 1876 2752 conicto
1931 2752 1998 2752 conicto
2000 2304 lineto
end_ol grestore 
gsave 26.096086 18.095000 translate 0.035278 -0.035278 scale
start_ol
1565 -238 moveto
1380 -726 1204 -875 conicto
1028 -1024 734 -1024 conicto
385 -1024 lineto
385 -640 lineto
641 -640 lineto
821 -640 921 -555 conicto
1021 -470 1142 -155 conicto
1221 46 lineto
145 2688 lineto
608 2688 lineto
1439 586 lineto
2271 2688 lineto
2734 2688 lineto
1565 -238 lineto
end_ol grestore 
gsave 26.475730 18.095000 translate 0.035278 -0.035278 scale
start_ol
end_ol grestore 
gsave 26.678037 18.095000 translate 0.035278 -0.035278 scale
start_ol
957 3136 moveto
957 1792 lineto
1560 1792 lineto
1895 1792 2078 1967 conicto
2261 2142 2261 2465 conicto
2261 2786 2078 2961 conicto
1895 3136 1560 3136 conicto
957 3136 lineto
477 3520 moveto
1560 3520 lineto
2156 3520 2461 3251 conicto
2767 2983 2767 2465 conicto
2767 1943 2461 1675 conicto
2156 1408 1560 1408 conicto
957 1408 lineto
957 0 lineto
477 0 lineto
477 3520 lineto
end_ol grestore 
gsave 27.047685 18.095000 translate 0.035278 -0.035278 scale
start_ol
458 2688 moveto
895 2688 lineto
895 0 lineto
458 0 lineto
458 2688 lineto
458 3712 moveto
895 3712 lineto
895 3136 lineto
458 3136 lineto
458 3712 lineto
end_ol grestore 
gsave 27.225013 18.095000 translate 0.035278 -0.035278 scale
start_ol
end_ol grestore 
gsave 27.427320 18.095000 translate 0.035278 -0.035278 scale
start_ol
1974 1936 moveto
2318 1862 2511 1627 conicto
2705 1392 2705 1046 conicto
2705 516 2344 226 conicto
1983 -64 1318 -64 conicto
1095 -64 859 -16 conicto
623 32 371 128 conicto
371 576 lineto
570 449 807 384 conicto
1045 320 1304 320 conicto
1755 320 1991 504 conicto
2228 688 2228 1039 conicto
2228 1363 2008 1545 conicto
1789 1728 1397 1728 conicto
983 1728 lineto
983 2112 lineto
1416 2112 lineto
1770 2112 1957 2250 conicto
2145 2388 2145 2648 conicto
2145 2915 1951 3057 conicto
1758 3200 1397 3200 conicto
1200 3200 974 3153 conicto
748 3107 477 3008 conicto
477 3456 lineto
750 3520 989 3552 conicto
1228 3584 1439 3584 conicto
1985 3584 2303 3343 conicto
2622 3102 2622 2692 conicto
2622 2406 2453 2209 conicto
2285 2012 1974 1936 conicto
end_ol grestore 
gsave 27.834440 18.095000 translate 0.035278 -0.035278 scale
start_ol
end_ol grestore 
gsave 28.036747 18.095000 translate 0.035278 -0.035278 scale
start_ol
957 1728 moveto
957 384 lineto
1727 384 lineto
2114 384 2300 550 conicto
2487 716 2487 1057 conicto
2487 1401 2300 1564 conicto
2114 1728 1727 1728 conicto
957 1728 lineto
957 3136 moveto
957 2112 lineto
1667 2112 lineto
2019 2112 2191 2238 conicto
2363 2365 2363 2624 conicto
2363 2881 2191 3008 conicto
2019 3136 1667 3136 conicto
957 3136 lineto
477 3520 moveto
1703 3520 lineto
2251 3520 2548 3300 conicto
2845 3080 2845 2674 conicto
2845 2360 2693 2174 conicto
2541 1989 2247 1943 conicto
2601 1866 2797 1621 conicto
2993 1376 2993 1009 conicto
2993 526 2670 263 conicto
2347 0 1750 0 conicto
477 0 lineto
477 3520 lineto
end_ol grestore 
0.100000 slw
[] 0 sd
0 slc
0.501961 0.000000 0.501961 srgb
n 16.064077 16.183810 m 22.082622 17.239297 l s
0.100000 slw
[] 0 sd
0 slj
n 16.107261 15.937568 m 15.571593 16.097441 l 16.020893 16.430052 l ef
n 16.107261 15.937568 m 15.571593 16.097441 l 16.020893 16.430052 l cp s
0.100000 slw
[] 0 sd
0 slj
n 22.039438 17.485539 m 22.575106 17.325665 l 22.125806 16.993055 l ef
n 22.039438 17.485539 m 22.575106 17.325665 l 22.125806 16.993055 l cp s
0.100000 slw
[] 0 sd
0 slc
0 slj
0.100000 slw
0 slc
0 slj
[] 0 sd
0.901961 0.901961 0.901961 srgb
n 28.617186 14.300000 m 28.617186 13.900000 28.617186 13.900000 28.961472 13.900000 c 29.305757 13.900000 29.305757 13.900000 29.650043 13.900000 c 29.994329 13.900000 29.994329 13.900000 29.994329 14.300000 c 29.994329 14.300000 31.027186 14.300000 31.027186 14.300000 c 31.027186 14.300000 31.027186 15.900000 31.027186 15.900000 c 31.027186 15.900000 28.617186 15.900000 28.617186 15.900000 c 28.617186 15.900000 28.617186 14.700000 28.617186 14.300000 c ef
0.117647 0.564706 1.000000 srgb
n 28.617186 14.300000 m 28.617186 13.900000 28.617186 13.900000 28.961472 13.900000 c 29.305757 13.900000 29.305757 13.900000 29.650043 13.900000 c 29.994329 13.900000 29.994329 13.900000 29.994329 14.300000 c 29.994329 14.300000 31.027186 14.300000 31.027186 14.300000 c 31.027186 14.300000 31.027186 15.900000 31.027186 15.900000 c 31.027186 15.900000 28.617186 15.900000 28.617186 15.900000 c 28.617186 15.900000 28.617186 14.700000 28.617186 14.300000 c s
0.010000 slw
0 slc
0 slj
[] 0 sd
n 28.617186 14.300000 m 28.617186 13.900000 28.617186 13.900000 28.961472 13.900000 c 29.305757 13.900000 29.305757 13.900000 29.650043 13.900000 c 29.994329 13.900000 29.994329 13.900000 29.994329 14.300000 c 29.994329 14.300000 31.027186 14.300000 31.027186 14.300000 c 31.027186 14.300000 31.027186 15.900000 31.027186 15.900000 c 31.027186 15.900000 28.617186 15.900000 28.617186 15.900000 c 28.617186 15.900000 28.617186 14.700000 28.617186 14.300000 c s
0.100000 slw
0 slc
0 slj
[] 0 sd
1.000000 1.000000 1.000000 srgb
n 28.617186 15.900000 m 28.272900 14.500000 l 30.682900 14.500000 l 31.027186 15.900000 l ef
0.117647 0.564706 1.000000 srgb
n 28.617186 15.900000 m 28.272900 14.500000 l 30.682900 14.500000 l 31.027186 15.900000 l cp s
0.010000 slw
0 slc
0 slj
[] 0 sd
n 28.617186 15.900000 m 28.272900 14.500000 l 30.682900 14.500000 l 31.027186 15.900000 l cp s
gsave 28.595043 15.200000 translate 0.035278 -0.035278 scale
start_ol
2670 1646 moveto
2670 0 lineto
2233 0 lineto
2233 1632 lineto
2233 2001 2085 2184 conicto
1938 2368 1644 2368 conicto
1290 2368 1085 2146 conicto
881 1925 881 1542 conicto
881 0 lineto
442 0 lineto
442 2688 lineto
881 2688 lineto
881 2304 lineto
1038 2529 1250 2640 conicto
1463 2752 1741 2752 conicto
2200 2752 2435 2471 conicto
2670 2191 2670 1646 conicto
end_ol grestore 
gsave 28.999657 15.200000 translate 0.035278 -0.035278 scale
start_ol
1489 2368 moveto
1138 2368 933 2094 conicto
729 1820 729 1344 conicto
729 868 932 594 conicto
1135 320 1489 320 conicto
1838 320 2042 595 conicto
2247 870 2247 1344 conicto
2247 1816 2042 2092 conicto
1838 2368 1489 2368 conicto
1489 2752 moveto
2059 2752 2384 2378 conicto
2710 2005 2710 1344 conicto
2710 685 2384 310 conicto
2059 -64 1489 -64 conicto
917 -64 592 310 conicto
268 685 268 1344 conicto
268 2005 592 2378 conicto
917 2752 1489 2752 conicto
end_ol grestore 
gsave 29.391786 15.200000 translate 0.035278 -0.035278 scale
start_ol
2209 2304 moveto
2209 3712 lineto
2646 3712 lineto
2646 0 lineto
2209 0 lineto
2209 384 lineto
2071 157 1861 46 conicto
1651 -64 1356 -64 conicto
874 -64 571 324 conicto
268 712 268 1344 conicto
268 1976 571 2364 conicto
874 2752 1356 2752 conicto
1651 2752 1861 2641 conicto
2071 2531 2209 2304 conicto
720 1344 moveto
720 865 918 592 conicto
1117 320 1463 320 conicto
1810 320 2009 592 conicto
2209 865 2209 1344 conicto
2209 1823 2009 2095 conicto
1810 2368 1463 2368 conicto
1117 2368 918 2095 conicto
720 1823 720 1344 conicto
end_ol grestore 
gsave 29.798905 15.200000 translate 0.035278 -0.035278 scale
start_ol
2734 1480 moveto
2734 1280 lineto
724 1280 lineto
753 811 996 565 conicto
1240 320 1674 320 conicto
1926 320 2162 384 conicto
2399 448 2632 576 conicto
2632 192 lineto
2397 67 2150 1 conicto
1903 -64 1648 -64 conicto
1012 -64 640 309 conicto
268 683 268 1320 conicto
268 1979 621 2365 conicto
974 2752 1572 2752 conicto
2109 2752 2421 2410 conicto
2734 2068 2734 1480 conicto
2297 1600 moveto
2292 1950 2096 2159 conicto
1900 2368 1577 2368 conicto
1212 2368 992 2166 conicto
772 1964 739 1597 conicto
2297 1600 lineto
end_ol grestore 
gsave 30.193531 15.200000 translate 0.035278 -0.035278 scale
start_ol
458 2688 moveto
895 2688 lineto
895 -41 lineto
895 -559 701 -791 conicto
508 -1024 78 -1024 conicto
-88 -1024 lineto
-88 -640 lineto
29 -640 lineto
278 -640 368 -524 conicto
458 -408 458 -41 conicto
458 2688 lineto
458 3712 moveto
895 3712 lineto
895 3136 lineto
458 3136 lineto
458 3712 lineto
end_ol grestore 
gsave 30.370860 15.200000 translate 0.035278 -0.035278 scale
start_ol
2154 2560 moveto
2154 2176 lineto
1969 2272 1769 2320 conicto
1570 2368 1356 2368 conicto
1030 2368 867 2269 conicto
705 2170 705 1972 conicto
705 1821 821 1735 conicto
938 1649 1290 1571 conicto
1439 1538 lineto
1905 1438 2101 1255 conicto
2297 1072 2297 744 conicto
2297 371 2003 153 conicto
1710 -64 1197 -64 conicto
984 -64 752 -16 conicto
521 32 264 128 conicto
264 576 lineto
506 448 741 384 conicto
976 320 1207 320 conicto
1516 320 1682 425 conicto
1848 531 1848 722 conicto
1848 900 1728 994 conicto
1608 1089 1202 1177 conicto
1050 1212 lineto
644 1298 463 1476 conicto
283 1654 283 1964 conicto
283 2341 549 2546 conicto
815 2752 1304 2752 conicto
1546 2752 1760 2704 conicto
1974 2656 2154 2560 conicto
end_ol grestore 
0.100000 slw
[] 0 sd
1.000000 1.000000 1.000000 srgb
n 30.300000 10.550000 m 32.140000 10.550000 l 32.740000 11.150000 l 32.740000 12.250000 l 30.300000 12.250000 l ef
0.117647 0.564706 1.000000 srgb
n 30.300000 10.550000 m 32.140000 10.550000 l 32.740000 11.150000 l 32.740000 12.250000 l 30.300000 12.250000 l cp s
0.050000 slw
n 32.140000 10.550000 m 32.140000 11.150000 l 32.740000 11.150000 l s
gsave 30.650000 11.795000 translate 0.035278 -0.035278 scale
start_ol
1606 2401 moveto
1687 2580 1811 2666 conicto
1936 2752 2112 2752 conicto
2432 2752 2564 2499 conicto
2696 2247 2696 1548 conicto
2696 0 lineto
2297 0 lineto
2297 1529 lineto
2297 2094 2234 2231 conicto
2171 2368 2005 2368 conicto
1814 2368 1744 2221 conicto
1674 2075 1674 1529 conicto
1674 0 lineto
1275 0 lineto
1275 1529 lineto
1275 2101 1207 2234 conicto
1140 2368 964 2368 conicto
791 2368 723 2221 conicto
656 2075 656 1529 conicto
656 0 lineto
259 0 lineto
259 2688 lineto
656 2688 lineto
656 2446 lineto
734 2595 852 2673 conicto
970 2752 1119 2752 conicto
1300 2752 1420 2665 conicto
1540 2578 1606 2401 conicto
end_ol grestore 
gsave 31.034638 11.795000 translate 0.035278 -0.035278 scale
start_ol
789 1344 moveto
789 837 949 578 conicto
1109 320 1425 320 conicto
1741 320 1903 579 conicto
2066 839 2066 1344 conicto
2066 1849 1903 2108 conicto
1741 2368 1425 2368 conicto
1109 2368 949 2109 conicto
789 1851 789 1344 conicto
2066 358 moveto
1959 154 1777 45 conicto
1596 -64 1356 -64 conicto
878 -64 601 308 conicto
325 681 325 1334 conicto
325 2000 600 2376 conicto
876 2752 1356 2752 conicto
1593 2752 1775 2645 conicto
1957 2539 2066 2335 conicto
2066 2688 lineto
2506 2688 lineto
2506 -1024 lineto
2066 -1024 lineto
2066 358 lineto
end_ol grestore 
gsave 31.419276 11.795000 translate 0.035278 -0.035278 scale
start_ol
1458 3456 moveto
1458 2688 lineto
2451 2688 lineto
2451 2368 lineto
1458 2368 lineto
1458 868 lineto
1458 562 1569 441 conicto
1681 320 1959 320 conicto
2451 320 lineto
2451 0 lineto
1917 0 lineto
1425 0 1223 195 conicto
1021 390 1021 868 conicto
1021 2368 lineto
311 2368 lineto
311 2688 lineto
1021 2688 lineto
1021 3456 lineto
1458 3456 lineto
end_ol grestore 
gsave 31.803914 11.795000 translate 0.035278 -0.035278 scale
start_ol
1458 3456 moveto
1458 2688 lineto
2451 2688 lineto
2451 2368 lineto
1458 2368 lineto
1458 868 lineto
1458 562 1569 441 conicto
1681 320 1959 320 conicto
2451 320 lineto
2451 0 lineto
1917 0 lineto
1425 0 1223 195 conicto
1021 390 1021 868 conicto
1021 2368 lineto
311 2368 lineto
311 2688 lineto
1021 2688 lineto
1021 3456 lineto
1458 3456 lineto
end_ol grestore 
0.100000 slw
[] 0 sd
1.000000 1.000000 1.000000 srgb
n 23.900000 10.595000 m 27.280000 10.595000 l 27.880000 11.195000 l 27.880000 12.295000 l 23.900000 12.295000 l ef
0.117647 0.564706 1.000000 srgb
n 23.900000 10.595000 m 27.280000 10.595000 l 27.880000 11.195000 l 27.880000 12.295000 l 23.900000 12.295000 l cp s
0.050000 slw
n 27.280000 10.595000 m 27.280000 11.195000 l 27.880000 11.195000 l s
gsave 24.250000 11.840000 translate 0.035278 -0.035278 scale
start_ol
2038 2335 moveto
2038 3712 lineto
2475 3712 lineto
2475 0 lineto
2038 0 lineto
2038 353 lineto
1929 149 1747 42 conicto
1565 -64 1328 -64 conicto
845 -64 568 313 conicto
292 690 292 1354 conicto
292 2007 570 2379 conicto
848 2752 1328 2752 conicto
1568 2752 1750 2645 conicto
1933 2539 2038 2335 conicto
753 1344 moveto
753 837 914 578 conicto
1076 320 1392 320 conicto
1708 320 1873 580 conicto
2038 841 2038 1344 conicto
2038 1849 1873 2108 conicto
1708 2368 1392 2368 conicto
1076 2368 914 2109 conicto
753 1851 753 1344 conicto
end_ol grestore 
gsave 24.634638 11.840000 translate 0.035278 -0.035278 scale
start_ol
1667 1344 moveto
1522 1344 lineto
1140 1344 946 1212 conicto
753 1080 753 818 conicto
753 582 898 451 conicto
1043 320 1299 320 conicto
1660 320 1867 566 conicto
2074 813 2076 1248 conicto
2076 1344 lineto
1667 1344 lineto
2515 1513 moveto
2515 0 lineto
2076 0 lineto
2076 416 lineto
1936 170 1723 53 conicto
1511 -64 1207 -64 conicto
801 -64 558 162 conicto
316 389 316 769 conicto
316 1209 614 1436 conicto
912 1664 1489 1664 conicto
2076 1664 lineto
2076 1737 lineto
2074 2069 1914 2218 conicto
1755 2368 1406 2368 conicto
1183 2368 955 2303 conicto
727 2238 511 2112 conicto
511 2560 lineto
753 2656 975 2704 conicto
1197 2752 1406 2752 conicto
1736 2752 1970 2652 conicto
2204 2552 2349 2352 conicto
2439 2230 2477 2051 conicto
2515 1872 2515 1513 conicto
end_ol grestore 
gsave 25.019276 11.840000 translate 0.035278 -0.035278 scale
start_ol
1458 3456 moveto
1458 2688 lineto
2451 2688 lineto
2451 2368 lineto
1458 2368 lineto
1458 868 lineto
1458 562 1569 441 conicto
1681 320 1959 320 conicto
2451 320 lineto
2451 0 lineto
1917 0 lineto
1425 0 1223 195 conicto
1021 390 1021 868 conicto
1021 2368 lineto
311 2368 lineto
311 2688 lineto
1021 2688 lineto
1021 3456 lineto
1458 3456 lineto
end_ol grestore 
gsave 25.403914 11.840000 translate 0.035278 -0.035278 scale
start_ol
1667 1344 moveto
1522 1344 lineto
1140 1344 946 1212 conicto
753 1080 753 818 conicto
753 582 898 451 conicto
1043 320 1299 320 conicto
1660 320 1867 566 conicto
2074 813 2076 1248 conicto
2076 1344 lineto
1667 1344 lineto
2515 1513 moveto
2515 0 lineto
2076 0 lineto
2076 416 lineto
1936 170 1723 53 conicto
1511 -64 1207 -64 conicto
801 -64 558 162 conicto
316 389 316 769 conicto
316 1209 614 1436 conicto
912 1664 1489 1664 conicto
2076 1664 lineto
2076 1737 lineto
2074 2069 1914 2218 conicto
1755 2368 1406 2368 conicto
1183 2368 955 2303 conicto
727 2238 511 2112 conicto
511 2560 lineto
753 2656 975 2704 conicto
1197 2752 1406 2752 conicto
1736 2752 1970 2652 conicto
2204 2552 2349 2352 conicto
2439 2230 2477 2051 conicto
2515 1872 2515 1513 conicto
end_ol grestore 
gsave 25.788552 11.840000 translate 0.035278 -0.035278 scale
start_ol
2180 1344 moveto
2180 1851 2018 2109 conicto
1857 2368 1541 2368 conicto
1223 2368 1059 2108 conicto
895 1849 895 1344 conicto
895 841 1059 580 conicto
1223 320 1541 320 conicto
1857 320 2018 578 conicto
2180 837 2180 1344 conicto
895 2335 moveto
1000 2536 1184 2644 conicto
1368 2752 1610 2752 conicto
2090 2752 2365 2379 conicto
2641 2007 2641 1354 conicto
2641 690 2364 313 conicto
2088 -64 1605 -64 conicto
1368 -64 1186 42 conicto
1004 149 895 353 conicto
895 0 lineto
458 0 lineto
458 3712 lineto
895 3712 lineto
895 2335 lineto
end_ol grestore 
gsave 26.173190 11.840000 translate 0.035278 -0.035278 scale
start_ol
1667 1344 moveto
1522 1344 lineto
1140 1344 946 1212 conicto
753 1080 753 818 conicto
753 582 898 451 conicto
1043 320 1299 320 conicto
1660 320 1867 566 conicto
2074 813 2076 1248 conicto
2076 1344 lineto
1667 1344 lineto
2515 1513 moveto
2515 0 lineto
2076 0 lineto
2076 416 lineto
1936 170 1723 53 conicto
1511 -64 1207 -64 conicto
801 -64 558 162 conicto
316 389 316 769 conicto
316 1209 614 1436 conicto
912 1664 1489 1664 conicto
2076 1664 lineto
2076 1737 lineto
2074 2069 1914 2218 conicto
1755 2368 1406 2368 conicto
1183 2368 955 2303 conicto
727 2238 511 2112 conicto
511 2560 lineto
753 2656 975 2704 conicto
1197 2752 1406 2752 conicto
1736 2752 1970 2652 conicto
2204 2552 2349 2352 conicto
2439 2230 2477 2051 conicto
2515 1872 2515 1513 conicto
end_ol grestore 
gsave 26.557828 11.840000 translate 0.035278 -0.035278 scale
start_ol
2311 2624 moveto
2311 2176 lineto
2123 2272 1933 2320 conicto
1743 2368 1546 2368 conicto
1249 2368 1103 2274 conicto
957 2181 957 1990 conicto
957 1817 1066 1731 conicto
1175 1646 1610 1565 conicto
1786 1531 lineto
2111 1468 2278 1279 conicto
2446 1091 2446 789 conicto
2446 388 2166 162 conicto
1886 -64 1387 -64 conicto
1190 -64 974 -16 conicto
758 32 506 128 conicto
506 576 lineto
751 448 974 384 conicto
1197 320 1397 320 conicto
1687 320 1846 438 conicto
2005 557 2005 770 conicto
2005 1077 1423 1194 conicto
1404 1199 lineto
1240 1233 lineto
862 1306 688 1480 conicto
515 1655 515 1956 conicto
515 2337 774 2544 conicto
1033 2752 1513 2752 conicto
1727 2752 1924 2720 conicto
2121 2688 2311 2624 conicto
end_ol grestore 
gsave 26.942466 11.840000 translate 0.035278 -0.035278 scale
start_ol
2641 1480 moveto
2641 1280 lineto
748 1280 lineto
748 1265 lineto
748 813 975 566 conicto
1202 320 1615 320 conicto
1824 320 2052 383 conicto
2280 447 2539 576 conicto
2539 128 lineto
2290 32 2058 -16 conicto
1826 -64 1610 -64 conicto
990 -64 641 310 conicto
292 685 292 1344 conicto
292 1986 634 2369 conicto
976 2752 1546 2752 conicto
2054 2752 2347 2411 conicto
2641 2070 2641 1480 conicto
2204 1600 moveto
2195 1976 2022 2172 conicto
1850 2368 1527 2368 conicto
1211 2368 1007 2164 conicto
803 1960 765 1597 conicto
2204 1600 lineto
end_ol grestore 
0.100000 slw
[0.200000] 0 sd
0 slc
n 31.149855 12.246454 m 30.273433 14.250670 l s
0.100000 slw
[0.200000] 0 sd
0 slc
n 26.770882 12.295045 m 28.577437 14.038357 l s
0.100000 slw
[0.200000] 0 sd
0 slc
n 25.884740 12.294819 m 25.856239 16.900074 l s
0.100000 slw
[] 0 sd
0 slc
n 28.788488 15.947844 m 27.812413 16.596301 l s
0.100000 slw
[] 0 sd
0 slj
n 27.674072 16.388066 m 27.395943 16.872983 l 27.950754 16.804536 l ef
n 27.674072 16.388066 m 27.395943 16.872983 l 27.950754 16.804536 l cp s
0.100000 slw
[0.200000] 0 sd
0 slj
1.000000 1.000000 1.000000 srgb
n 7.094150 11.779800 m 9.131650 11.779800 l 9.131650 13.679800 l 7.094150 13.679800 l ef
0.117647 0.564706 1.000000 srgb
n 7.094150 11.779800 m 9.131650 11.779800 l 9.131650 13.679800 l 7.094150 13.679800 l cp s
gsave 7.644150 12.924800 translate 0.035278 -0.035278 scale
start_ol
458 2688 moveto
895 2688 lineto
895 0 lineto
458 0 lineto
458 2688 lineto
458 3712 moveto
895 3712 lineto
895 3136 lineto
458 3136 lineto
458 3712 lineto
end_ol grestore 
gsave 7.821479 12.924800 translate 0.035278 -0.035278 scale
start_ol
933 384 moveto
2608 384 lineto
2608 0 lineto
356 0 lineto
356 384 lineto
629 668 1100 1146 conicto
1572 1625 1694 1763 conicto
1924 2023 2015 2203 conicto
2107 2384 2107 2558 conicto
2107 2842 1908 3021 conicto
1710 3200 1392 3200 conicto
1166 3200 915 3104 conicto
665 3009 380 2816 conicto
380 3328 lineto
670 3455 921 3519 conicto
1173 3584 1382 3584 conicto
1933 3584 2261 3309 conicto
2589 3034 2589 2574 conicto
2589 2356 2507 2160 conicto
2425 1965 2209 1700 conicto
2149 1631 1831 1302 conicto
1513 974 933 384 conicto
end_ol grestore 
gsave 8.228598 12.924800 translate 0.035278 -0.035278 scale
start_ol
2373 2560 moveto
2373 2176 lineto
2188 2272 2001 2320 conicto
1815 2368 1625 2368 conicto
1199 2368 964 2099 conicto
729 1830 729 1344 conicto
729 858 964 589 conicto
1199 320 1625 320 conicto
1815 320 2001 368 conicto
2188 416 2373 512 conicto
2373 128 lineto
2190 32 1994 -16 conicto
1798 -64 1577 -64 conicto
976 -64 622 316 conicto
268 697 268 1344 conicto
268 2000 625 2376 conicto
983 2752 1606 2752 conicto
1808 2752 2000 2704 conicto
2192 2656 2373 2560 conicto
end_ol grestore 
0.100000 slw
[0.200000] 0 sd
0 slc
n 8.121357 13.729082 m 8.136790 15.552600 l s
0.100000 slw
[0.200000] 0 sd
0 slj
1.000000 1.000000 1.000000 srgb
n 18.317500 8.922400 m 21.320000 8.922400 l 21.320000 10.822400 l 18.317500 10.822400 l ef
0.117647 0.564706 1.000000 srgb
n 18.317500 8.922400 m 21.320000 8.922400 l 21.320000 10.822400 l 18.317500 10.822400 l cp s
gsave 18.902500 10.067400 translate 0.035278 -0.035278 scale
start_ol
477 3520 moveto
1192 3520 lineto
2097 1148 lineto
3007 3520 lineto
3722 3520 lineto
3722 0 lineto
3254 0 lineto
3254 3095 lineto
2339 704 lineto
1857 704 lineto
943 3095 lineto
943 0 lineto
477 0 lineto
477 3520 lineto
end_ol grestore 
gsave 19.454479 10.067400 translate 0.035278 -0.035278 scale
start_ol
1917 3200 moveto
1394 3200 1086 2813 conicto
779 2426 779 1759 conicto
779 1094 1086 707 conicto
1394 320 1917 320 conicto
2439 320 2744 707 conicto
3050 1094 3050 1759 conicto
3050 2426 2744 2813 conicto
2439 3200 1917 3200 conicto
2589 67 moveto
3221 -640 lineto
2641 -640 lineto
2116 -55 lineto
2038 -59 1996 -61 conicto
1955 -64 1917 -64 conicto
1168 -64 720 431 conicto
273 927 273 1759 conicto
273 2593 720 3088 conicto
1168 3584 1916 3584 conicto
2662 3584 3108 3088 conicto
3555 2592 3555 1758 conicto
3555 1146 3307 710 conicto
3059 274 2589 67 conicto
end_ol grestore 
gsave 19.959006 10.067400 translate 0.035278 -0.035278 scale
start_ol
-14 3520 moveto
2985 3520 lineto
2985 3136 lineto
1727 3136 lineto
1727 0 lineto
1245 0 lineto
1245 3136 lineto
-14 3136 lineto
-14 3520 lineto
end_ol grestore 
gsave 20.338650 10.067400 translate 0.035278 -0.035278 scale
start_ol
-14 3520 moveto
2985 3520 lineto
2985 3136 lineto
1727 3136 lineto
1727 0 lineto
1245 0 lineto
1245 3136 lineto
-14 3136 lineto
-14 3520 lineto
end_ol grestore 
0.100000 slw
[0.200000] 0 sd
0 slj
1.000000 1.000000 1.000000 srgb
n 18.053700 12.500000 m 20.446200 12.500000 l 20.446200 14.400000 l 18.053700 14.400000 l ef
0.117647 0.564706 1.000000 srgb
n 18.053700 12.500000 m 20.446200 12.500000 l 20.446200 14.400000 l 18.053700 14.400000 l cp s
gsave 18.603700 13.645000 translate 0.035278 -0.035278 scale
start_ol
162 3520 moveto
646 3520 lineto
1392 545 lineto
2135 3520 lineto
2674 3520 lineto
3420 545 lineto
4163 3520 lineto
4650 3520 lineto
3760 0 lineto
3156 0 lineto
2408 3056 lineto
1653 0 lineto
1050 0 lineto
162 3520 lineto
end_ol grestore 
gsave 19.220617 13.645000 translate 0.035278 -0.035278 scale
start_ol
458 2688 moveto
895 2688 lineto
895 0 lineto
458 0 lineto
458 2688 lineto
458 3712 moveto
895 3712 lineto
895 3136 lineto
458 3136 lineto
458 3712 lineto
end_ol grestore 
gsave 19.397946 13.645000 translate 0.035278 -0.035278 scale
start_ol
477 3520 moveto
2515 3520 lineto
2515 3136 lineto
957 3136 lineto
957 2112 lineto
2363 2112 lineto
2363 1728 lineto
957 1728 lineto
957 0 lineto
477 0 lineto
477 3520 lineto
end_ol grestore 
gsave 19.717645 13.645000 translate 0.035278 -0.035278 scale
start_ol
458 2688 moveto
895 2688 lineto
895 0 lineto
458 0 lineto
458 2688 lineto
458 3712 moveto
895 3712 lineto
895 3136 lineto
458 3136 lineto
458 3712 lineto
end_ol grestore 
0.100000 slw
[0.200000] 0 sd
0 slc
n 19.659747 10.872486 m 19.444063 12.229081 l s
0.100000 slw
[] 0 sd
0 slj
0 slc
n 19.258118 11.806445 m 19.426508 12.339497 l 19.751916 11.884954 l s
0.100000 slw
[0.200000] 0 sd
0 slc
n 19.195954 14.446954 m 19.073300 16.711600 l s
0.100000 slw
[1.000000] 0 sd
0 slj
0 slc
1.000000 0.000000 0.000000 srgb
n 3.302480 7.350000 m 15.871916 7.350000 l 15.871916 16.983865 l 3.302480 16.983865 l cp s
0.100000 slw
[1.000000] 0 sd
0 slj
0 slc
0.000000 0.501961 0.000000 srgb
n 21.869200 9.604200 m 33.119200 9.604200 l 33.119200 19.154200 l 21.869200 19.154200 l cp s
gsave 26.635000 9.091700 translate 0.035278 -0.035278 scale
start_ol
628 4672 moveto
1259 4672 lineto
1259 2752 lineto
3553 2752 lineto
3553 4672 lineto
4184 4672 lineto
4184 0 lineto
3553 0 lineto
3553 2240 lineto
1259 2240 lineto
1259 0 lineto
628 0 lineto
628 4672 lineto
end_ol grestore 
gsave 27.271902 9.091700 translate 0.035278 -0.035278 scale
start_ol
556 4672 moveto
1191 4672 lineto
1191 1851 lineto
1191 1104 1463 776 conicto
1735 448 2344 448 conicto
2950 448 3222 776 conicto
3494 1104 3494 1851 conicto
3494 4672 lineto
4128 4672 lineto
4128 1773 lineto
4128 864 3676 400 conicto
3225 -64 2344 -64 conicto
1459 -64 1007 400 conicto
556 864 556 1773 conicto
556 4672 lineto
end_ol grestore 
gsave 27.891316 9.091700 translate 0.035278 -0.035278 scale
start_ol
1259 2240 moveto
1259 512 lineto
2272 512 lineto
2781 512 3026 725 conicto
3272 938 3272 1378 conicto
3272 1820 3026 2030 conicto
2781 2240 2272 2240 conicto
1259 2240 lineto
1259 4160 moveto
1259 2752 lineto
2194 2752 lineto
2656 2752 2882 2925 conicto
3109 3099 3109 3456 conicto
3109 3810 2882 3985 conicto
2656 4160 2194 4160 conicto
1259 4160 lineto
628 4672 moveto
2241 4672 lineto
2963 4672 3353 4372 conicto
3744 4073 3744 3522 conicto
3744 3094 3544 2841 conicto
3344 2589 2956 2527 conicto
3422 2427 3680 2108 conicto
3938 1789 3938 1312 conicto
3938 684 3513 342 conicto
3088 0 2303 0 conicto
628 0 lineto
628 4672 lineto
end_ol grestore 
1.000000 0.000000 0.000000 srgb
gsave 4.325950 9.406720 translate 0.035278 -0.035278 scale
start_ol
477 3520 moveto
2719 3520 lineto
2719 3136 lineto
957 3136 lineto
957 2112 lineto
2646 2112 lineto
2646 1728 lineto
957 1728 lineto
957 384 lineto
2762 384 lineto
2762 0 lineto
477 0 lineto
477 3520 lineto
end_ol grestore 
gsave 4.730564 9.406720 translate 0.035278 -0.035278 scale
start_ol
477 3520 moveto
1123 3520 lineto
2696 575 lineto
2696 3520 lineto
3161 3520 lineto
3161 0 lineto
2515 0 lineto
943 2945 lineto
943 0 lineto
477 0 lineto
477 3520 lineto
end_ol grestore 
gsave 5.210113 9.406720 translate 0.035278 -0.035278 scale
start_ol
957 3136 moveto
957 384 lineto
1537 384 lineto
2271 384 2611 716 conicto
2952 1048 2952 1764 conicto
2952 2475 2611 2805 conicto
2271 3136 1537 3136 conicto
957 3136 lineto
477 3520 moveto
1463 3520 lineto
2494 3520 2976 3094 conicto
3458 2669 3458 1764 conicto
3458 853 2973 426 conicto
2489 0 1463 0 conicto
477 0 lineto
477 3520 lineto
end_ol grestore 
gsave 5.702147 9.406720 translate 0.035278 -0.035278 scale
start_ol
957 3136 moveto
957 384 lineto
1537 384 lineto
2271 384 2611 716 conicto
2952 1048 2952 1764 conicto
2952 2475 2611 2805 conicto
2271 3136 1537 3136 conicto
957 3136 lineto
477 3520 moveto
1463 3520 lineto
2494 3520 2976 3094 conicto
3458 2669 3458 1764 conicto
3458 853 2973 426 conicto
2489 0 1463 0 conicto
477 0 lineto
477 3520 lineto
end_ol grestore 
gsave 6.194181 9.406720 translate 0.035278 -0.035278 scale
start_ol
477 3520 moveto
2719 3520 lineto
2719 3136 lineto
957 3136 lineto
957 2112 lineto
2646 2112 lineto
2646 1728 lineto
957 1728 lineto
957 384 lineto
2762 384 lineto
2762 0 lineto
477 0 lineto
477 3520 lineto
end_ol grestore 
gsave 6.598795 9.406720 translate 0.035278 -0.035278 scale
start_ol
1392 0 moveto
38 3520 lineto
539 3520 lineto
1663 556 lineto
2788 3520 lineto
3287 3520 lineto
1936 0 lineto
1392 0 lineto
end_ol grestore 
gsave 7.035887 9.406720 translate 0.035278 -0.035278 scale
start_ol
477 3520 moveto
957 3520 lineto
957 0 lineto
477 0 lineto
477 3520 lineto
end_ol grestore 
gsave 7.225709 9.406720 translate 0.035278 -0.035278 scale
start_ol
3133 3264 moveto
3133 2752 lineto
2891 2977 2616 3088 conicto
2342 3200 2033 3200 conicto
1425 3200 1102 2829 conicto
779 2459 779 1759 conicto
779 1061 1102 690 conicto
1425 320 2033 320 conicto
2342 320 2616 431 conicto
2891 543 3133 768 conicto
3133 256 lineto
2881 96 2599 16 conicto
2318 -64 2005 -64 conicto
1199 -64 736 424 conicto
273 913 273 1759 conicto
273 2607 736 3095 conicto
1199 3584 2005 3584 conicto
2323 3584 2604 3504 conicto
2886 3424 3133 3264 conicto
end_ol grestore 
gsave 7.672789 9.406720 translate 0.035278 -0.035278 scale
start_ol
477 3520 moveto
2719 3520 lineto
2719 3136 lineto
957 3136 lineto
957 2112 lineto
2646 2112 lineto
2646 1728 lineto
957 1728 lineto
957 384 lineto
2762 384 lineto
2762 0 lineto
477 0 lineto
477 3520 lineto
end_ol grestore 
gsave 7.238440 21.896900 translate 0.035278 -0.035278 scale
start_ol
2287 2962 moveto
1435 2496 lineto
2287 2027 lineto
2149 1792 lineto
1351 2280 lineto
1351 1408 lineto
1081 1408 lineto
1081 2280 lineto
283 1792 lineto
145 2027 lineto
998 2496 lineto
145 2962 lineto
283 3200 lineto
1081 2712 lineto
1081 3584 lineto
1351 3584 lineto
1351 2712 lineto
2149 3200 lineto
2287 2962 lineto
end_ol grestore 
gsave 7.558139 21.896900 translate 0.035278 -0.035278 scale
start_ol
end_ol grestore 
gsave 7.760446 21.896900 translate 0.035278 -0.035278 scale
start_ol
477 3520 moveto
2719 3520 lineto
2719 3136 lineto
957 3136 lineto
957 2112 lineto
2646 2112 lineto
2646 1728 lineto
957 1728 lineto
957 384 lineto
2762 384 lineto
2762 0 lineto
477 0 lineto
477 3520 lineto
end_ol grestore 
gsave 8.165060 21.896900 translate 0.035278 -0.035278 scale
start_ol
477 3520 moveto
1123 3520 lineto
2696 575 lineto
2696 3520 lineto
3161 3520 lineto
3161 0 lineto
2515 0 lineto
943 2945 lineto
943 0 lineto
477 0 lineto
477 3520 lineto
end_ol grestore 
gsave 8.644609 21.896900 translate 0.035278 -0.035278 scale
start_ol
957 3136 moveto
957 384 lineto
1537 384 lineto
2271 384 2611 716 conicto
2952 1048 2952 1764 conicto
2952 2475 2611 2805 conicto
2271 3136 1537 3136 conicto
957 3136 lineto
477 3520 moveto
1463 3520 lineto
2494 3520 2976 3094 conicto
3458 2669 3458 1764 conicto
3458 853 2973 426 conicto
2489 0 1463 0 conicto
477 0 lineto
477 3520 lineto
end_ol grestore 
gsave 9.136644 21.896900 translate 0.035278 -0.035278 scale
start_ol
957 3136 moveto
957 384 lineto
1537 384 lineto
2271 384 2611 716 conicto
2952 1048 2952 1764 conicto
2952 2475 2611 2805 conicto
2271 3136 1537 3136 conicto
957 3136 lineto
477 3520 moveto
1463 3520 lineto
2494 3520 2976 3094 conicto
3458 2669 3458 1764 conicto
3458 853 2973 426 conicto
2489 0 1463 0 conicto
477 0 lineto
477 3520 lineto
end_ol grestore 
gsave 9.628678 21.896900 translate 0.035278 -0.035278 scale
start_ol
477 3520 moveto
2719 3520 lineto
2719 3136 lineto
957 3136 lineto
957 2112 lineto
2646 2112 lineto
2646 1728 lineto
957 1728 lineto
957 384 lineto
2762 384 lineto
2762 0 lineto
477 0 lineto
477 3520 lineto
end_ol grestore 
gsave 10.033292 21.896900 translate 0.035278 -0.035278 scale
start_ol
1392 0 moveto
38 3520 lineto
539 3520 lineto
1663 556 lineto
2788 3520 lineto
3287 3520 lineto
1936 0 lineto
1392 0 lineto
end_ol grestore 
gsave 10.470383 21.896900 translate 0.035278 -0.035278 scale
start_ol
477 3520 moveto
957 3520 lineto
957 0 lineto
477 0 lineto
477 3520 lineto
end_ol grestore 
gsave 10.660205 21.896900 translate 0.035278 -0.035278 scale
start_ol
3133 3264 moveto
3133 2752 lineto
2891 2977 2616 3088 conicto
2342 3200 2033 3200 conicto
1425 3200 1102 2829 conicto
779 2459 779 1759 conicto
779 1061 1102 690 conicto
1425 320 2033 320 conicto
2342 320 2616 431 conicto
2891 543 3133 768 conicto
3133 256 lineto
2881 96 2599 16 conicto
2318 -64 2005 -64 conicto
1199 -64 736 424 conicto
273 913 273 1759 conicto
273 2607 736 3095 conicto
1199 3584 2005 3584 conicto
2323 3584 2604 3504 conicto
2886 3424 3133 3264 conicto
end_ol grestore 
gsave 11.107285 21.896900 translate 0.035278 -0.035278 scale
start_ol
477 3520 moveto
2719 3520 lineto
2719 3136 lineto
957 3136 lineto
957 2112 lineto
2646 2112 lineto
2646 1728 lineto
957 1728 lineto
957 384 lineto
2762 384 lineto
2762 0 lineto
477 0 lineto
477 3520 lineto
end_ol grestore 
gsave 11.511899 21.896900 translate 0.035278 -0.035278 scale
start_ol
2603 3392 moveto
2603 2944 lineto
2330 3073 2087 3136 conicto
1845 3200 1620 3200 conicto
1228 3200 1015 3052 conicto
803 2904 803 2631 conicto
803 2402 944 2285 conicto
1086 2169 1480 2097 conicto
1769 2039 lineto
2306 1937 2561 1678 conicto
2817 1420 2817 986 conicto
2817 469 2471 202 conicto
2126 -64 1458 -64 conicto
1207 -64 923 0 conicto
639 65 335 192 conicto
335 704 lineto
627 513 907 416 conicto
1188 320 1459 320 conicto
1869 320 2092 485 conicto
2316 650 2316 955 conicto
2316 1221 2155 1371 conicto
1995 1522 1629 1597 conicto
1337 1652 lineto
801 1756 561 1978 conicto
321 2201 321 2597 conicto
321 3056 652 3320 conicto
984 3584 1565 3584 conicto
1815 3584 2073 3536 conicto
2332 3488 2603 3392 conicto
end_ol grestore 
0.100000 slw
[] 0 sd
0 slc
0.501961 0.000000 0.501961 srgb
n 22.069229 18.094636 m 13.017373 18.560624 l s
0.100000 slw
[] 0 sd
0 slj
n 22.082082 18.344305 m 22.568568 18.068930 l 22.056376 17.844966 l ef
n 22.082082 18.344305 m 22.568568 18.068930 l 22.056376 17.844966 l cp s
0.100000 slw
[] 0 sd
0 slj
n 13.004520 18.310954 m 12.518034 18.586329 l 13.030226 18.810293 l ef
n 13.004520 18.310954 m 12.518034 18.586329 l 13.030226 18.810293 l cp s
0.100000 slw
[] 0 sd
0 slc
n 22.076893 18.495318 m 13.063779 19.917383 l s
0.100000 slw
[] 0 sd
0 slj
n 22.115855 18.742264 m 22.570783 18.417394 l 22.037931 18.248373 l ef
n 22.115855 18.742264 m 22.570783 18.417394 l 22.037931 18.248373 l cp s
0.100000 slw
[] 0 sd
0 slj
n 13.024817 19.670438 m 12.569889 19.995308 l 13.102742 20.164328 l ef
n 13.024817 19.670438 m 12.569889 19.995308 l 13.102742 20.164328 l cp s
0.100000 slw
[] 0 sd
0 slc
n 22.091123 18.963614 m 13.023522 21.529353 l s
0.100000 slw
[] 0 sd
0 slj
n 22.159190 19.204169 m 22.572234 18.827480 l 22.023057 18.723058 l ef
n 22.159190 19.204169 m 22.572234 18.827480 l 22.023057 18.723058 l cp s
0.100000 slw
[] 0 sd
0 slj
n 12.955455 21.288798 m 12.542411 21.665487 l 13.091589 21.769908 l ef
n 12.955455 21.288798 m 12.542411 21.665487 l 13.091589 21.769908 l cp s
1.000000 0.000000 0.000000 srgb
gsave 11.184900 17.201000 translate 0.035278 -0.035278 scale
start_ol
542 1024 moveto
1476 1024 lineto
1476 0 lineto
542 0 lineto
542 1024 lineto
end_ol grestore 
gsave 11.184900 18.082944 translate 0.035278 -0.035278 scale
start_ol
542 1024 moveto
1476 1024 lineto
1476 0 lineto
542 0 lineto
542 1024 lineto
end_ol grestore 
gsave 11.184900 18.964889 translate 0.035278 -0.035278 scale
start_ol
542 1024 moveto
1476 1024 lineto
1476 0 lineto
542 0 lineto
542 1024 lineto
end_ol grestore 
gsave 11.184900 19.846833 translate 0.035278 -0.035278 scale
start_ol
542 1024 moveto
1476 1024 lineto
1476 0 lineto
542 0 lineto
542 1024 lineto
end_ol grestore 
gsave 11.184900 20.728778 translate 0.035278 -0.035278 scale
start_ol
542 1024 moveto
1476 1024 lineto
1476 0 lineto
542 0 lineto
542 1024 lineto
end_ol grestore 
0.100000 slw
[] 0 sd
0 slc
0 slj
0.100000 slw
0 slc
0 slj
[] 0 sd
0.901961 0.901961 0.901961 srgb
n 11.351043 12.000000 m 11.351043 11.600000 11.351043 11.600000 11.850686 11.600000 c 12.350329 11.600000 12.350329 11.600000 12.849972 11.600000 c 13.349614 11.600000 13.349614 11.600000 13.349614 12.000000 c 13.349614 12.000000 14.848543 12.000000 14.848543 12.000000 c 14.848543 12.000000 14.848543 13.600000 14.848543 13.600000 c 14.848543 13.600000 11.351043 13.600000 11.351043 13.600000 c 11.351043 13.600000 11.351043 12.400000 11.351043 12.000000 c ef
0.117647 0.564706 1.000000 srgb
n 11.351043 12.000000 m 11.351043 11.600000 11.351043 11.600000 11.850686 11.600000 c 12.350329 11.600000 12.350329 11.600000 12.849972 11.600000 c 13.349614 11.600000 13.349614 11.600000 13.349614 12.000000 c 13.349614 12.000000 14.848543 12.000000 14.848543 12.000000 c 14.848543 12.000000 14.848543 13.600000 14.848543 13.600000 c 14.848543 13.600000 11.351043 13.600000 11.351043 13.600000 c 11.351043 13.600000 11.351043 12.400000 11.351043 12.000000 c s
0.010000 slw
0 slc
0 slj
[] 0 sd
n 11.351043 12.000000 m 11.351043 11.600000 11.351043 11.600000 11.850686 11.600000 c 12.350329 11.600000 12.350329 11.600000 12.849972 11.600000 c 13.349614 11.600000 13.349614 11.600000 13.349614 12.000000 c 13.349614 12.000000 14.848543 12.000000 14.848543 12.000000 c 14.848543 12.000000 14.848543 13.600000 14.848543 13.600000 c 14.848543 13.600000 11.351043 13.600000 11.351043 13.600000 c 11.351043 13.600000 11.351043 12.400000 11.351043 12.000000 c s
0.100000 slw
0 slc
0 slj
[] 0 sd
1.000000 1.000000 1.000000 srgb
n 11.351043 13.600000 m 10.851400 12.200000 l 14.348900 12.200000 l 14.848543 13.600000 l ef
0.117647 0.564706 1.000000 srgb
n 11.351043 13.600000 m 10.851400 12.200000 l 14.348900 12.200000 l 14.848543 13.600000 l cp s
0.010000 slw
0 slc
0 slj
[] 0 sd
n 11.351043 13.600000 m 10.851400 12.200000 l 14.348900 12.200000 l 14.848543 13.600000 l cp s
gsave 11.251222 12.900000 translate 0.035278 -0.035278 scale
start_ol
477 3520 moveto
957 3520 lineto
957 0 lineto
477 0 lineto
477 3520 lineto
end_ol grestore 
gsave 11.441044 12.900000 translate 0.035278 -0.035278 scale
start_ol
2670 1646 moveto
2670 0 lineto
2233 0 lineto
2233 1632 lineto
2233 2001 2085 2184 conicto
1938 2368 1644 2368 conicto
1290 2368 1085 2146 conicto
881 1925 881 1542 conicto
881 0 lineto
442 0 lineto
442 2688 lineto
881 2688 lineto
881 2304 lineto
1038 2529 1250 2640 conicto
1463 2752 1741 2752 conicto
2200 2752 2435 2471 conicto
2670 2191 2670 1646 conicto
end_ol grestore 
gsave 11.845658 12.900000 translate 0.035278 -0.035278 scale
start_ol
891 3456 moveto
891 2688 lineto
1791 2688 lineto
1791 2368 lineto
891 2368 lineto
891 902 lineto
891 572 980 478 conicto
1069 384 1342 384 conicto
1791 384 lineto
1791 0 lineto
1342 0 lineto
836 0 643 194 conicto
451 389 451 902 conicto
451 2368 lineto
131 2368 lineto
131 2688 lineto
451 2688 lineto
451 3456 lineto
891 3456 lineto
end_ol grestore 
gsave 12.095424 12.900000 translate 0.035278 -0.035278 scale
start_ol
2734 1480 moveto
2734 1280 lineto
724 1280 lineto
753 811 996 565 conicto
1240 320 1674 320 conicto
1926 320 2162 384 conicto
2399 448 2632 576 conicto
2632 192 lineto
2397 67 2150 1 conicto
1903 -64 1648 -64 conicto
1012 -64 640 309 conicto
268 683 268 1320 conicto
268 1979 621 2365 conicto
974 2752 1572 2752 conicto
2109 2752 2421 2410 conicto
2734 2068 2734 1480 conicto
2297 1600 moveto
2292 1950 2096 2159 conicto
1900 2368 1577 2368 conicto
1212 2368 992 2166 conicto
772 1964 739 1597 conicto
2297 1600 lineto
end_ol grestore 
gsave 12.490050 12.900000 translate 0.035278 -0.035278 scale
start_ol
2000 2304 moveto
1926 2337 1839 2352 conicto
1753 2368 1648 2368 conicto
1278 2368 1079 2127 conicto
881 1887 881 1437 conicto
881 0 lineto
442 0 lineto
442 2688 lineto
881 2688 lineto
881 2304 lineto
1019 2531 1240 2641 conicto
1461 2752 1777 2752 conicto
1822 2752 1876 2752 conicto
1931 2752 1998 2752 conicto
2000 2304 lineto
end_ol grestore 
gsave 12.752302 12.900000 translate 0.035278 -0.035278 scale
start_ol
881 384 moveto
881 -1024 lineto
442 -1024 lineto
442 2688 lineto
881 2688 lineto
881 2304 lineto
1019 2531 1229 2641 conicto
1439 2752 1732 2752 conicto
2216 2752 2519 2364 conicto
2822 1976 2822 1344 conicto
2822 712 2519 324 conicto
2216 -64 1732 -64 conicto
1439 -64 1229 46 conicto
1019 157 881 384 conicto
2368 1344 moveto
2368 1823 2169 2095 conicto
1971 2368 1624 2368 conicto
1278 2368 1079 2095 conicto
881 1823 881 1344 conicto
881 865 1079 592 conicto
1278 320 1624 320 conicto
1971 320 2169 592 conicto
2368 865 2368 1344 conicto
end_ol grestore 
gsave 13.159421 12.900000 translate 0.035278 -0.035278 scale
start_ol
2000 2304 moveto
1926 2337 1839 2352 conicto
1753 2368 1648 2368 conicto
1278 2368 1079 2127 conicto
881 1887 881 1437 conicto
881 0 lineto
442 0 lineto
442 2688 lineto
881 2688 lineto
881 2304 lineto
1019 2531 1240 2641 conicto
1461 2752 1777 2752 conicto
1822 2752 1876 2752 conicto
1931 2752 1998 2752 conicto
2000 2304 lineto
end_ol grestore 
gsave 13.406683 12.900000 translate 0.035278 -0.035278 scale
start_ol
2734 1480 moveto
2734 1280 lineto
724 1280 lineto
753 811 996 565 conicto
1240 320 1674 320 conicto
1926 320 2162 384 conicto
2399 448 2632 576 conicto
2632 192 lineto
2397 67 2150 1 conicto
1903 -64 1648 -64 conicto
1012 -64 640 309 conicto
268 683 268 1320 conicto
268 1979 621 2365 conicto
974 2752 1572 2752 conicto
2109 2752 2421 2410 conicto
2734 2068 2734 1480 conicto
2297 1600 moveto
2292 1950 2096 2159 conicto
1900 2368 1577 2368 conicto
1212 2368 992 2166 conicto
772 1964 739 1597 conicto
2297 1600 lineto
end_ol grestore 
gsave 13.801309 12.900000 translate 0.035278 -0.035278 scale
start_ol
891 3456 moveto
891 2688 lineto
1791 2688 lineto
1791 2368 lineto
891 2368 lineto
891 902 lineto
891 572 980 478 conicto
1069 384 1342 384 conicto
1791 384 lineto
1791 0 lineto
1342 0 lineto
836 0 643 194 conicto
451 389 451 902 conicto
451 2368 lineto
131 2368 lineto
131 2688 lineto
451 2688 lineto
451 3456 lineto
891 3456 lineto
end_ol grestore 
gsave 14.051076 12.900000 translate 0.035278 -0.035278 scale
start_ol
2734 1480 moveto
2734 1280 lineto
724 1280 lineto
753 811 996 565 conicto
1240 320 1674 320 conicto
1926 320 2162 384 conicto
2399 448 2632 576 conicto
2632 192 lineto
2397 67 2150 1 conicto
1903 -64 1648 -64 conicto
1012 -64 640 309 conicto
268 683 268 1320 conicto
268 1979 621 2365 conicto
974 2752 1572 2752 conicto
2109 2752 2421 2410 conicto
2734 2068 2734 1480 conicto
2297 1600 moveto
2292 1950 2096 2159 conicto
1900 2368 1577 2368 conicto
1212 2368 992 2166 conicto
772 1964 739 1597 conicto
2297 1600 lineto
end_ol grestore 
0.100000 slw
[] 0 sd
1.000000 1.000000 1.000000 srgb
n 12.900000 8.800000 m 14.740000 8.800000 l 15.340000 9.400000 l 15.340000 10.500000 l 12.900000 10.500000 l ef
0.117647 0.564706 1.000000 srgb
n 12.900000 8.800000 m 14.740000 8.800000 l 15.340000 9.400000 l 15.340000 10.500000 l 12.900000 10.500000 l cp s
0.050000 slw
n 14.740000 8.800000 m 14.740000 9.400000 l 15.340000 9.400000 l s
gsave 13.250000 10.045000 translate 0.035278 -0.035278 scale
start_ol
2641 1480 moveto
2641 1280 lineto
748 1280 lineto
748 1265 lineto
748 813 975 566 conicto
1202 320 1615 320 conicto
1824 320 2052 383 conicto
2280 447 2539 576 conicto
2539 128 lineto
2290 32 2058 -16 conicto
1826 -64 1610 -64 conicto
990 -64 641 310 conicto
292 685 292 1344 conicto
292 1986 634 2369 conicto
976 2752 1546 2752 conicto
2054 2752 2347 2411 conicto
2641 2070 2641 1480 conicto
2204 1600 moveto
2195 1976 2022 2172 conicto
1850 2368 1527 2368 conicto
1211 2368 1007 2164 conicto
803 1960 765 1597 conicto
2204 1600 lineto
end_ol grestore 
gsave 13.634638 10.045000 translate 0.035278 -0.035278 scale
start_ol
511 3520 moveto
993 3520 lineto
993 384 lineto
2705 384 lineto
2705 0 lineto
511 0 lineto
511 3520 lineto
end_ol grestore 
gsave 14.019276 10.045000 translate 0.035278 -0.035278 scale
start_ol
463 1023 moveto
463 2688 lineto
900 2688 lineto
900 1023 lineto
900 661 1027 490 conicto
1154 320 1420 320 conicto
1729 320 1893 539 conicto
2057 759 2057 1169 conicto
2057 2688 lineto
2496 2688 lineto
2496 0 lineto
2057 0 lineto
2057 409 lineto
1941 176 1740 56 conicto
1539 -64 1271 -64 conicto
862 -64 662 206 conicto
463 476 463 1023 conicto
end_ol grestore 
gsave 14.403914 10.045000 translate 0.035278 -0.035278 scale
start_ol
1667 1344 moveto
1522 1344 lineto
1140 1344 946 1212 conicto
753 1080 753 818 conicto
753 582 898 451 conicto
1043 320 1299 320 conicto
1660 320 1867 566 conicto
2074 813 2076 1248 conicto
2076 1344 lineto
1667 1344 lineto
2515 1513 moveto
2515 0 lineto
2076 0 lineto
2076 416 lineto
1936 170 1723 53 conicto
1511 -64 1207 -64 conicto
801 -64 558 162 conicto
316 389 316 769 conicto
316 1209 614 1436 conicto
912 1664 1489 1664 conicto
2076 1664 lineto
2076 1737 lineto
2074 2069 1914 2218 conicto
1755 2368 1406 2368 conicto
1183 2368 955 2303 conicto
727 2238 511 2112 conicto
511 2560 lineto
753 2656 975 2704 conicto
1197 2752 1406 2752 conicto
1736 2752 1970 2652 conicto
2204 2552 2349 2352 conicto
2439 2230 2477 2051 conicto
2515 1872 2515 1513 conicto
end_ol grestore 
0.100000 slw
[] 0 sd
0 slc
n 12.939263 13.650247 m 12.844746 14.017243 l s
0.100000 slw
[] 0 sd
0 slj
n 12.602646 13.954893 m 12.720046 14.501443 l 13.086846 14.079594 l ef
n 12.602646 13.954893 m 12.720046 14.501443 l 13.086846 14.079594 l cp s
0.100000 slw
[] 0 sd
1.000000 1.000000 1.000000 srgb
n 8.320000 8.755000 m 11.315000 8.755000 l 11.915000 9.355000 l 11.915000 10.455000 l 8.320000 10.455000 l ef
0.117647 0.564706 1.000000 srgb
n 8.320000 8.755000 m 11.315000 8.755000 l 11.915000 9.355000 l 11.915000 10.455000 l 8.320000 10.455000 l cp s
0.050000 slw
n 11.315000 8.755000 m 11.315000 9.355000 l 11.915000 9.355000 l s
gsave 8.670000 10.000000 translate 0.035278 -0.035278 scale
start_ol
463 -1024 moveto
463 2688 lineto
900 2688 lineto
900 1011 lineto
900 676 1042 498 conicto
1185 320 1449 320 conicto
1751 320 1904 521 conicto
2057 722 2057 1114 conicto
2057 2688 lineto
2496 2688 lineto
2496 606 lineto
2496 459 2534 389 conicto
2572 320 2650 320 conicto
2672 320 2706 334 conicto
2741 348 2807 384 conicto
2807 44 lineto
2717 -11 2636 -37 conicto
2555 -64 2475 -64 conicto
2328 -64 2238 30 conicto
2149 125 2121 315 conicto
2012 123 1854 29 conicto
1696 -64 1485 -64 conicto
1266 -64 1115 27 conicto
964 118 860 310 conicto
860 -1024 lineto
463 -1024 lineto
end_ol grestore 
gsave 9.054638 10.000000 translate 0.035278 -0.035278 scale
start_ol
948 3136 moveto
948 1792 lineto
1503 1792 lineto
1836 1792 2022 1969 conicto
2209 2147 2209 2465 conicto
2209 2784 2023 2960 conicto
1838 3136 1503 3136 conicto
948 3136 lineto
468 3520 moveto
1503 3520 lineto
2097 3520 2403 3251 conicto
2710 2983 2710 2465 conicto
2710 1943 2404 1675 conicto
2099 1408 1503 1408 conicto
948 1408 lineto
948 0 lineto
468 0 lineto
468 3520 lineto
end_ol grestore 
gsave 9.439276 10.000000 translate 0.035278 -0.035278 scale
start_ol
2038 871 moveto
1929 589 1760 128 conicto
1525 -508 1444 -648 conicto
1335 -836 1171 -930 conicto
1007 -1024 789 -1024 conicto
437 -1024 lineto
437 -640 lineto
696 -640 lineto
888 -640 997 -527 conicto
1107 -415 1275 53 conicto
247 2688 lineto
710 2688 lineto
1499 586 lineto
2275 2688 lineto
2738 2688 lineto
2038 871 lineto
end_ol grestore 
gsave 9.823914 10.000000 translate 0.035278 -0.035278 scale
start_ol
1458 3456 moveto
1458 2688 lineto
2451 2688 lineto
2451 2368 lineto
1458 2368 lineto
1458 868 lineto
1458 562 1569 441 conicto
1681 320 1959 320 conicto
2451 320 lineto
2451 0 lineto
1917 0 lineto
1425 0 1223 195 conicto
1021 390 1021 868 conicto
1021 2368 lineto
311 2368 lineto
311 2688 lineto
1021 2688 lineto
1021 3456 lineto
1458 3456 lineto
end_ol grestore 
gsave 10.208552 10.000000 translate 0.035278 -0.035278 scale
start_ol
2496 1665 moveto
2496 0 lineto
2057 0 lineto
2057 1665 lineto
2057 2027 1931 2197 conicto
1805 2368 1537 2368 conicto
1230 2368 1065 2148 conicto
900 1929 900 1519 conicto
900 0 lineto
463 0 lineto
463 3712 lineto
900 3712 lineto
900 2284 lineto
1016 2514 1215 2633 conicto
1415 2752 1689 2752 conicto
2095 2752 2295 2482 conicto
2496 2212 2496 1665 conicto
end_ol grestore 
gsave 10.593190 10.000000 translate 0.035278 -0.035278 scale
start_ol
1463 2368 moveto
1131 2368 960 2109 conicto
789 1851 789 1344 conicto
789 839 960 579 conicto
1131 320 1463 320 conicto
1798 320 1969 579 conicto
2140 839 2140 1344 conicto
2140 1851 1969 2109 conicto
1798 2368 1463 2368 conicto
1463 2752 moveto
2016 2752 2309 2390 conicto
2603 2029 2603 1344 conicto
2603 657 2311 296 conicto
2019 -64 1463 -64 conicto
909 -64 617 296 conicto
325 657 325 1344 conicto
325 2029 617 2390 conicto
909 2752 1463 2752 conicto
end_ol grestore 
gsave 10.977828 10.000000 translate 0.035278 -0.035278 scale
start_ol
2496 1665 moveto
2496 0 lineto
2057 0 lineto
2057 1665 lineto
2057 2027 1931 2197 conicto
1805 2368 1537 2368 conicto
1230 2368 1065 2148 conicto
900 1929 900 1519 conicto
900 0 lineto
463 0 lineto
463 2688 lineto
900 2688 lineto
900 2284 lineto
1016 2514 1215 2633 conicto
1415 2752 1689 2752 conicto
2095 2752 2295 2482 conicto
2496 2212 2496 1665 conicto
end_ol grestore 
0.100000 slw
[0.200000] 0 sd
0 slc
n 10.879969 10.455311 m 11.863007 11.551603 l s
0.100000 slw
[0.200000] 0 sd
0 slc
n 13.613524 10.499792 m 12.600200 12.200000 l s
gsave 12.100000 8.358333 translate 0.035278 -0.035278 scale
start_ol
1959 3136 moveto
1497 3136 1228 2776 conicto
959 2417 959 1792 conicto
959 1167 1226 807 conicto
1493 448 1959 448 conicto
2418 448 2687 809 conicto
2956 1170 2956 1792 conicto
2956 2411 2687 2773 conicto
2418 3136 1959 3136 conicto
1960 3648 moveto
2710 3648 3138 3155 conicto
3566 2663 3566 1792 conicto
3566 924 3138 430 conicto
2710 -64 1960 -64 conicto
1206 -64 779 430 conicto
353 924 353 1792 conicto
353 2663 779 3155 conicto
1206 3648 1960 3648 conicto
end_ol grestore 
gsave 12.617012 8.358333 translate 0.035278 -0.035278 scale
start_ol
2631 3072 moveto
2534 3105 2420 3120 conicto
2306 3136 2168 3136 conicto
1681 3136 1420 2810 conicto
1159 2485 1159 1876 conicto
1159 0 lineto
581 0 lineto
581 3520 lineto
1159 3520 lineto
1159 3008 lineto
1340 3333 1631 3490 conicto
1922 3648 2337 3648 conicto
2397 3648 2468 3648 conicto
2540 3648 2628 3648 conicto
2631 3072 lineto
end_ol grestore 
gsave 12.100000 9.416667 translate 0.035278 -0.035278 scale
start_ol
1344 4864 moveto
1344 -1536 lineto
813 -1536 lineto
813 4864 lineto
1344 4864 lineto
end_ol grestore 
gsave 12.384733 9.416667 translate 0.035278 -0.035278 scale
start_ol
1344 4864 moveto
1344 -1536 lineto
813 -1536 lineto
813 4864 lineto
1344 4864 lineto
end_ol grestore 
gsave 20.650000 16.500000 translate 0.035278 -0.035278 scale
start_ol
1663 3047 moveto
1012 1280 lineto
2316 1280 lineto
1663 3047 lineto
1392 3520 moveto
1936 3520 lineto
3287 0 lineto
2788 0 lineto
2465 896 lineto
867 896 lineto
544 0 lineto
38 0 lineto
1392 3520 lineto
end_ol grestore 
gsave 21.087092 16.500000 translate 0.035278 -0.035278 scale
start_ol
957 3136 moveto
957 1792 lineto
1560 1792 lineto
1895 1792 2078 1967 conicto
2261 2142 2261 2465 conicto
2261 2786 2078 2961 conicto
1895 3136 1560 3136 conicto
957 3136 lineto
477 3520 moveto
1560 3520 lineto
2156 3520 2461 3251 conicto
2767 2983 2767 2465 conicto
2767 1943 2461 1675 conicto
2156 1408 1560 1408 conicto
957 1408 lineto
957 0 lineto
477 0 lineto
477 3520 lineto
end_ol grestore 
gsave 16.550000 15.900000 translate 0.035278 -0.035278 scale
start_ol
2603 3392 moveto
2603 2944 lineto
2330 3073 2087 3136 conicto
1845 3200 1620 3200 conicto
1228 3200 1015 3052 conicto
803 2904 803 2631 conicto
803 2402 944 2285 conicto
1086 2169 1480 2097 conicto
1769 2039 lineto
2306 1937 2561 1678 conicto
2817 1420 2817 986 conicto
2817 469 2471 202 conicto
2126 -64 1458 -64 conicto
1207 -64 923 0 conicto
639 65 335 192 conicto
335 704 lineto
627 513 907 416 conicto
1188 320 1459 320 conicto
1869 320 2092 485 conicto
2316 650 2316 955 conicto
2316 1221 2155 1371 conicto
1995 1522 1629 1597 conicto
1337 1652 lineto
801 1756 561 1978 conicto
321 2201 321 2597 conicto
321 3056 652 3320 conicto
984 3584 1565 3584 conicto
1815 3584 2073 3536 conicto
2332 3488 2603 3392 conicto
end_ol grestore 
gsave 16.957119 15.900000 translate 0.035278 -0.035278 scale
start_ol
-14 3520 moveto
2985 3520 lineto
2985 3136 lineto
1727 3136 lineto
1727 0 lineto
1245 0 lineto
1245 3136 lineto
-14 3136 lineto
-14 3520 lineto
end_ol grestore 
showpage
