(module LOGO (layer F.Cu)
  (at 0 0)
 (fp_text reference "G***" (at 0 0) (layer F.SilkS) hide
  (effects (font (thickness 0.3)))
  )
  (fp_text value "LOGO" (at 0.75 0) (layer F.SilkS) hide
  (effects (font (thickness 0.3)))
  )
  (fp_poly (pts (xy 0.408671 0.473075) (xy 0.410088 0.562409) (xy 0.411582 0.630160) (xy 0.413612 0.680142) (xy 0.416637 0.716169) (xy 0.421118 0.742055) (xy 0.427514 0.761613) (xy 0.436284 0.778657)
     (xy 0.447669 0.796664) (xy 0.498337 0.853338) (xy 0.563077 0.888966) (xy 0.642115 0.903660) (xy 0.666745 0.904040) (xy 0.748383 0.895080) (xy 0.826558 0.872912) (xy 0.886719 0.843051)
     (xy 0.909513 0.830213) (xy 0.920543 0.827660) (xy 0.925828 0.840476) (xy 0.937871 0.873157) (xy 0.955179 0.921547) (xy 0.976258 0.981488) (xy 0.990471 1.022350) (xy 1.041317 1.169279)
     (xy 1.084273 1.293732) (xy 1.119844 1.397202) (xy 1.148535 1.481186) (xy 1.170852 1.547178) (xy 1.187302 1.596673) (xy 1.198388 1.631166) (xy 1.204618 1.652152) (xy 1.206500 1.661005)
     (xy 1.195518 1.672099) (xy 1.166569 1.688768) (xy 1.125645 1.708159) (xy 1.078739 1.727416) (xy 1.035050 1.742686) (xy 0.964442 1.763549) (xy 0.899102 1.779440) (xy 0.833390 1.791095)
     (xy 0.761665 1.799251) (xy 0.678289 1.804644) (xy 0.577623 1.808010) (xy 0.527050 1.809028) (xy 0.444334 1.810163) (xy 0.367663 1.810658) (xy 0.301615 1.810529) (xy 0.250769 1.809789)
     (xy 0.219704 1.808453) (xy 0.215900 1.808070) (xy 0.042991 1.777524) (xy -0.114525 1.731736) (xy -0.255589 1.671626) (xy -0.379140 1.598111) (xy -0.484116 1.512112) (xy -0.569458 1.414547)
     (xy -0.634103 1.306335) (xy -0.676992 1.188395) (xy -0.697062 1.061645) (xy -0.698501 1.016000) (xy -0.686566 0.884238) (xy -0.651182 0.761310) (xy -0.592977 0.647961) (xy -0.512578 0.544934)
     (xy -0.410614 0.452977) (xy -0.287713 0.372833) (xy -0.144504 0.305247) (xy -0.078778 0.280898) (xy 0.024542 0.249834) (xy 0.131756 0.225426) (xy 0.234199 0.209333) (xy 0.323202 0.203214)
     (xy 0.327111 0.203200) (xy 0.404593 0.203200) (xy 0.408671 0.473075) )(layer F.SilkS) (width  0.010000)
  )
  (fp_poly (pts (xy -0.306554 -1.776152) (xy -0.196189 -1.775557) (xy -0.104995 -1.774971) (xy 0.400050 -1.771650) (xy 0.406756 -0.965200) (xy 1.003448 -0.965200) (xy 0.995753 -0.854075) (xy 0.978801 -0.713870)
     (xy 0.948656 -0.581128) (xy 0.906770 -0.460006) (xy 0.854597 -0.354663) (xy 0.793589 -0.269256) (xy 0.789920 -0.265124) (xy 0.743215 -0.218031) (xy 0.694242 -0.180111) (xy 0.638571 -0.149411)
     (xy 0.571769 -0.123981) (xy 0.489406 -0.101868) (xy 0.387048 -0.081120) (xy 0.361950 -0.076640) (xy 0.242401 -0.054981) (xy 0.143189 -0.035077) (xy 0.059451 -0.015500) (xy -0.013677 0.005181)
     (xy -0.081057 0.028396) (xy -0.147552 0.055574) (xy -0.218025 0.088147) (xy -0.247650 0.102628) (xy -0.379981 0.178593) (xy -0.497072 0.267209) (xy -0.596996 0.366190) (xy -0.677820 0.473250)
     (xy -0.737615 0.586104) (xy -0.774451 0.702466) (xy -0.780036 0.733057) (xy -0.788837 0.754498) (xy -0.791266 0.757399) (xy -0.793355 0.747331) (xy -0.795268 0.714714) (xy -0.796945 0.662397)
     (xy -0.798325 0.593231) (xy -0.799348 0.510065) (xy -0.799955 0.415751) (xy -0.800100 0.338666) (xy -0.800100 -0.088900) (xy -1.193800 -0.088900) (xy -1.193800 -0.965200) (xy -0.800100 -0.965200)
     (xy -0.800030 -1.266825) (xy -0.799492 -1.354508) (xy -0.798022 -1.436016) (xy -0.795773 -1.507144) (xy -0.792897 -1.563683) (xy -0.789546 -1.601424) (xy -0.787486 -1.612900) (xy -0.756985 -1.675577)
     (xy -0.703799 -1.726934) (xy -0.663795 -1.750924) (xy -0.649684 -1.757777) (xy -0.635196 -1.763359) (xy -0.617752 -1.767781) (xy -0.594773 -1.771152) (xy -0.563678 -1.773585) (xy -0.521888 -1.775191)
     (xy -0.466824 -1.776080) (xy -0.395905 -1.776363) (xy -0.306554 -1.776152) )(layer F.SilkS) (width  0.010000)
  )
)
